Data/Output/LOG0000/DS0090.CSV

Memory Length,4000,
Trigger Level,-1.20000e+02,
Source,CH2,
Probe,1.0X,
Vertical Units,V,
Vertical Scale,1.00000e+00,
Vertical Position,0.00000e+00,
Horizontal Units,S,
Horizontal Scale,1.00000e-02,
Horizontal Position,0.0000000e+00,
Horizontal Mode,Main,
Sampling Period,4.00000e-05,
Firmware,V1.14,
Time, ,
Mode,Fast,
Waveform Data,
-45,
-45,
-45,
-43,
-43,
-39,
-28,
-30,
-30,
-28,
-14,
-17,
-17,
-13,
-13,
-7,
5,
3,
3,
12,
12,
20,
20,
26,
26,
32,
32,
39,
39,
42,
42,
48,
48,
50,
50,
57,
57,
55,
55,
56,
56,
61,
61,
59,
59,
56,
56,
54,
54,
54,
54,
47,
47,
44,
44,
39,
39,
35,
24,
26,
26,
17,
17,
14,
3,
4,
4,
-1,
-1,
-9,
-9,
-14,
-25,
-21,
-32,
-28,
-28,
-36,
-36,
-41,
-41,
-45,
-45,
-49,
-49,
-52,
-52,
-55,
-55,
-56,
-56,
-56,
-56,
-55,
-55,
-54,
-54,
-52,
-52,
-48,
-48,
-46,
-46,
-41,
-41,
-35,
-35,
-29,
-29,
-22,
-22,
-18,
-18,
-9,
-9,
-4,
7,
3,
15,
13,
13,
22,
22,
28,
28,
33,
33,
41,
41,
47,
47,
49,
49,
53,
53,
57,
57,
58,
58,
56,
56,
60,
60,
59,
59,
55,
55,
52,
52,
50,
50,
47,
47,
42,
42,
35,
35,
30,
30,
22,
22,
13,
13,
9,
9,
1,
1,
-4,
-17,
-14,
-14,
-17,
-17,
-24,
-37,
-32,
-32,
-39,
-39,
-45,
-45,
-47,
-47,
-50,
-50,
-54,
-54,
-60,
-60,
-57,
-57,
-56,
-56,
-54,
-54,
-53,
-53,
-49,
-49,
-47,
-47,
-41,
-41,
-40,
-40,
-34,
-34,
-27,
-27,
-19,
-8,
-10,
-10,
-5,
-5,
4,
4,
10,
10,
15,
15,
22,
22,
31,
31,
35,
35,
44,
44,
47,
47,
52,
52,
56,
56,
58,
58,
60,
60,
60,
60,
59,
59,
58,
58,
55,
55,
53,
53,
50,
50,
44,
44,
41,
41,
35,
35,
27,
27,
20,
20,
12,
12,
5,
5,
-5,
-5,
-9,
-9,
-14,
-14,
-22,
-22,
-29,
-29,
-34,
-34,
-38,
-38,
-43,
-43,
-48,
-48,
-52,
-52,
-56,
-56,
-57,
-57,
-57,
-57,
-56,
-56,
-53,
-53,
-52,
-52,
-47,
-47,
-42,
-42,
-39,
-39,
-36,
-36,
-31,
-20,
-20,
-20,
-15,
-15,
-12,
2,
1,
1,
5,
5,
13,
13,
18,
18,
27,
27,
31,
31,
40,
40,
46,
46,
48,
48,
55,
55,
54,
54,
55,
55,
61,
61,
61,
61,
58,
58,
56,
56,
55,
55,
51,
51,
50,
50,
44,
44,
38,
38,
29,
29,
29,
15,
19,
7,
12,
12,
5,
-6,
-4,
-4,
-9,
-20,
-17,
-17,
-24,
-24,
-30,
-30,
-36,
-36,
-40,
-40,
-48,
-48,
-48,
-48,
-50,
-50,
-54,
-54,
-56,
-56,
-55,
-55,
-57,
-57,
-54,
-54,
-49,
-49,
-49,
-49,
-45,
-45,
-38,
-38,
-33,
-33,
-26,
-26,
-18,
-18,
-13,
-13,
-8,
-8,
-1,
10,
7,
19,
17,
17,
21,
32,
28,
28,
33,
33,
42,
42,
45,
45,
50,
50,
52,
52,
54,
54,
56,
56,
56,
56,
61,
61,
58,
58,
56,
56,
54,
54,
50,
50,
46,
46,
43,
32,
35,
35,
31,
31,
21,
21,
16,
16,
7,
7,
-1,
-1,
-6,
-17,
-16,
-16,
-21,
-21,
-26,
-26,
-32,
-32,
-36,
-36,
-45,
-45,
-46,
-46,
-52,
-52,
-55,
-55,
-55,
-55,
-58,
-58,
-57,
-57,
-58,
-58,
-53,
-53,
-51,
-51,
-46,
-46,
-43,
-43,
-37,
-37,
-33,
-22,
-27,
-27,
-20,
-20,
-13,
-13,
-6,
-6,
1,
1,
9,
22,
19,
19,
24,
24,
33,
33,
34,
34,
42,
42,
47,
47,
51,
51,
52,
52,
56,
56,
58,
58,
61,
61,
56,
56,
57,
57,
52,
52,
51,
51,
48,
48,
44,
44,
40,
40,
32,
32,
26,
26,
19,
19,
12,
12,
4,
4,
-3,
-3,
-9,
-9,
-15,
-26,
-25,
-25,
-32,
-32,
-35,
-35,
-43,
-43,
-46,
-46,
-50,
-50,
-52,
-52,
-55,
-55,
-54,
-54,
-58,
-58,
-58,
-58,
-55,
-55,
-52,
-52,
-49,
-49,
-46,
-46,
-39,
-39,
-35,
-35,
-28,
-28,
-22,
-22,
-14,
-14,
-8,
-8,
-4,
7,
3,
16,
14,
14,
22,
22,
26,
26,
30,
30,
40,
40,
43,
43,
46,
46,
51,
51,
58,
58,
58,
58,
57,
57,
59,
59,
59,
59,
56,
56,
56,
56,
51,
51,
47,
47,
42,
42,
39,
39,
30,
30,
25,
13,
14,
14,
10,
10,
4,
4,
-3,
-16,
-14,
-14,
-20,
-20,
-26,
-37,
-35,
-35,
-37,
-37,
-42,
-42,
-48,
-48,
-52,
-52,
-52,
-52,
-54,
-54,
-53,
-53,
-58,
-58,
-56,
-56,
-51,
-51,
-49,
-49,
-49,
-49,
-44,
-44,
-38,
-38,
-30,
-30,
-28,
-16,
-17,
-17,
-9,
-9,
-8,
4,
2,
2,
9,
9,
15,
15,
20,
33,
33,
33,
38,
38,
40,
40,
47,
47,
51,
51,
53,
53,
56,
56,
58,
58,
58,
58,
58,
58,
57,
57,
57,
57,
55,
55,
52,
52,
47,
47,
42,
42,
36,
36,
29,
29,
20,
20,
15,
15,
7,
7,
0,
0,
-6,
-6,
-13,
-25,
-24,
-24,
-30,
-30,
-35,
-35,
-39,
-39,
-46,
-46,
-49,
-49,
-50,
-50,
-56,
-56,
-55,
-55,
-54,
-54,
-54,
-54,
-52,
-52,
-50,
-50,
-50,
-50,
-47,
-47,
-42,
-42,
-37,
-26,
-28,
-28,
-26,
-14,
-16,
-16,
-9,
-9,
-1,
-1,
5,
5,
12,
12,
18,
18,
27,
27,
34,
34,
36,
36,
45,
45,
48,
48,
53,
53,
55,
55,
58,
58,
57,
57,
61,
61,
61,
61,
59,
59,
56,
56,
53,
53,
49,
49,
44,
44,
38,
38,
31,
31,
25,
25,
19,
19,
11,
11,
6,
6,
-2,
-2,
-9,
-21,
-20,
-20,
-22,
-37,
-30,
-30,
-36,
-36,
-42,
-42,
-47,
-47,
-50,
-50,
-53,
-53,
-52,
-52,
-54,
-54,
-57,
-57,
-54,
-54,
-53,
-53,
-52,
-52,
-46,
-46,
-44,
-44,
-40,
-40,
-31,
-31,
-28,
-28,
-22,
-22,
-15,
-15,
-10,
3,
0,
0,
8,
8,
16,
16,
22,
22,
28,
28,
34,
34,
39,
39,
46,
46,
50,
50,
55,
55,
55,
55,
56,
56,
57,
57,
61,
61,
56,
56,
56,
56,
50,
50,
50,
50,
44,
44,
40,
40,
38,
24,
29,
18,
23,
23,
15,
15,
8,
-3,
2,
-9,
-5,
-16,
-13,
-13,
-21,
-21,
-27,
-27,
-33,
-33,
-40,
-40,
-45,
-45,
-46,
-46,
-51,
-51,
-54,
-54,
-55,
-55,
-59,
-59,
-53,
-53,
-58,
-58,
-52,
-52,
-51,
-51,
-47,
-47,
-41,
-41,
-40,
-40,
-33,
-33,
-24,
-24,
-16,
-16,
-13,
-13,
-3,
-3,
1,
1,
11,
11,
18,
18,
22,
22,
28,
28,
35,
35,
41,
41,
44,
44,
49,
49,
55,
55,
57,
57,
60,
60,
58,
58,
59,
59,
57,
57,
53,
53,
51,
51,
51,
51,
46,
46,
41,
30,
31,
31,
26,
26,
19,
8,
10,
10,
6,
-5,
-4,
-4,
-7,
-19,
-19,
-19,
-21,
-34,
-28,
-39,
-37,
-37,
-40,
-40,
-43,
-43,
-51,
-51,
-49,
-49,
-55,
-55,
-57,
-57,
-56,
-56,
-55,
-55,
-57,
-57,
-51,
-51,
-47,
-47,
-45,
-45,
-38,
-38,
-40,
-28,
-33,
-21,
-21,
-21,
-14,
-14,
-9,
-9,
-2,
-2,
7,
7,
14,
14,
20,
20,
26,
26,
34,
34,
40,
40,
43,
43,
47,
47,
52,
52,
57,
57,
55,
55,
56,
56,
60,
60,
59,
59,
56,
56,
54,
54,
51,
51,
47,
47,
42,
42,
37,
37,
31,
31,
24,
24,
18,
18,
9,
9,
3,
3,
-4,
-4,
-10,
-21,
-16,
-30,
-26,
-26,
-33,
-33,
-38,
-38,
-40,
-40,
-45,
-45,
-52,
-52,
-52,
-52,
-56,
-56,
-57,
-57,
-55,
-55,
-53,
-53,
-56,
-56,
-52,
-52,
-46,
-46,
-44,
-44,
-36,
-36,
-34,
-22,
-26,
-26,
-19,
-19,
-11,
-11,
-7,
5,
3,
3,
10,
10,
17,
17,
22,
22,
32,
32,
38,
38,
40,
40,
45,
45,
51,
51,
54,
54,
55,
55,
59,
59,
59,
59,
59,
59,
58,
58,
57,
57,
53,
53,
50,
50,
47,
47,
39,
39,
36,
36,
27,
27,
21,
21,
15,
15,
10,
-3,
-1,
-1,
-6,
-6,
-13,
-13,
-20,
-20,
-28,
-28,
-35,
-35,
-38,
-38,
-46,
-46,
-48,
-48,
-50,
-50,
-56,
-56,
-57,
-57,
-56,
-56,
-57,
-57,
-55,
-55,
-52,
-52,
-48,
-48,
-48,
-48,
-41,
-41,
-34,
-34,
-28,
-28,
-23,
-23,
-14,
-14,
-12,
-12,
-5,
6,
3,
14,
9,
23,
23,
23,
23,
34,
34,
34,
40,
40,
44,
44,
47,
47,
51,
51,
56,
56,
56,
56,
60,
60,
58,
58,
61,
61,
54,
54,
56,
56,
52,
52,
48,
48,
42,
42,
36,
36,
32,
32,
26,
26,
18,
18,
14,
3,
7,
-5,
-1,
-1,
-8,
-8,
-17,
-17,
-23,
-23,
-28,
-28,
-34,
-34,
-42,
-42,
-45,
-45,
-48,
-48,
-54,
-54,
-54,
-54,
-55,
-55,
-54,
-54,
-54,
-54,
-54,
-54,
-51,
-51,
-49,
-49,
-42,
-42,
-38,
-38,
-34,
-34,
-27,
-27,
-18,
-18,
-12,
-12,
-8,
3,
-1,
11,
8,
8,
17,
17,
23,
23,
27,
27,
34,
34,
36,
48,
45,
45,
50,
50,
53,
53,
56,
56,
59,
59,
60,
60,
56,
56,
59,
59,
58,
58,
54,
54,
47,
47,
42,
42,
39,
39,
37,
37,
29,
29,
21,
21,
13,
13,
11,
-1,
0,
0,
-8,
-8,
-11,
-24,
-24,
-24,
-28,
-28,
-34,
-34,
-40,
-40,
-44,
-44,
-48,
-48,
-49,
-49,
-55,
-55,
-55,
-55,
-57,
-57,
-57,
-57,
-57,
-57,
-55,
-55,
-51,
-51,
-48,
-48,
-45,
-45,
-39,
-39,
-30,
-30,
-28,
-28,
-18,
-18,
-14,
-14,
-5,
-5,
4,
4,
10,
10,
15,
28,
27,
27,
33,
33,
36,
36,
42,
42,
44,
44,
52,
52,
54,
54,
55,
55,
58,
58,
58,
58,
57,
57,
55,
55,
55,
55,
52,
52,
49,
49,
46,
46,
39,
39,
32,
32,
28,
28,
18,
18,
13,
13,
8,
-3,
0,
0,
-9,
-9,
-17,
-17,
-24,
-24,
-30,
-30,
-37,
-37,
-39,
-39,
-45,
-45,
-48,
-48,
-53,
-53,
-54,
-54,
-55,
-55,
-58,
-58,
-53,
-53,
-53,
-53,
-55,
-55,
-49,
-49,
-46,
-46,
-41,
-41,
-36,
-36,
-30,
-30,
-24,
-13,
-14,
-14,
-9,
-9,
-4,
7,
6,
6,
10,
21,
20,
20,
27,
27,
33,
33,
39,
39,
44,
44,
50,
50,
54,
54,
55,
55,
54,
54,
60,
60,
60,
60,
56,
56,
56,
56,
51,
51,
53,
53,
46,
46,
41,
41,
36,
36,
31,
31,
25,
25,
18,
18,
12,
12,
6,
-5,
-5,
-5,
-11,
-23,
-18,
-29,
-25,
-25,
-31,
-42,
-38,
-38,
-44,
-44,
-46,
-46,
-49,
-49,
-51,
-51,
-54,
-54,
-59,
-59,
-58,
-58,
-56,
-56,
-53,
-53,
-54,
-54,
-46,
-46,
-42,
-42,
-39,
-39,
-32,
-32,
-24,
-24,
-19,
-19,
-13,
-13,
-8,
3,
3,
3,
12,
12,
14,
27,
24,
24,
28,
28,
36,
36,
39,
50,
46,
46,
49,
49,
55,
55,
56,
56,
61,
61,
60,
60,
58,
58,
58,
58,
57,
57,
54,
54,
50,
50,
45,
45,
41,
41,
33,
33,
28,
28,
22,
22,
16,
16,
8,
8,
1,
1,
-9,
-9,
-14,
-14,
-21,
-21,
-29,
-29,
-31,
-42,
-37,
-37,
-45,
-45,
-48,
-48,
-51,
-51,
-56,
-56,
-54,
-54,
-58,
-58,
-56,
-56,
-54,
-54,
-49,
-49,
-48,
-48,
-46,
-46,
-41,
-41,
-37,
-26,
-30,
-30,
-24,
-24,
-16,
-16,
-11,
0,
-4,
7,
4,
4,
11,
11,
20,
20,
28,
28,
34,
34,
39,
39,
42,
42,
45,
45,
50,
50,
56,
56,
55,
55,
60,
60,
59,
59,
58,
58,
55,
55,
54,
54,
54,
54,
46,
46,
44,
44,
37,
37,
32,
32,
24,
24,
20,
20,
13,
13,
3,
3,
-2,
-2,
-8,
-20,
-18,
-18,
-22,
-22,
-32,
-32,
-34,
-34,
-39,
-39,
-47,
-47,
-51,
-51,
-53,
-53,
-56,
-56,
-53,
-53,
-53,
-53,
-58,
-58,
-52,
-52,
-51,
-51,
-50,
-50,
-44,
-44,
-38,
-38,
-32,
-32,
-28,
-28,
-21,
-21,
-13,
-13,
-7,
-7,
0,
0,
8,
8,
16,
16,
23,
23,
29,
29,
34,
34,
39,
39,
44,
44,
52,
52,
54,
54,
57,
57,
55,
55,
60,
60,
57,
57,
56,
56,
55,
55,
56,
56,
52,
52,
45,
45,
42,
42,
35,
35,
30,
30,
25,
11,
16,
5,
6,
6,
-2,
-2,
-5,
-5,
-14,
-14,
-21,
-21,
-27,
-27,
-35,
-35,
-37,
-37,
-45,
-45,
-49,
-49,
-50,
-50,
-54,
-54,
-54,
-54,
-54,
-54,
-58,
-58,
-54,
-54,
-54,
-54,
-48,
-48,
-48,
-48,
-41,
-41,
-38,
-38,
-32,
-32,
-24,
-24,
-19,
-8,
-10,
-10,
-4,
-4,
0,
11,
5,
19,
17,
17,
23,
23,
30,
30,
36,
36,
40,
40,
47,
47,
48,
48,
51,
51,
57,
57,
60,
60,
59,
59,
58,
58,
56,
56,
54,
54,
51,
51,
47,
47,
47,
47,
40,
29,
31,
31,
26,
26,
21,
10,
12,
12,
9,
-5,
-3,
-3,
-9,
-9,
-16,
-16,
-22,
-34,
-33,
-33,
-38,
-38,
-41,
-41,
-44,
-44,
-48,
-48,
-53,
-53,
-55,
-55,
-56,
-56,
-59,
-59,
-54,
-54,
-53,
-53,
-53,
-53,
-52,
-52,
-46,
-46,
-39,
-39,
-37,
-26,
-26,
-26,
-22,
-22,
-17,
-17,
-9,
-9,
-6,
8,
5,
5,
13,
13,
19,
19,
24,
36,
36,
36,
37,
37,
43,
43,
50,
50,
51,
51,
54,
54,
58,
58,
57,
57,
56,
56,
57,
57,
58,
58,
54,
54,
49,
49,
45,
45,
43,
43,
38,
38,
28,
28,
23,
23,
17,
17,
11,
11,
2,
2,
-5,
-5,
-9,
-9,
-17,
-17,
-22,
-33,
-30,
-30,
-36,
-36,
-40,
-40,
-46,
-46,
-50,
-50,
-51,
-51,
-54,
-54,
-56,
-56,
-58,
-58,
-57,
-57,
-52,
-52,
-52,
-52,
-46,
-46,
-40,
-40,
-40,
-40,
-33,
-33,
-30,
-18,
-18,
-18,
-14,
-14,
-8,
4,
4,
4,
10,
10,
18,
18,
24,
24,
28,
28,
35,
35,
39,
39,
47,
47,
51,
51,
53,
53,
58,
58,
56,
56,
60,
60,
60,
60,
58,
58,
55,
55,
54,
54,
49,
49,
45,
45,
39,
39,
34,
34,
27,
27,
24,
24,
17,
17,
10,
-3,
-2,
-2,
-9,
-9,
-13,
-24,
-24,
-24,
-26,
-37,
-32,
-32,
-41,
-41,
-43,
-43,
-50,
-50,
-51,
-51,
-56,
-56,
-55,
-55,
-55,
-55,
-54,
-54,
-55,
-55,
-54,
-54,
-50,
-50,
-48,
-48,
-40,
-40,
-40,
-29,
-34,
-22,
-24,
-24,
-16,
-16,
-9,
-9,
-5,
6,
4,
4,
12,
12,
20,
20,
25,
25,
32,
32,
36,
36,
43,
43,
48,
48,
52,
52,
57,
57,
58,
58,
58,
58,
60,
60,
59,
59,
56,
56,
54,
54,
54,
54,
47,
47,
44,
44,
36,
36,
31,
31,
26,
26,
16,
16,
14,
2,
2,
2,
-3,
-3,
-10,
-10,
-18,
-18,
-25,
-25,
-29,
-29,
-36,
-36,
-43,
-43,
-46,
-46,
-50,
-50,
-54,
-54,
-54,
-54,
-57,
-57,
-55,
-55,
-55,
-55,
-54,
-54,
-53,
-53,
-48,
-48,
-45,
-45,
-38,
-38,
-32,
-32,
-31,
-20,
-20,
-20,
-16,
-16,
-8,
-8,
-2,
10,
7,
7,
16,
16,
23,
23,
27,
27,
35,
35,
39,
39,
45,
45,
51,
51,
54,
54,
56,
56,
59,
59,
58,
58,
58,
58,
55,
55,
59,
59,
53,
53,
53,
53,
46,
46,
43,
43,
36,
36,
27,
27,
22,
22,
18,
7,
10,
-1,
0,
0,
-6,
-6,
-15,
-15,
-17,
-28,
-25,
-37,
-33,
-33,
-41,
-41,
-44,
-44,
-47,
-47,
-49,
-49,
-53,
-53,
-57,
-57,
-59,
-59,
-56,
-56,
-55,
-55,
-53,
-53,
-51,
-51,
-46,
-46,
-39,
-39,
-38,
-38,
-32,
-32,
-24,
-24,
-21,
-9,
-9,
-9,
-5,
-5,
2,
2,
10,
10,
16,
16,
24,
24,
29,
40,
35,
35,
40,
40,
47,
47,
48,
48,
53,
53,
57,
57,
57,
57,
61,
61,
56,
56,
57,
57,
55,
55,
53,
53,
49,
49,
46,
46,
40,
40,
34,
34,
27,
27,
19,
19,
15,
4,
7,
7,
-1,
-1,
-7,
-7,
-17,
-17,
-24,
-24,
-29,
-29,
-36,
-36,
-38,
-49,
-45,
-45,
-48,
-48,
-53,
-53,
-53,
-53,
-56,
-56,
-58,
-58,
-56,
-56,
-55,
-55,
-53,
-53,
-51,
-51,
-46,
-46,
-39,
-39,
-36,
-36,
-29,
-29,
-20,
-20,
-18,
-18,
-10,
1,
-2,
-2,
7,
7,
11,
11,
21,
21,
28,
28,
31,
31,
38,
38,
44,
44,
49,
49,
51,
51,
56,
56,
57,
57,
59,
59,
57,
57,
57,
57,
56,
56,
54,
54,
52,
52,
47,
47,
40,
40,
34,
34,
31,
31,
25,
14,
19,
8,
8,
8,
2,
2,
-3,
-16,
-10,
-21,
-20,
-20,
-24,
-24,
-33,
-33,
-37,
-37,
-42,
-42,
-46,
-46,
-52,
-52,
-51,
-51,
-53,
-53,
-54,
-54,
-56,
-56,
-54,
-54,
-54,
-54,
-50,
-50,
-46,
-46,
-42,
-42,
-40,
-40,
-34,
-34,
-28,
-28,
-20,
-20,
-14,
-14,
-8,
4,
2,
2,
9,
9,
14,
14,
20,
20,
30,
30,
35,
35,
41,
41,
47,
47,
50,
50,
53,
53,
58,
58,
56,
56,
59,
59,
57,
57,
60,
60,
56,
56,
52,
52,
50,
50,
44,
44,
40,
40,
36,
36,
28,
28,
20,
20,
15,
15,
7,
7,
3,
-9,
-9,
-9,
-15,
-15,
-22,
-22,
-25,
-25,
-33,
-33,
-38,
-38,
-45,
-45,
-48,
-48,
-53,
-53,
-54,
-54,
-53,
-53,
-55,
-55,
-57,
-57,
-54,
-54,
-55,
-55,
-51,
-51,
-48,
-48,
-42,
-42,
-37,
-37,
-30,
-30,
-25,
-25,
-19,
-19,
-10,
-10,
-5,
6,
6,
6,
7,
20,
18,
18,
26,
26,
34,
34,
38,
38,
41,
41,
47,
47,
51,
51,
55,
55,
58,
58,
60,
60,
59,
59,
58,
58,
60,
60,
54,
54,
55,
55,
46,
46,
43,
43,
39,
39,
32,
32,
25,
25,
19,
19,
14,
14,
4,
4,
-3,
-3,
-9,
-21,
-20,
-20,
-24,
-24,
-30,
-30,
-34,
-34,
-43,
-43,
-46,
-46,
-49,
-49,
-52,
-52,
-56,
-56,
-58,
-58,
-57,
-57,
-56,
-56,
-55,
-55,
-52,
-52,
-50,
-50,
-44,
-44,
-40,
-40,
-33,
-33,
-29,
-29,
-23,
-23,
-18,
-7,
-8,
-8,
1,
1,
8,
8,
15,
15,
19,
19,
28,
28,
32,
43,
42,
42,
43,
43,
49,
49,
52,
52,
56,
56,
56,
56,
60,
60,
56,
56,
58,
58,
56,
56,
54,
54,
51,
51,
47,
47,
42,
42,
35,
35,
26,
26,
24,
24,
15,
15,
10,
10,
3,
-8,
-4,
-4,
-11,
-22,
-22,
-22,
-26,
-26,
-33,
-33,
-38,
-38,
-44,
-44,
-46,
-46,
-53,
-53,
-52,
-52,
-54,
-54,
-54,
-54,
-56,
-56,
-56,
-56,
-52,
-52,
-51,
-51,
-46,
-46,
-44,
-44,
-36,
-36,
-32,
-32,
-25,
-25,
-18,
-18,
-14,
-2,
-3,
-3,
4,
4,
10,
10,
16,
16,
24,
24,
28,
28,
37,
37,
42,
42,
47,
47,
50,
50,
55,
55,
56,
56,
56,
56,
57,
57,
57,
57,
59,
59,
55,
55,
51,
51,
51,
51,
44,
44,
42,
31,
31,
31,
25,
25,
22,
22,
14,
3,
4,
4,
-1,
-1,
-7,
-7,
-16,
-16,
-21,
-32,
-32,
-32,
-33,
-33,
-40,
-40,
-43,
-43,
-50,
-50,
-54,
-54,
-54,
-54,
-55,
-55,
-55,
-55,
-56,
-56,
-54,
-54,
-51,
-51,
-53,
-53,
-43,
-43,
-38,
-38,
-36,
-36,
-30,
-30,
-23,
-23,
-18,
-7,
-8,
-8,
-1,
-1,
5,
16,
12,
12,
22,
22,
28,
28,
30,
30,
37,
37,
44,
44,
50,
50,
50,
50,
58,
58,
56,
56,
57,
57,
58,
58,
59,
59,
57,
57,
54,
54,
52,
52,
44,
44,
44,
44,
35,
35,
29,
29,
24,
24,
19,
19,
12,
12,
4,
4,
-5,
-5,
-12,
-12,
-18,
-18,
-24,
-35,
-30,
-42,
-42,
-42,
-44,
-44,
-45,
-45,
-49,
-49,
-53,
-53,
-53,
-53,
-55,
-55,
-55,
-55,
-56,
-56,
-52,
-52,
-52,
-52,
-45,
-45,
-44,
-44,
-38,
-38,
-35,
-35,
-28,
-28,
-20,
-20,
-14,
-14,
-5,
-5,
4,
4,
5,
17,
14,
14,
20,
31,
31,
31,
32,
32,
42,
42,
48,
48,
52,
52,
53,
53,
54,
54,
56,
56,
59,
59,
60,
60,
60,
60,
56,
56,
52,
52,
49,
49,
43,
43,
40,
40,
35,
35,
32,
18,
19,
19,
15,
15,
8,
8,
0,
0,
-8,
-8,
-13,
-24,
-22,
-22,
-29,
-29,
-35,
-35,
-39,
-39,
-44,
-44,
-49,
-49,
-53,
-53,
-54,
-54,
-55,
-55,
-55,
-55,
-55,
-55,
-54,
-54,
-51,
-51,
-48,
-48,
-48,
-48,
-39,
-39,
-34,
-34,
-33,
-33,
-25,
-25,
-18,
-18,
-12,
-12,
-5,
6,
3,
3,
12,
12,
18,
18,
25,
25,
29,
29,
37,
37,
42,
42,
48,
48,
51,
51,
55,
55,
59,
59,
60,
60,
60,
60,
58,
58,
56,
56,
52,
52,
52,
52,
48,
48,
44,
44,
37,
37,
31,
31,
28,
17,
18,
18,
12,
12,
4,
4,
-4,
-4,
-8,
-8,
-16,
-16,
-25,
-25,
-29,
-29,
-36,
-36,
-42,
-42,
-45,
-45,
-50,
-50,
-53,
-53,
-56,
-56,
-55,
-55,
-56,
-56,
-56,
-56,
-54,
-54,
-51,
-51,
-49,
-49,
-44,
-44,
-41,
-41,
-36,
-36,
-30,
-30,
-24,
-24,
-16,
-16,
-8,
-8,
0,
0,
6,
6,
15,
15,
20,
20,
26,
26,
32,
32,
40,
40,
45,
45,
48,
48,
53,
53,
54,
54,
59,
59,
56,
56,
59,
59,
57,
57,
54,
54,
52,
52,
53,
53,
45,
45,
42,
42,
34,
34,
29,
29,
23,
23,
16,
16,
8,
8,
3,
3,
-6,
-6,
-13,
-13,
-22,
-22,
-25,
-25,
-34,
-34,
-37,
-37,
-44,
-44,
-46,
-46,
-51,
-51,
-54,
-54,
-54,
-54,
-57,
-57,
-56,
-56,
-56,
-56,
-51,
-51,
-52,
-52,
-47,
-47,
-43,
-43,
-35,
-35,
-30,
-30,
-24,
-24,
-18,
-18,
-13,
-13,
-7,
-7,
1,
12,
11,
11,
18,
18,
26,
26,
31,
31,
34,
34,
41,
41,
47,
47,
51,
51,
52,
52,
56,
56,
55,
55,
60,
60,
57,
57,
59,
59,
55,
55,
52,
52,
47,
47,
44,
44,
36,
36,
30,
30,
29,
29,
21,
21,
12,
12,
9,
-3,
-2,
-2,
-6,
-17,
-15,
-15,
-25,
-25,
-26,
-26,
-33,
-45,
-39,
-39,
-46,
-46,
-48,
-48,
-54,
-54,
-54,
-54,
-57,
-57,
-54,
-54,
-54,
-54,
-54,
-54,
-53,
-53,
-50,
-50,
-48,
-48,
-40,
-40,
-36,
-36,
-30,
-30,
-23,
-23,
-15,
-15,
-11,
0,
0,
0,
8,
8,
11,
11,
19,
19,
24,
24,
31,
31,
38,
38,
44,
44,
49,
49,
51,
51,
58,
58,
59,
59,
56,
56,
59,
59,
58,
58,
55,
55,
55,
55,
52,
52,
45,
45,
43,
43,
36,
36,
31,
31,
25,
25,
17,
17,
11,
11,
4,
4,
-3,
-3,
-8,
-20,
-19,
-19,
-25,
-25,
-30,
-30,
-36,
-36,
-42,
-42,
-48,
-48,
-50,
-50,
-51,
-51,
-56,
-56,
-54,
-54,
-60,
-60,
-56,
-56,
-53,
-53,
-51,
-51,
-47,
-47,
-43,
-43,
-36,
-36,
-31,
-31,
-26,
-26,
-20,
-20,
-17,
-17,
-9,
3,
1,
1,
8,
8,
13,
13,
20,
32,
31,
31,
35,
35,
42,
42,
46,
46,
47,
47,
52,
52,
55,
55,
58,
58,
57,
57,
60,
60,
58,
58,
56,
56,
55,
55,
47,
47,
46,
46,
40,
40,
35,
35,
30,
19,
20,
20,
13,
13,
4,
4,
-2,
-2,
-8,
-8,
-15,
-15,
-20,
-20,
-30,
-30,
-34,
-34,
-38,
-38,
-44,
-44,
-48,
-48,
-50,
-50,
-54,
-54,
-56,
-56,
-56,
-56,
-56,
-56,
-54,
-54,
-53,
-53,
-51,
-51,
-46,
-46,
-42,
-42,
-36,
-36,
-31,
-31,
-25,
-25,
-17,
-17,
-9,
-9,
-5,
-5,
4,
4,
10,
10,
18,
18,
24,
24,
31,
31,
36,
36,
42,
42,
45,
45,
52,
52,
55,
55,
54,
54,
58,
58,
59,
59,
58,
58,
58,
58,
57,
57,
54,
54,
51,
51,
43,
43,
40,
40,
32,
32,
26,
26,
17,
17,
14,
3,
4,
4,
-2,
-2,
-9,
-9,
-16,
-16,
-21,
-32,
-31,
-31,
-35,
-35,
-41,
-41,
-48,
-48,
-46,
-46,
-49,
-49,
-54,
-54,
-55,
-55,
-54,
-54,
-56,
-56,
-55,
-55,
-53,
-53,
-49,
-49,
-46,
-46,
-38,
-38,
-34,
-34,
-31,
-20,
-23,
-23,
-13,
-13,
-8,
-8,
0,
0,
5,
5,
10,
22,
18,
29,
27,
27,
31,
43,
37,
37,
44,
44,
48,
48,
54,
54,
57,
57,
57,
57,
56,
56,
60,
60,
58,
58,
57,
57,
55,
55,
50,
50,
47,
47,
40,
40,
36,
36,
29,
29,
21,
21,
15,
15,
10,
10,
2,
2,
-4,
-16,
-16,
-16,
-21,
-21,
-27,
-27,
-31,
-31,
-40,
-40,
-44,
-44,
-47,
-47,
-53,
-53,
-54,
-54,
-54,
-54,
-59,
-59,
-58,
-58,
-55,
-55,
-56,
-56,
-51,
-51,
-45,
-45,
-40,
-40,
-41,
-41,
-33,
-33,
-29,
-16,
-18,
-18,
-13,
-13,
-8,
4,
0,
11,
11,
11,
19,
19,
25,
25,
32,
32,
36,
36,
42,
42,
45,
