Data/Output/LOG0000/DS0097.CSV

Memory Length,4000,
Trigger Level,-1.20000e+02,
Source,CH2,
Probe,1.0X,
Vertical Units,V,
Vertical Scale,1.00000e+00,
Vertical Position,0.00000e+00,
Horizontal Units,S,
Horizontal Scale,1.00000e-02,
Horizontal Position,0.0000000e+00,
Horizontal Mode,Main,
Sampling Period,4.00000e-05,
Firmware,V1.14,
Time, ,
Mode,Fast,
Waveform Data,
-35,
-35,
-35,
-41,
-41,
-44,
-44,
-52,
-52,
-55,
-55,
-58,
-58,
-56,
-56,
-56,
-56,
-56,
-56,
-54,
-54,
-46,
-46,
-46,
-46,
-38,
-38,
-34,
-21,
-21,
-21,
-16,
-16,
-9,
-9,
-2,
-2,
5,
16,
15,
15,
20,
31,
31,
31,
36,
36,
43,
43,
47,
47,
50,
50,
53,
53,
59,
59,
58,
58,
58,
58,
55,
55,
54,
54,
53,
53,
47,
47,
45,
34,
36,
36,
30,
19,
20,
20,
14,
3,
3,
3,
-5,
-5,
-6,
-18,
-16,
-27,
-25,
-25,
-30,
-30,
-38,
-38,
-40,
-51,
-49,
-49,
-55,
-55,
-53,
-53,
-55,
-55,
-54,
-54,
-54,
-54,
-53,
-53,
-52,
-52,
-50,
-50,
-43,
-43,
-35,
-35,
-30,
-30,
-23,
-23,
-19,
-7,
-8,
-8,
0,
0,
9,
9,
19,
19,
24,
35,
31,
31,
41,
41,
42,
42,
51,
51,
54,
54,
55,
55,
56,
56,
59,
59,
58,
58,
57,
57,
54,
54,
53,
53,
44,
44,
42,
42,
37,
26,
28,
28,
20,
9,
12,
0,
3,
3,
-6,
-6,
-13,
-13,
-21,
-21,
-28,
-28,
-33,
-33,
-38,
-38,
-43,
-43,
-50,
-50,
-52,
-52,
-57,
-57,
-54,
-54,
-59,
-59,
-57,
-57,
-54,
-54,
-51,
-51,
-46,
-46,
-41,
-41,
-37,
-24,
-29,
-18,
-18,
-18,
-13,
-2,
-3,
-3,
3,
15,
13,
13,
21,
21,
29,
29,
35,
35,
42,
42,
49,
49,
52,
52,
54,
54,
56,
56,
57,
57,
60,
60,
61,
61,
59,
59,
51,
51,
49,
49,
46,
46,
36,
36,
30,
30,
24,
24,
18,
18,
10,
10,
2,
2,
-4,
-16,
-14,
-25,
-19,
-33,
-31,
-31,
-35,
-35,
-41,
-41,
-47,
-47,
-50,
-50,
-53,
-53,
-56,
-56,
-54,
-54,
-53,
-53,
-54,
-54,
-52,
-52,
-48,
-48,
-42,
-42,
-39,
-39,
-31,
-31,
-24,
-24,
-17,
-17,
-8,
-8,
-4,
7,
7,
7,
15,
27,
27,
27,
30,
30,
36,
36,
41,
41,
46,
46,
52,
52,
53,
53,
56,
56,
58,
58,
60,
60,
59,
59,
54,
54,
51,
51,
49,
49,
41,
41,
36,
36,
31,
31,
22,
22,
13,
13,
7,
7,
-2,
-2,
-7,
-20,
-19,
-19,
-25,
-25,
-33,
-33,
-40,
-40,
-45,
-45,
-50,
-50,
-53,
-53,
-52,
-52,
-56,
-56,
-56,
-56,
-54,
-54,
-54,
-54,
-51,
-51,
-46,
-46,
-41,
-41,
-36,
-36,
-27,
-27,
-20,
-20,
-14,
-14,
-8,
4,
3,
3,
11,
11,
18,
18,
24,
24,
31,
42,
36,
47,
46,
46,
50,
50,
53,
53,
57,
57,
57,
57,
58,
58,
59,
59,
56,
56,
53,
53,
50,
50,
47,
47,
43,
43,
34,
34,
26,
26,
21,
21,
11,
11,
5,
-6,
-6,
-6,
-9,
-20,
-19,
-19,
-24,
-37,
-36,
-36,
-41,
-41,
-46,
-46,
-51,
-51,
-52,
-52,
-53,
-53,
-58,
-58,
-58,
-58,
-53,
-53,
-51,
-51,
-49,
-49,
-43,
-43,
-43,
-43,
-33,
-33,
-30,
-16,
-17,
-17,
-17,
0,
-4,
8,
3,
15,
12,
23,
21,
21,
30,
30,
34,
34,
41,
41,
45,
45,
51,
51,
55,
55,
59,
59,
58,
58,
58,
58,
56,
56,
57,
57,
52,
52,
49,
49,
46,
46,
38,
38,
34,
21,
25,
14,
18,
18,
9,
9,
0,
0,
-8,
-8,
-14,
-14,
-23,
-23,
-27,
-27,
-36,
-36,
-44,
-44,
-46,
-46,
-49,
-49,
-51,
-51,
-57,
-57,
-55,
-55,
-57,
-57,
-52,
-52,
-53,
-53,
-48,
-48,
-42,
-42,
-42,
-27,
-32,
-20,
-24,
-24,
-18,
-18,
-9,
2,
-1,
-1,
4,
18,
14,
26,
23,
23,
31,
31,
36,
36,
44,
44,
48,
48,
50,
50,
55,
55,
59,
59,
59,
59,
59,
59,
57,
57,
57,
57,
50,
50,
51,
40,
43,
43,
34,
34,
32,
32,
24,
12,
12,
12,
5,
5,
0,
0,
-9,
-9,
-16,
-28,
-28,
-28,
-32,
-32,
-35,
-46,
-43,
-43,
-46,
-46,
-52,
-52,
-53,
-53,
-56,
-56,
-56,
-56,
-55,
-55,
-53,
-53,
-49,
-49,
-49,
-49,
-42,
-42,
-35,
-35,
-30,
-30,
-24,
-24,
-17,
-17,
-8,
4,
4,
4,
11,
11,
20,
20,
27,
27,
34,
34,
41,
41,
42,
42,
49,
49,
52,
52,
55,
55,
58,
58,
59,
59,
57,
57,
58,
58,
54,
54,
52,
52,
47,
47,
39,
39,
35,
35,
28,
28,
19,
19,
11,
11,
3,
3,
-6,
-6,
-9,
-22,
-19,
-30,
-30,
-30,
-36,
-36,
-41,
-41,
-45,
-45,
-51,
-51,
-54,
-54,
-57,
-57,
-55,
-55,
-58,
-58,
-55,
-55,
-53,
-53,
-48,
-48,
-42,
-42,
-38,
-38,
-34,
-34,
-26,
-26,
-21,
-10,
-14,
-14,
-7,
7,
4,
16,
10,
21,
19,
30,
29,
29,
35,
35,
41,
41,
45,
45,
49,
49,
55,
55,
56,
56,
59,
59,
59,
59,
57,
57,
53,
53,
55,
55,
50,
50,
44,
44,
38,
38,
32,
32,
26,
14,
17,
6,
7,
7,
-2,
-2,
-9,
-9,
-16,
-16,
-25,
-25,
-30,
-30,
-36,
-36,
-45,
-45,
-46,
-46,
-50,
-50,
-54,
-54,
-58,
-58,
-54,
-54,
-55,
-55,
-52,
-52,
-53,
-53,
-48,
-48,
-43,
-43,
-38,
-38,
-32,
-32,
-25,
-25,
-19,
-7,
-10,
2,
2,
2,
7,
19,
17,
17,
26,
26,
30,
30,
36,
36,
45,
45,
48,
48,
51,
51,
56,
56,
55,
55,
59,
59,
57,
57,
56,
56,
52,
52,
51,
51,
46,
46,
41,
41,
35,
35,
31,
31,
24,
13,
16,
4,
8,
-5,
-3,
-3,
-9,
-9,
-17,
-17,
-25,
-25,
-34,
-34,
-39,
-39,
-45,
-45,
-49,
-49,
-53,
-53,
-52,
-52,
-56,
-56,
-57,
-57,
-56,
-56,
-55,
-55,
-53,
-53,
-44,
-44,
-40,
-40,
-35,
-35,
-29,
-29,
-20,
-20,
-13,
-13,
-7,
6,
2,
14,
12,
12,
17,
30,
29,
29,
31,
31,
39,
39,
45,
45,
52,
52,
52,
52,
59,
59,
57,
57,
59,
59,
59,
59,
58,
58,
52,
52,
49,
49,
44,
44,
40,
40,
33,
33,
28,
17,
17,
17,
12,
12,
4,
4,
-4,
-4,
-14,
-14,
-21,
-21,
-28,
-28,
-33,
-33,
-42,
-42,
-44,
-44,
-51,
-51,
-53,
-53,
-56,
-56,
-58,
-58,
-55,
-55,
-54,
-54,
-53,
-53,
-52,
-52,
-47,
-47,
-42,
-30,
-37,
-22,
-26,
-26,
-21,
-10,
-11,
0,
0,
0,
6,
6,
14,
14,
20,
20,
28,
28,
35,
35,
40,
51,
50,
50,
52,
52,
52,
52,
54,
54,
58,
58,
59,
59,
60,
60,
56,
56,
51,
51,
45,
45,
43,
43,
39,
39,
34,
21,
22,
22,
17,
17,
10,
-2,
-2,
-2,
-7,
-19,
-14,
-25,
-21,
-21,
-30,
-41,
-39,
-39,
-45,
-45,
-49,
-49,
-50,
-50,
-56,
-56,
-56,
-56,
-57,
-57,
-57,
-57,
-54,
-54,
-52,
-52,
-45,
-45,
-40,
-40,
-36,
-36,
-30,
-30,
-22,
-22,
-16,
-16,
-8,
-8,
0,
11,
11,
11,
12,
24,
21,
32,
31,
31,
37,
37,
44,
44,
50,
50,
54,
54,
56,
56,
59,
59,
58,
58,
59,
59,
57,
57,
53,
53,
54,
54,
49,
49,
44,
44,
34,
34,
30,
30,
21,
9,
10,
10,
4,
-8,
-8,
-8,
-10,
-10,
-18,
-29,
-28,
-28,
-33,
-33,
-38,
-38,
-46,
-46,
-49,
-49,
-52,
-52,
-53,
-53,
-56,
-56,
-54,
-54,
-54,
-54,
-55,
-55,
-49,
-49,
-50,
-39,
-40,
-40,
-36,
-25,
-28,
-17,
-19,
-19,
-12,
-12,
-5,
-5,
3,
3,
8,
20,
20,
20,
27,
27,
33,
33,
39,
39,
46,
46,
50,
50,
53,
53,
58,
58,
57,
57,
59,
59,
60,
60,
54,
54,
53,
53,
51,
51,
46,
46,
36,
36,
31,
31,
27,
15,
20,
7,
8,
8,
-2,
-2,
-4,
-16,
-11,
-26,
-22,
-22,
-31,
-31,
-33,
-33,
-38,
-38,
-46,
-46,
-51,
-51,
-51,
-51,
-55,
-55,
-58,
-58,
-57,
-57,
-52,
-52,
-54,
-54,
-48,
-48,
-43,
-43,
-41,
-41,
-33,
-33,
-26,
-26,
-20,
-9,
-10,
-10,
-5,
10,
6,
6,
16,
16,
23,
23,
29,
29,
34,
45,
45,
45,
48,
48,
53,
53,
57,
57,
58,
58,
58,
58,
59,
59,
60,
60,
54,
54,
51,
51,
46,
46,
44,
44,
36,
36,
33,
33,
23,
23,
18,
3,
8,
-4,
0,
0,
-8,
-8,
-16,
-27,
-25,
-25,
-35,
-35,
-36,
-36,
-41,
-41,
-48,
-48,
-52,
-52,
-53,
-53,
-57,
-57,
-58,
-58,
-56,
-56,
-53,
-53,
-52,
-52,
-48,
-48,
-42,
-42,
-39,
-27,
-28,
-28,
-23,
-23,
-14,
-14,
-7,
4,
0,
0,
7,
19,
18,
18,
23,
23,
29,
40,
39,
39,
44,
44,
50,
50,
55,
55,
55,
55,
57,
57,
58,
58,
60,
60,
58,
58,
54,
54,
51,
51,
47,
47,
41,
41,
34,
34,
30,
19,
20,
20,
13,
13,
5,
5,
-5,
-5,
-13,
-13,
-16,
-28,
-24,
-24,
-33,
-33,
-37,
-48,
-47,
-47,
-49,
-49,
-54,
-54,
-54,
-54,
-57,
-57,
-57,
-57,
-54,
-54,
-54,
-54,
-50,
-50,
-47,
-47,
-38,
-38,
-37,
-23,
-24,
-24,
-20,
-20,
-14,
-14,
-5,
-5,
4,
4,
12,
23,
19,
19,
24,
36,
35,
35,
40,
40,
44,
44,
51,
51,
55,
55,
58,
58,
60,
60,
56,
56,
58,
58,
57,
57,
52,
52,
50,
50,
45,
45,
39,
39,
31,
31,
24,
24,
17,
17,
11,
-1,
2,
2,
-5,
-16,
-15,
-15,
-21,
-21,
-30,
-30,
-37,
-37,
-45,
-45,
-49,
-49,
-50,
-50,
-54,
-54,
-56,
-56,
-56,
-56,
-57,
-57,
-53,
-53,
-54,
-54,
-49,
-49,
-42,
-42,
-37,
-37,
-33,
-33,
-26,
-26,
-19,
-8,
-9,
-9,
-1,
-1,
4,
17,
11,
26,
23,
23,
32,
32,
38,
38,
42,
42,
46,
46,
53,
53,
55,
55,
57,
57,
56,
56,
61,
61,
58,
58,
57,
57,
52,
52,
44,
44,
42,
42,
38,
27,
28,
28,
23,
23,
14,
14,
7,
-4,
-1,
-1,
-8,
-8,
-17,
-28,
-23,
-23,
-30,
-42,
-38,
-38,
-43,
-43,
-49,
-49,
-49,
-49,
-53,
-53,
-56,
-56,
-56,
-56,
-58,
-58,
-51,
-51,
-49,
-49,
-48,
-48,
-42,
-42,
-36,
-36,
-31,
-31,
-25,
-13,
-14,
-14,
-8,
4,
2,
2,
7,
19,
18,
18,
22,
33,
33,
33,
40,
40,
45,
45,
49,
49,
52,
52,
54,
54,
57,
57,
59,
59,
58,
58,
56,
56,
54,
54,
51,
51,
47,
47,
41,
41,
35,
24,
28,
16,
21,
9,
11,
11,
4,
4,
-5,
-5,
-12,
-12,
-20,
-20,
-27,
-27,
-36,
-36,
-44,
-44,
-43,
-43,
-51,
-51,
-53,
-53,
-54,
-54,
-58,
-58,
-54,
-54,
-57,
-57,
-52,
-52,
-51,
-51,
-44,
-44,
-42,
-42,
-35,
-35,
-26,
-26,
-21,
-21,
-13,
-13,
-6,
5,
1,
15,
13,
13,
23,
23,
28,
28,
34,
34,
41,
41,
47,
47,
53,
53,
52,
52,
56,
56,
59,
59,
59,
59,
57,
57,
55,
55,
55,
55,
52,
52,
45,
45,
37,
37,
33,
33,
24,
24,
18,
18,
10,
-1,
0,
0,
-7,
-7,
-17,
-17,
-24,
-24,
-28,
-28,
-35,
-35,
-39,
-50,
-48,
-48,
-50,
-50,
-55,
-55,
-56,
-56,
-57,
-57,
-56,
-56,
-54,
-54,
-52,
-52,
-46,
-46,
-46,
-34,
-38,
-38,
-28,
-28,
-21,
-21,
-14,
-14,
-8,
4,
3,
3,
8,
8,
13,
28,
25,
25,
30,
30,
39,
39,
42,
42,
47,
47,
52,
52,
56,
56,
58,
58,
59,
59,
61,
61,
57,
57,
56,
56,
54,
54,
50,
50,
42,
42,
36,
36,
31,
19,
23,
11,
11,
11,
4,
4,
-1,
-1,
-9,
-9,
-19,
-19,
-23,
-34,
-32,
-32,
-36,
-36,
-42,
-42,
-48,
-48,
-51,
-51,
-56,
-56,
-56,
-56,
-56,
-56,
-56,
-56,
-55,
-55,
-49,
-49,
-46,
-46,
-41,
-41,
-36,
-36,
-30,
-19,
-23,
-12,
-16,
-16,
-7,
4,
4,
4,
13,
13,
18,
29,
26,
26,
32,
32,
39,
39,
46,
46,
48,
48,
56,
56,
55,
55,
58,
58,
58,
58,
59,
59,
58,
58,
55,
55,
51,
51,
43,
43,
42,
42,
35,
35,
28,
16,
18,
18,
13,
2,
2,
2,
-4,
-4,
-9,
-22,
-22,
-22,
-26,
-26,
-34,
-34,
-39,
-39,
-44,
-44,
-48,
-48,
-53,
-53,
-54,
-54,
-55,
-55,
-55,
-55,
-55,
-55,
-51,
-51,
-52,
-52,
-47,
-47,
-38,
-38,
-32,
-32,
-29,
-18,
-20,
-20,
-14,
-2,
-5,
-5,
4,
4,
11,
22,
22,
22,
29,
29,
35,
35,
44,
44,
48,
48,
51,
51,
55,
55,
57,
57,
60,
60,
59,
59,
60,
60,
55,
55,
53,
53,
46,
46,
44,
44,
40,
27,
33,
21,
22,
22,
17,
17,
9,
9,
3,
-8,
-8,
-8,
-12,
-27,
-23,
-23,
-31,
-31,
-35,
-35,
-42,
-42,
-46,
-46,
-52,
-52,
-54,
-54,
-57,
-57,
-57,
-57,
-57,
-57,
-53,
-53,
-50,
-50,
-47,
-47,
-43,
-43,
-38,
-38,
-31,
-31,
-24,
-24,
-19,
-8,
-9,
-9,
0,
0,
6,
20,
19,
19,
24,
24,
32,
32,
39,
39,
44,
44,
49,
49,
51,
51,
57,
57,
57,
57,
59,
59,
58,
58,
59,
59,
58,
58,
52,
52,
47,
47,
42,
42,
38,
38,
30,
19,
20,
20,
17,
4,
5,
5,
-2,
-2,
-10,
-10,
-17,
-17,
-23,
-37,
-34,
-34,
-42,
-42,
-46,
-46,
-47,
-47,
-51,
-51,
-53,
-53,
-56,
-56,
-56,
-56,
-56,
-56,
-53,
-53,
-49,
-49,
-46,
-46,
-42,
-42,
-36,
-36,
-32,
-17,
-20,
-20,
-16,
-16,
-8,
4,
0,
14,
11,
11,
18,
18,
26,
26,
32,
32,
40,
40,
45,
45,
50,
50,
54,
54,
60,
60,
56,
56,
58,
58,
58,
58,
57,
57,
51,
51,
48,
48,
45,
45,
38,
38,
32,
32,
28,
28,
21,
10,
15,
1,
2,
2,
-5,
-5,
-14,
-14,
-19,
-30,
-29,
-29,
-34,
-34,
-38,
-38,
-44,
-44,
-48,
-48,
-51,
-51,
-55,
-55,
-54,
-54,
-55,
-55,
-54,
-54,
-53,
-53,
-49,
-49,
-44,
-44,
-38,
-38,
-33,
-33,
-24,
-24,
-18,
-18,
-12,
1,
-2,
-2,
5,
5,
12,
12,
20,
20,
29,
29,
32,
32,
39,
39,
46,
46,
50,
50,
54,
54,
56,
56,
59,
59,
56,
56,
56,
56,
57,
57,
53,
53,
50,
50,
44,
44,
40,
29,
29,
29,
22,
22,
16,
16,
10,
10,
1,
1,
-6,
-20,
-14,
-25,
-24,
-24,
-31,
-31,
-39,
-39,
-42,
-42,
-48,
-48,
-49,
-49,
-54,
-54,
-53,
-53,
-57,
-57,
-55,
-55,
-53,
-53,
-52,
-52,
-46,
-46,
-43,
-43,
-38,
-38,
-30,
-30,
-23,
-23,
-15,
-15,
-7,
-7,
2,
2,
12,
12,
18,
18,
24,
24,
30,
30,
35,
35,
43,
43,
50,
50,
54,
54,
55,
55,
60,
60,
59,
59,
58,
58,
58,
58,
56,
56,
53,
53,
48,
48,
43,
43,
34,
34,
28,
28,
23,
11,
12,
12,
6,
6,
-1,
-1,
-10,
-10,
-19,
-19,
-25,
-25,
-32,
-32,
-41,
-41,
-44,
-44,
-49,
-49,
-52,
-52,
-56,
-56,
-54,
-54,
-57,
-57,
-56,
-56,
-55,
-55,
-48,
-48,
-46,
-46,
-43,
-32,
-33,
-33,
-31,
-19,
-21,
-21,
-11,
-11,
-8,
3,
3,
3,
12,
12,
16,
31,
27,
27,
34,
34,
41,
41,
46,
46,
51,
51,
55,
55,
56,
56,
58,
58,
59,
59,
57,
57,
56,
56,
55,
55,
48,
48,
46,
46,
42,
42,
35,
35,
28,
17,
21,
9,
11,
11,
4,
4,
-4,
-4,
-14,
-14,
-22,
-22,
-25,
-37,
-32,
-32,
-42,
-42,
-47,
-47,
-52,
-52,
-54,
-54,
-52,
-52,
-57,
-57,
-54,
-54,
-56,
-56,
-52,
-52,
-46,
-46,
-43,
-43,
-41,
-41,
-32,
-32,
-28,
-16,
-17,
-17,
-8,
-8,
0,
0,
6,
6,
15,
15,
22,
22,
27,
38,
36,
36,
44,
44,
45,
45,
53,
53,
55,
55,
56,
56,
59,
59,
59,
59,
57,
57,
53,
53,
55,
55,
49,
49,
44,
44,
36,
36,
31,
31,
22,
22,
16,
3,
4,
4,
-3,
-3,
-9,
-20,
-17,
-17,
-23,
-23,
-30,
-30,
-34,
-46,
-45,
-45,
-48,
-48,
-52,
-52,
-55,
-55,
-55,
-55,
-54,
-54,
-55,
-55,
-53,
-53,
-50,
-50,
-45,
-45,
-42,
-42,
-38,
-26,
-28,
-28,
-24,
-24,
-16,
-16,
-8,
4,
4,
4,
10,
10,
19,
19,
28,
28,
28,
39,
36,
36,
44,
44,
47,
47,
55,
55,
55,
55,
59,
59,
60,
60,
57,
57,
56,
56,
54,
54,
50,
50,
44,
44,
44,
44,
35,
35,
29,
29,
19,
19,
12,
12,
6,
6,
-3,
-3,
-8,
-21,
-19,
-30,
-28,
-28,
-35,
-35,
-41,
-41,
-46,
-46,
-50,
-50,
-52,
-52,
-56,
-56,
-56,
-56,
-54,
-54,
-56,
-56,
-52,
-52,
-48,
-48,
-48,
-48,
-39,
-39,
-35,
-35,
-27,
-27,
-21,
-10,
-15,
-15,
-8,
4,
3,
14,
13,
13,
22,
22,
28,
28,
33,
33,
42,
42,
44,
44,
50,
50,
54,
54,
57,
57,
59,
59,
57,
57,
60,
60,
57,
57,
55,
55,
53,
53,
46,
46,
40,
40,
32,
32,
27,
27,
20,
8,
10,
-1,
0,
0,
-5,
-16,
-15,
-15,
-21,
-21,
-31,
-31,
-36,
-36,
-42,
-42,
-48,
-48,
-51,
-51,
-55,
-55,
-55,
-55,
-57,
-57,
-57,
-57,
-53,
-53,
-53,
-53,
-50,
-50,
-46,
-46,
-38,
-38,
-33,
-33,
-26,
-26,
-16,
-16,
-8,
-8,
0,
0,
7,
7,
13,
13,
22,
22,
28,
39,
38,
38,
42,
42,
50,
50,
51,
51,
55,
55,
60,
60,
59,
59,
59,
59,
57,
57,
56,
56,
50,
50,
48,
48,
44,
44,
36,
36,
30,
30,
24,
24,
16,
5,
7,
7,
-2,
-2,
-9,
-9,
-14,
-25,
-25,
-25,
-33,
-33,
-40,
-40,
-45,
-45,
-48,
-48,
-50,
-50,
-54,
-54,
-53,
-53,
-56,
-56,
-55,
-55,
-54,
-54,
-52,
-52,
-49,
-38,
-38,
-38,
-33,
-33,
-29,
-29,
-21,
-21,
-16,
-16,
-8,
-8,
0,
12,
11,
11,
16,
16,
26,
26,
30,
30,
39,
39,
44,
44,
50,
50,
56,
56,
58,
58,
60,
60,
60,
60,
57,
57,
58,
58,
55,
55,
50,
50,
46,
46,
40,
40,
36,
24,
27,
16,
20,
9,
9,
9,
0,
0,
-6,
-6,
-10,
-22,
-21,
-21,
-26,
-37,
-35,
-35,
-38,
-38,
-43,
-43,
-48,
-48,
-53,
-53,
-57,
-57,
-57,
-57,
-56,
-56,
-54,
-54,
-54,
-54,
-48,
-48,
-42,
-42,
-38,
-38,
-33,
-33,
-28,
-28,
-20,
-20,
-12,
-12,
-2,
-2,
3,
15,
14,
14,
20,
20,
28,
28,
33,
33,
42,
42,
43,
43,
51,
51,
56,
56,
58,
58,
59,
59,
59,
59,
57,
57,
59,
59,
54,
54,
49,
49,
42,
42,
41,
41,
33,
33,
27,
27,
18,
18,
13,
-1,
-1,
-1,
-4,
-20,
-14,
-26,
-21,
-21,
-29,
-29,
-36,
-36,
-44,
-44,
-48,
-48,
-50,
-50,
-53,
-53,
-55,
-55,
-54,
-54,
-58,
-58,
-54,
-54,
-52,
-52,
-48,
-48,
-45,
-45,
-35,
-35,
-32,
-32,
-27,
-16,
-17,
-17,
-11,
2,
0,
0,
6,
6,
15,
15,
23,
23,
30,
30,
38,
38,
41,
41,
47,
47,
53,
53,
55,
55,
57,
57,
56,
56,
56,
56,
58,
58,
55,
55,
51,
51,
44,
44,
42,
42,
35,
35,
29,
29,
24,
10,
15,
3,
5,
5,
-2,
-2,
-9,
-21,
-16,
-27,
-22,
-33,
-32,
-32,
-39,
-39,
-45,
-45,
-47,
-47,
-52,
-52,
-56,
-56,
-54,
-54,
-55,
-55,
-56,
-56,
-54,
-54,
-51,
-51,
-47,
-47,
-42,
-42,
-36,
-36,
-31,
-31,
-22,
-22,
-13,
-13,
-9,
-9,
-1,
13,
10,
10,
18,
18,
23,
23,
33,
33,
37,
37,
44,
44,
49,
49,
53,
53,
55,
55,
57,
57,
58,
58,
58,
58,
56,
56,
56,
56,
52,
52,
47,
47,
40,
40,
35,
35,
27,
15,
16,
16,
13,
2,
6,
-5,
-2,
-2,
-12,
-12,
-20,
-20,
-30,
-30,
-34,
-34,
-42,
-42,
-44,
-44,
-51,
-51,
-51,
-51,
-56,
-56,
-54,
-54,
-55,
-55,
-55,
-55,
-54,
-54,
-48,
-48,
-46,
-46,
-40,
-40,
-36,
-24,
-29,
-29,
-19,
-19,
-12,
-12,
-4,
7,
4,
4,
12,
12,
19,
19,
28,
28,
33,
33,
38,
49,
49,
49,
52,
52,
54,
54,
57,
57,
58,
58,
59,
59,
59,
59,
54,
54,
53,
53,
49,
49,
43,
43,
39,
39,
31,
31,
24,
24,
17,
17,
7,
7,
4,
-7,
-5,
-5,
-14,
-14,
-21,
-21,
-29,
-29,
-36,
-36,
-43,
-43,
-46,
-46,
-51,
-51,
-53,
-53,
-53,
-53,
-56,
-56,
-56,
-56,
-53,
-53,
-50,
-50,
-46,
-46,
-41,
-41,
-39,
-39,
-32,
-32,
-24,
-24,
-15,
-15,
-8,
-8,
0,
11,
10,
10,
16,
16,
26,
26,
34,
34,
37,
37,
43,
43,
49,
49,
52,
52,
58,
58,
56,
56,
59,
59,
59,
59,
59,
59,
56,
56,
49,
49,
45,
45,
42,
42,
36,
36,
31,
19,
21,
21,
15,
4,
7,
7,
2,
-9,
-8,
-8,
-17,
-29,
-23,
-36,
-32,
-32,
-39,
-39,
-43,
-43,
-47,
-47,
-51,
-51,
-54,
-54,
-53,
-53,
-58,
-58,
-54,
-54,
-54,
-54,
-48,
-48,
-45,
-45,
-40,
-40,
-34,
-34,
-28,
-28,
-20,
-20,
-15,
-15,
-8,
-8,
0,
11,
8,
21,
16,
29,
28,
28,
32,
32,
39,
39,
45,
45,
50,
50,
53,
53,
55,
55,
57,
57,
59,
59,
58,
58,
58,
58,
53,
53,
53,
53,
48,
48,
40,
40,
34,
34,
26,
26,
16,
16,
10,
10,
2,
2,
-4,
-4,
-12,
-23,
-20,
-31,
-28,
-28,
-34,
-34,
-41,
-41,
-43,
-43,
-48,
-48,
-53,
-53,
-56,
-56,
-54,
-54,
-60,
-60,
-52,
-52,
-53,
-53,
-49,
-49,
-47,
-47,
-37,
-37,
-32,
-32,
-26,
-26,
-18,
-18,
-11,
-11,
-3,
-3,
4,
4,
12,
12,
19,
30,
28,
28,
35,
35,
42,
42,
46,
46,
50,
50,
56,
56,
56,
56,
60,
60,
59,
59,
60,
60,
56,
56,
52,
52,
48,
48,
44,
44,
39,
39,
32,
32,
26,
15,
18,
7,
8,
8,
3,
-8,
-6,
-18,
-17,
-17,
-23,
-23,
-30,
-30,
-36,
-36,
-43,
-43,
-46,
-46,
-53,
-53,
-56,
-56,
-57,
-57,
-54,
-54,
-54,
-54,
-53,
-53,
-51,
-51,
-49,
-49,
-44,
-44,
-37,
-37,
-30,
-30,
-22,
-22,
-16,
-16,
-10,
3,
3,
3,
6,
18,
13,
26,
22,
22,
30,
30,
36,
36,
43,
43,
48,
48,
52,
52,
57,
57,
59,
59,
58,
58,
60,
60,
58,
58,
57,
57,
50,
50,
48,
48,
42,
42,
34,
34,
25,
25,
19,
19,
10,
10,
3,
3,
-1,
-1,
-9,
-21,
-17,
-29,
-28,
-28,
-32,
-32,
-37,
-37,
-46,
-46,
-50,
-50,
-54,
-54,
-56,
-56,
-57,
-57,
-55,
-55,
-54,
-54,
-54,
-54,
-52,
-52,
-47,
-47,
-41,
-41,
-36,
-36,
-30,
-30,
-25,
-13,
-15,
-15,
-8,
4,
1,
15,
14,
14,
20,
20,
28,
28,
34,
34,
38,
38,
46,
46,
50,
50,
53,
53,
57,
57,
60,
60,
58,
58,
58,
58,
54,
54,
55,
55,
49,
49,
48,
48,
40,
40,
35,
24,
24,
24,
19,
7,
11,
0,
0,
0,
-6,
-6,
-12,
-24,
-24,
-24,
-26,
-26,
-35,
-35,
-42,
-42,
-48,
-48,
-49,
-49,
-54,
-54,
-53,
-53,
-57,
-57,
-57,
-57,
-54,
-54,
-54,
-54,
-51,
-51,
-42,
-42,
-42,
-30,
-33,
-33,
-28,
-16,
-17,
-17,
-8,
-8,
-4,
7,
5,
17,
16,
16,
24,
24,
28,
28,
34,
45,
42,
42,
50,
50,
50,
50,
53,
53,
58,
58,
61,
61,
59,
59,
58,
58,
59,
59,
55,
55,
47,
47,
44,
44,
36,
36,
30,
30,
24,
24,
15,
15,
8,
8,
4,
-9,
-8,
-8,
-16,
-16,
-24,
-24,
-32,
-32,
-38,
-38,
-44,
-44,
-45,
-45,
-52,
-52,
-53,
-53,
-54,
-54,
-57,
-57,
-54,
-54,
-53,
-53,
-50,
-50,
-48,
-48,
-43,
-43,
-37,
-37,
-27,
-27,
-23,
-12,
-13,
-13,
-10,
2,
2,
2,
8,
20,
18,
18,
23,
34,
34,
34,
38,
38,
44,
44,
51,
51,
51,
51,
56,
56,
59,
59,
60,
60,
57,
57,
57,
57,
56,
56,
51,
51,
47,
47,
43,
43,
36,
36,
29,
29,
22,
11,
13,
13,
6,
6,
-3,
-3,
-9,
-20,
-18,
-18,
-23,
-37,
-34,
-34,
-37,
-37,
-42,
-42,
-49,
-49,
-51,
-51,
-56,
-56,
-57,
-57,
-57,
-57,
-53,
-53,
-51,
-51,
-50,
-50,
-46,
-46,
-40,
-40,
-36,
-25,
-27,
-27,
-18,
-18,
-14,
-14,
-5,
-5,
4,
15,
11,
11,
20,
20,
27,
27,
35,
35,
39,
39,
43,
43,
48,
48,
53,
53,
59,
59,
58,
58,
59,
59,
58,
58,
56,
56,
51,
51,
48,
48,
48,
36,
40,
