Data/Output/LOG0000/DS0115.CSV

Memory Length,4000,
Trigger Level,-1.20000e+02,
Source,CH2,
Probe,1.0X,
Vertical Units,V,
Vertical Scale,1.00000e+00,
Vertical Position,0.00000e+00,
Horizontal Units,S,
Horizontal Scale,1.00000e-02,
Horizontal Position,0.0000000e+00,
Horizontal Mode,Main,
Sampling Period,4.00000e-05,
Firmware,V1.14,
Time, ,
Mode,Fast,
Waveform Data,
-38,
-38,
-38,
-32,
-32,
-25,
-25,
-17,
-17,
-9,
5,
2,
16,
16,
16,
23,
34,
32,
32,
39,
39,
46,
46,
51,
51,
57,
57,
60,
60,
59,
59,
56,
56,
56,
56,
48,
48,
43,
43,
34,
34,
26,
15,
18,
7,
10,
-5,
-4,
-4,
-12,
-26,
-26,
-26,
-33,
-33,
-43,
-43,
-44,
-44,
-50,
-50,
-53,
-53,
-56,
-56,
-54,
-54,
-52,
-52,
-53,
-42,
-42,
-42,
-36,
-36,
-34,
-21,
-21,
-21,
-16,
0,
-2,
10,
6,
21,
21,
21,
25,
39,
39,
39,
43,
43,
46,
46,
54,
54,
55,
55,
58,
58,
60,
60,
56,
56,
50,
50,
45,
45,
42,
28,
32,
20,
22,
10,
10,
10,
2,
-9,
-9,
-9,
-19,
-19,
-27,
-38,
-37,
-37,
-43,
-43,
-49,
-49,
-51,
-51,
-56,
-56,
-54,
-54,
-55,
-55,
-51,
-51,
-46,
-46,
-41,
-41,
-35,
-24,
-24,
-13,
-15,
-15,
-8,
3,
1,
14,
11,
24,
19,
33,
33,
33,
40,
40,
49,
49,
53,
53,
56,
56,
57,
57,
58,
58,
59,
59,
52,
52,
50,
50,
43,
31,
32,
21,
21,
21,
15,
4,
4,
4,
-5,
-5,
-13,
-13,
-19,
-37,
-32,
-32,
-41,
-41,
-45,
-45,
-51,
-51,
-54,
-54,
-57,
-57,
-56,
-56,
-56,
-56,
-50,
-50,
-48,
-37,
-37,
-37,
-29,
-29,
-25,
-12,
-13,
-13,
-4,
10,
9,
9,
15,
30,
28,
41,
41,
41,
47,
47,
48,
48,
55,
55,
58,
58,
58,
58,
58,
58,
55,
55,
52,
52,
46,
46,
40,
29,
32,
20,
25,
7,
9,
9,
2,
2,
-6,
-20,
-19,
-19,
-25,
-25,
-35,
-46,
-45,
-45,
-48,
-48,
-52,
-52,
-54,
-54,
-56,
-56,
-57,
-57,
-53,
-53,
-47,
-47,
-43,
-32,
-33,
-33,
-29,
-16,
-19,
-7,
-8,
5,
3,
3,
13,
24,
24,
35,
33,
33,
40,
40,
44,
55,
50,
50,
57,
57,
59,
59,
56,
56,
58,
58,
54,
54,
48,
48,
42,
42,
35,
35,
30,
16,
18,
4,
10,
-4,
-3,
-14,
-13,
-26,
-26,
-26,
-32,
-32,
-39,
-39,
-46,
-46,
-52,
-52,
-56,
-56,
-58,
-58,
-56,
-56,
-54,
-54,
-49,
-49,
-44,
-44,
-42,
-42,
-33,
-22,
-22,
-10,
-11,
-11,
-2,
11,
10,
10,
14,
28,
27,
27,
35,
46,
45,
45,
48,
48,
54,
54,
58,
58,
60,
60,
58,
58,
57,
57,
51,
51,
48,
37,
42,
31,
34,
22,
23,
10,
13,
2,
4,
-9,
-9,
-21,
-20,
-20,
-27,
-38,
-37,
-37,
-40,
-40,
-48,
-48,
-51,
-51,
-55,
-55,
-58,
-58,
-55,
-55,
-52,
-52,
-49,
-49,
-43,
-31,
-32,
-32,
-28,
-28,
-19,
-7,
-9,
8,
8,
8,
14,
26,
25,
25,
31,
43,
43,
43,
46,
46,
51,
51,
59,
59,
60,
60,
59,
59,
56,
56,
54,
54,
48,
48,
43,
43,
35,
35,
27,
14,
15,
15,
8,
-4,
-3,
-15,
-14,
-14,
-21,
-32,
-31,
-31,
-38,
-38,
-48,
-48,
-51,
-51,
-56,
-56,
-57,
-57,
-54,
-54,
-56,
-56,
-53,
-53,
-44,
-44,
-42,
-30,
-32,
-20,
-24,
-9,
-12,
-12,
-5,
7,
3,
23,
20,
31,
31,
31,
34,
34,
43,
43,
48,
48,
54,
54,
58,
58,
59,
59,
61,
61,
55,
55,
50,
50,
46,
46,
40,
28,
32,
32,
24,
10,
13,
2,
3,
3,
-6,
-18,
-17,
-31,
-31,
-31,
-37,
-37,
-43,
-43,
-48,
-48,
-52,
-52,
-58,
-58,
-58,
-58,
-53,
-53,
-53,
-53,
-47,
-47,
-45,
-34,
-35,
-35,
-30,
-14,
-14,
-14,
-8,
4,
2,
15,
14,
26,
26,
26,
28,
40,
40,
40,
44,
44,
52,
52,
55,
55,
59,
59,
58,
58,
58,
58,
56,
56,
48,
48,
46,
35,
36,
36,
28,
28,
19,
8,
9,
-4,
-3,
-16,
-16,
-16,
-20,
-34,
-32,
-32,
-39,
-39,
-48,
-48,
-48,
-48,
-52,
-52,
-58,
-58,
-56,
-56,
-54,
-54,
-50,
-50,
-47,
-47,
-41,
-41,
-32,
-32,
-23,
-23,
-14,
-3,
-5,
9,
9,
9,
16,
29,
26,
37,
37,
37,
45,
45,
53,
53,
53,
53,
57,
57,
58,
58,
60,
60,
58,
58,
53,
53,
47,
47,
39,
39,
31,
31,
23,
23,
15,
-1,
0,
0,
-6,
-19,
-17,
-31,
-31,
-31,
-38,
-38,
-44,
-44,
-49,
-49,
-54,
-54,
-55,
-55,
-53,
-53,
-54,
-54,
-55,
-55,
-48,
-48,
-45,
-34,
-36,
-36,
-28,
-14,
-16,
-16,
-8,
4,
4,
4,
10,
25,
25,
25,
34,
34,
38,
38,
46,
46,
54,
54,
58,
58,
58,
58,
60,
60,
59,
59,
55,
55,
50,
50,
46,
35,
36,
36,
28,
17,
18,
6,
7,
-5,
0,
0,
-9,
-24,
-21,
-32,
-31,
-31,
-38,
-49,
-48,
-48,
-50,
-50,
-52,
-52,
-56,
-56,
-56,
-56,
-57,
-57,
-53,
-53,
-48,
-37,
-38,
-38,
-32,
-32,
-24,
-11,
-15,
1,
-3,
10,
7,
20,
19,
30,
28,
28,
35,
35,
41,
41,
49,
49,
53,
53,
59,
59,
61,
61,
60,
60,
57,
57,
52,
52,
44,
44,
39,
39,
32,
32,
23,
12,
16,
2,
4,
-9,
-8,
-8,
-17,
-30,
-30,
-30,
-32,
-43,
-42,
-42,
-48,
-48,
-55,
-55,
-54,
-54,
-59,
-59,
-54,
-54,
-55,
-55,
-51,
-51,
-47,
-34,
-36,
-25,
-25,
-25,
-16,
-16,
-9,
4,
3,
3,
11,
22,
22,
22,
30,
41,
38,
38,
45,
45,
53,
53,
57,
57,
57,
57,
59,
59,
59,
59,
54,
54,
52,
52,
42,
42,
35,
35,
28,
28,
19,
8,
11,
-4,
-3,
-3,
-11,
-24,
-20,
-33,
-26,
-41,
-37,
-48,
-45,
-45,
-48,
-48,
-54,
-54,
-56,
-56,
-55,
-55,
-54,
-54,
-50,
-50,
-48,
-48,
-38,
-38,
-37,
-18,
-24,
-10,
-11,
-11,
-8,
7,
7,
19,
19,
31,
30,
30,
34,
34,
43,
43,
49,
49,
55,
55,
56,
56,
58,
58,
59,
59,
57,
57,
54,
54,
48,
48,
38,
38,
34,
21,
21,
21,
12,
12,
6,
-9,
-8,
-19,
-17,
-29,
-25,
-37,
-37,
-37,
-42,
-42,
-49,
-49,
-50,
-50,
-56,
-56,
-56,
-56,
-56,
-56,
-55,
-55,
-48,
-48,
-43,
-32,
-35,
-24,
-28,
-17,
-19,
-19,
-12,
3,
0,
14,
13,
13,
20,
31,
29,
40,
39,
39,
47,
47,
49,
49,
52,
52,
58,
58,
61,
61,
59,
59,
56,
56,
51,
51,
45,
45,
39,
26,
28,
28,
21,
9,
9,
-3,
-1,
-1,
-8,
-20,
-20,
-34,
-30,
-30,
-36,
-47,
-45,
-45,
-51,
-51,
-54,
-54,
-56,
-56,
-60,
-60,
-57,
-57,
-51,
-51,
-47,
-47,
-37,
-37,
-32,
-21,
-22,
-22,
-13,
-1,
-2,
-2,
7,
18,
15,
28,
28,
28,
32,
46,
44,
44,
52,
52,
52,
52,
59,
59,
60,
60,
56,
56,
58,
58,
54,
54,
45,
45,
42,
42,
33,
33,
24,
13,
14,
2,
7,
-8,
-8,
-8,
-15,
-15,
-24,
-37,
-36,
-36,
-38,
-49,
-47,
-47,
-52,
-52,
-56,
-56,
-56,
-56,
-54,
-54,
-54,
-54,
-52,
-40,
-42,
-42,
-35,
-35,
-28,
-28,
-20,
-7,
-8,
5,
3,
3,
8,
21,
17,
31,
30,
30,
37,
37,
43,
54,
51,
51,
57,
57,
58,
58,
58,
58,
58,
58,
56,
56,
50,
50,
47,
36,
36,
36,
28,
28,
22,
8,
12,
-1,
-1,
-14,
-13,
-24,
-22,
-33,
-32,
-32,
-36,
-36,
-43,
-54,
-53,
-53,
-52,
-52,
-55,
-55,
-57,
-57,
-54,
-54,
-49,
-49,
-46,
-46,
-40,
-40,
-32,
-32,
-24,
-11,
-11,
-11,
-5,
10,
8,
8,
15,
26,
25,
25,
34,
34,
43,
43,
49,
49,
54,
54,
57,
57,
59,
59,
59,
59,
57,
57,
52,
52,
48,
48,
41,
41,
34,
22,
23,
11,
12,
12,
2,
2,
-7,
-7,
-16,
-16,
-25,
-25,
-34,
-34,
-41,
-41,
-49,
-49,
-51,
-51,
-57,
-57,
-55,
-55,
-54,
-54,
-52,
-52,
-47,
-47,
-42,
-42,
-35,
-35,
-28,
-28,
-20,
-20,
-12,
1,
0,
11,
11,
23,
23,
23,
31,
31,
37,
48,
44,
55,
51,
51,
53,
53,
56,
56,
57,
57,
59,
59,
55,
55,
51,
51,
45,
45,
40,
26,
31,
17,
19,
19,
10,
-1,
0,
0,
-10,
-23,
-22,
-34,
-28,
-28,
-38,
-38,
-42,
-54,
-48,
-48,
-53,
-53,
-56,
-56,
-58,
-58,
-53,
-53,
-52,
-52,
-46,
-46,
-40,
-40,
-30,
-30,
-24,
-24,
-14,
-14,
-8,
6,
3,
15,
13,
28,
28,
28,
38,
38,
42,
42,
50,
50,
56,
56,
58,
58,
58,
58,
58,
58,
58,
58,
53,
53,
50,
50,
42,
42,
34,
34,
26,
12,
17,
1,
1,
1,
-1,
-20,
-18,
-29,
-26,
-26,
-32,
-32,
-42,
-42,
-46,
-46,
-52,
-52,
-53,
-53,
-54,
-54,
-57,
-57,
-52,
-52,
-46,
-46,
-43,
-43,
-35,
-35,
-28,
-17,
-19,
-8,
-8,
-8,
0,
0,
9,
23,
23,
23,
27,
42,
39,
39,
44,
44,
51,
51,
56,
56,
61,
61,
60,
60,
58,
58,
56,
56,
53,
53,
43,
32,
33,
33,
26,
26,
19,
19,
10,
-3,
-2,
-2,
-9,
-22,
-21,
-21,
-29,
-40,
-40,
-40,
-46,
-46,
-49,
-49,
-52,
-52,
-54,
-54,
-56,
-56,
-55,
-55,
-49,
-49,
-46,
-46,
-38,
-38,
-32,
-32,
-27,
-13,
-14,
-3,
-6,
9,
8,
8,
16,
30,
28,
28,
34,
34,
40,
40,
46,
46,
55,
55,
56,
56,
59,
59,
60,
60,
55,
55,
53,
53,
46,
46,
42,
31,
31,
31,
25,
25,
16,
3,
7,
-6,
-4,
-16,
-13,
-25,
-24,
-24,
-33,
-33,
-40,
-40,
-49,
-49,
-51,
-51,
-55,
-55,
-56,
-56,
-54,
-54,
-53,
-53,
-48,
-48,
-45,
-45,
-38,
-26,
-28,
-16,
-19,
-19,
-10,
1,
1,
12,
12,
24,
23,
23,
29,
40,
39,
39,
45,
45,
52,
52,
54,
54,
58,
58,
61,
61,
58,
58,
55,
55,
52,
52,
43,
43,
37,
26,
30,
19,
21,
10,
12,
-2,
0,
0,
-9,
-22,
-17,
-31,
-30,
-30,
-37,
-37,
-46,
-46,
-46,
-46,
-53,
-53,
-54,
-54,
-58,
-58,
-58,
-58,
-50,
-50,
-46,
-46,
-38,
-38,
-34,
-21,
-23,
-11,
-13,
-13,
-8,
8,
6,
19,
17,
28,
28,
28,
34,
34,
41,
41,
48,
48,
54,
54,
56,
56,
58,
58,
59,
59,
58,
58,
53,
53,
48,
48,
45,
32,
35,
22,
22,
22,
14,
1,
2,
2,
-7,
-7,
-13,
-26,
-24,
-24,
-32,
-32,
-40,
-40,
-45,
-45,
-51,
-51,
-54,
-54,
-58,
-58,
-57,
-57,
-53,
-53,
-48,
-48,
-45,
-34,
-37,
-26,
-28,
-17,
-18,
-18,
-8,
4,
2,
2,
12,
24,
21,
21,
29,
29,
36,
47,
47,
47,
52,
52,
54,
54,
60,
60,
61,
61,
56,
56,
54,
54,
50,
50,
46,
35,
40,
26,
30,
16,
21,
10,
11,
-1,
0,
0,
-8,
-21,
-20,
-20,
-29,
-40,
-37,
-48,
-46,
-46,
-51,
-51,
-52,
-52,
-54,
-54,
-56,
-56,
-56,
-56,
-51,
-51,
-47,
-47,
-40,
-40,
-35,
-22,
-22,
-22,
-15,
-15,
-7,
10,
10,
10,
17,
17,
26,
26,
35,
35,
42,
42,
48,
48,
50,
50,
57,
57,
60,
60,
60,
60,
56,
56,
52,
52,
46,
46,
40,
28,
29,
29,
23,
23,
17,
3,
3,
3,
-4,
-16,
-15,
-15,
-23,
-36,
-32,
-32,
-42,
-42,
-48,
-48,
-53,
-53,
-57,
-57,
-57,
-57,
-54,
-54,
-56,
-56,
-48,
-48,
-40,
-40,
-36,
-36,
-28,
-17,
-20,
-20,
-12,
0,
0,
12,
11,
22,
19,
33,
32,
32,
38,
38,
45,
45,
51,
51,
54,
54,
56,
56,
60,
60,
60,
60,
57,
57,
51,
51,
47,
47,
38,
38,
32,
19,
22,
11,
11,
-1,
-1,
-1,
-8,
-21,
-18,
-30,
-29,
-29,
-36,
-36,
-42,
-53,
-52,
-52,
-52,
-52,
-55,
-55,
-54,
-54,
-53,
-53,
-54,
-54,
-49,
-49,
-41,
-41,
-33,
-33,
-23,
-23,
-15,
-15,
-5,
8,
5,
5,
14,
25,
24,
38,
35,
35,
40,
51,
51,
51,
53,
53,
55,
55,
62,
62,
59,
59,
55,
55,
51,
51,
50,
50,
44,
32,
35,
23,
24,
24,
14,
14,
8,
-5,
-3,
-17,
-16,
-29,
-28,
-28,
-38,
-38,
-41,
-41,
-47,
-47,
-54,
-54,
-54,
-54,
-57,
-57,
-54,
-54,
-55,
-55,
-52,
-52,
-45,
-34,
-36,
-36,
-26,
-26,
-18,
-18,
-10,
3,
3,
3,
9,
22,
21,
21,
31,
31,
37,
37,
45,
45,
51,
51,
56,
56,
58,
58,
59,
59,
57,
57,
56,
56,
52,
52,
46,
46,
38,
38,
32,
21,
23,
10,
10,
-3,
0,
0,
-8,
-21,
-20,
-33,
-33,
-33,
-36,
-36,
-45,
-45,
-46,
-46,
-52,
-52,
-54,
-54,
-57,
-57,
-56,
-56,
-53,
-53,
-49,
-49,
-42,
-42,
-36,
-23,
-27,
-11,
-13,
-13,
-7,
9,
8,
8,
12,
24,
24,
35,
34,
34,
42,
42,
48,
48,
55,
55,
58,
58,
62,
62,
57,
57,
57,
57,
51,
51,
50,
50,
41,
41,
33,
33,
27,
16,
19,
3,
4,
-8,
-6,
-17,
-16,
-27,
-23,
-36,
-34,
-34,
-40,
-40,
-46,
-46,
-51,
-51,
-57,
-57,
-54,
-54,
-57,
-57,
-54,
-54,
-50,
-50,
-45,
-45,
-37,
-37,
-29,
-29,
-22,
-11,
-14,
1,
0,
11,
11,
11,
21,
21,
29,
29,
36,
47,
44,
44,
53,
53,
55,
55,
57,
57,
60,
60,
56,
56,
54,
54,
48,
48,
44,
44,
37,
37,
31,
31,
23,
12,
12,
12,
3,
-10,
-9,
-20,
-18,
-29,
-28,
-40,
-39,
-39,
-46,
-46,
-51,
-51,
-53,
-53,
-55,
-55,
-54,
-54,
-56,
-56,
-52,
-52,
-46,
-46,
-42,
-31,
-33,
-33,
-26,
-15,
-18,
-7,
-8,
5,
3,
17,
14,
25,
24,
35,
32,
45,
41,
41,
50,
50,
53,
53,
58,
58,
58,
58,
59,
59,
57,
57,
55,
55,
47,
47,
41,
41,
38,
25,
27,
15,
16,
1,
3,
-8,
-8,
-8,
-12,
-24,
-22,
-35,
-34,
-45,
-39,
-39,
-45,
-45,
-50,
-50,
-55,
-55,
-59,
-59,
-58,
-58,
-53,
-53,
-50,
-50,
-45,
-45,
-37,
-26,
-28,
-28,
-22,
-11,
-11,
1,
-1,
11,
11,
11,
21,
21,
28,
41,
40,
40,
44,
44,
50,
50,
58,
58,
58,
58,
60,
60,
59,
59,
54,
54,
54,
54,
47,
47,
37,
37,
31,
20,
22,
9,
12,
-1,
0,
0,
-9,
-21,
-21,
-33,
-33,
-33,
-40,
-40,
-42,
-42,
-51,
-51,
-54,
-54,
-53,
-53,
-57,
-57,
-56,
-56,
-50,
-50,
-50,
-50,
-43,
-43,
-34,
-34,
-28,
-13,
-14,
-14,
-8,
6,
6,
18,
18,
18,
27,
27,
35,
35,
41,
41,
46,
46,
55,
55,
57,
57,
58,
58,
60,
60,
57,
57,
55,
55,
51,
51,
44,
44,
36,
24,
28,
12,
18,
6,
7,
-6,
-1,
-13,
-13,
-24,
-23,
-34,
-29,
-41,
-37,
-48,
-47,
-47,
-53,
-53,
-54,
-54,
-56,
-56,
-54,
-54,
-55,
-55,
-49,
-49,
-44,
-44,
-38,
-26,
-26,
-26,
-18,
-18,
-11,
-11,
-2,
10,
9,
20,
19,
31,
30,
30,
39,
39,
45,
45,
53,
53,
55,
55,
59,
59,
61,
61,
60,
60,
54,
54,
52,
52,
47,
47,
39,
39,
34,
22,
23,
7,
7,
7,
-2,
-2,
-4,
-19,
-15,
-29,
-28,
-39,
-38,
-38,
-42,
-42,
-50,
-50,
-52,
-52,
-55,
-55,
-56,
-56,
-55,
-55,
-54,
-54,
-45,
-45,
-43,
-43,
-34,
-22,
-24,
-24,
-18,
-7,
-8,
5,
4,
15,
15,
28,
27,
27,
37,
37,
42,
42,
49,
49,
55,
55,
59,
59,
59,
59,
61,
61,
56,
56,
53,
53,
49,
49,
42,
42,
37,
22,
26,
13,
17,
6,
6,
6,
-2,
-14,
-11,
-25,
-25,
-25,
-31,
-31,
-38,
-38,
-47,
-47,
-51,
-51,
-54,
-54,
-55,
-55,
-57,
-57,
-53,
-53,
-53,
-42,
-43,
-43,
-38,
-38,
-29,
-29,
-22,
-10,
-15,
-2,
-4,
8,
8,
21,
21,
21,
28,
28,
36,
48,
45,
45,
50,
50,
56,
56,
57,
57,
59,
59,
56,
56,
54,
54,
52,
52,
47,
47,
42,
29,
33,
20,
22,
8,
10,
-1,
-1,
-1,
-9,
-22,
-20,
-20,
-30,
-30,
-35,
-35,
-41,
-52,
-49,
-49,
-53,
-53,
-54,
-54,
-58,
-58,
-54,
-54,
-52,
-52,
-49,
-49,
-42,
-42,
-37,
-25,
-25,
-25,
-18,
-7,
-9,
5,
3,
3,
13,
25,
24,
24,
33,
33,
38,
38,
46,
46,
52,
52,
58,
58,
60,
60,
58,
58,
56,
56,
52,
52,
50,
50,
43,
43,
34,
23,
24,
24,
17,
5,
7,
-7,
-6,
-6,
-15,
-15,
-22,
-33,
-32,
-32,
-36,
-48,
-48,
-48,
-51,
-51,
-55,
-55,
-54,
-54,
-57,
-57,
-56,
-56,
-50,
-50,
-44,
-44,
-37,
-37,
-30,
-19,
-19,
-19,
-11,
-11,
-4,
10,
10,
10,
17,
32,
30,
30,
35,
35,
43,
43,
51,
51,
55,
55,
59,
59,
58,
58,
58,
58,
53,
53,
52,
52,
45,
45,
38,
26,
31,
20,
23,
12,
14,
-2,
0,
0,
-8,
-21,
-20,
-20,
-25,
-37,
-36,
-36,
-43,
-43,
-51,
-51,
-54,
-54,
-56,
-56,
-55,
-55,
-54,
-54,
-52,
-52,
-48,
-48,
-40,
-40,
-37,
-26,
-28,
-17,
-18,
-7,
-8,
7,
6,
6,
15,
15,
24,
24,
32,
32,
39,
39,
46,
46,
54,
54,
57,
57,
60,
60,
59,
59,
58,
58,
53,
53,
50,
39,
44,
44,
37,
26,
28,
15,
20,
4,
4,
4,
0,
-12,
-10,
-24,
-23,
-34,
-33,
-33,
-40,
-40,
-46,
-46,
-52,
-52,
-54,
-54,
-59,
-59,
-57,
-57,
-57,
-57,
-49,
-49,
-45,
-45,
-41,
-28,
-29,
-29,
-22,
-10,
-11,
2,
1,
1,
7,
18,
15,
28,
28,
28,
36,
47,
42,
42,
51,
51,
57,
57,
58,
58,
60,
60,
60,
60,
54,
54,
51,
51,
49,
38,
40,
29,
29,
29,
22,
10,
12,
0,
4,
-8,
-5,
-19,
-16,
-28,
-27,
-27,
-36,
-36,
-42,
-42,
-49,
-49,
-52,
-52,
-56,
-56,
-58,
-58,
-52,
-52,
-53,
-53,
-50,
-50,
-43,
-43,
-37,
-24,
-28,
-16,
-16,
-16,
-10,
5,
4,
16,
13,
24,
23,
37,
36,
36,
44,
44,
48,
48,
52,
52,
55,
55,
60,
60,
58,
58,
57,
57,
54,
54,
51,
40,
41,
41,
37,
26,
28,
13,
17,
4,
5,
5,
-3,
-3,
-10,
-24,
-23,
-23,
-30,
-30,
-36,
-50,
-48,
-48,
-51,
-51,
-53,
-53,
-54,
-54,
-55,
-55,
-55,
-55,
-49,
-49,
-47,
-47,
-41,
-26,
-29,
-18,
-21,
-10,
-11,
-11,
-3,
12,
12,
12,
16,
28,
28,
40,
35,
46,
41,
52,
51,
51,
56,
56,
59,
59,
59,
59,
57,
57,
57,
57,
53,
53,
47,
47,
42,
28,
28,
28,
23,
12,
13,
2,
3,
-9,
-8,
-21,
-17,
-28,
-25,
-38,
-36,
-36,
-42,
-42,
-50,
-50,
-52,
-52,
-53,
-53,
-58,
-58,
-54,
-54,
-55,
-55,
-46,
-46,
-40,
-40,
-37,
-37,
-29,
-13,
-18,
-7,
-8,
3,
1,
13,
12,
12,
22,
33,
33,
33,
38,
38,
46,
46,
51,
51,
56,
56,
58,
58,
59,
59,
56,
56,
52,
52,
49,
49,
43,
43,
33,
33,
32,
15,
16,
4,
6,
6,
-1,
-1,
-10,
-23,
-22,
-22,
-31,
-31,
-40,
-40,
-45,
-45,
-52,
-52,
-55,
-55,
-57,
-57,
-57,
-57,
-55,
-55,
-50,
-50,
-46,
-34,
-40,
-29,
-30,
-30,
-22,
-8,
-9,
-9,
-2,
9,
4,
19,
19,
19,
28,
39,
38,
38,
42,
42,
52,
52,
52,
52,
58,
58,
61,
61,
59,
59,
58,
58,
52,
52,
46,
46,
42,
28,
33,
18,
20,
20,
11,
-2,
-2,
-2,
-5,
-20,
-16,
-30,
-29,
-29,
-39,
-39,
-41,
-41,
-48,
-48,
-53,
-53,
-57,
-57,
-54,
-54,
-55,
-55,
-54,
-54,
-50,
-50,
-44,
-44,
-37,
-26,
-27,
-27,
-19,
-7,
-9,
6,
3,
18,
14,
27,
22,
33,
31,
42,
41,
41,
47,
47,
51,
51,
57,
57,
57,
57,
58,
58,
57,
57,
55,
55,
51,
51,
44,
44,
36,
24,
25,
14,
14,
2,
4,
4,
-4,
-16,
-14,
-14,
-22,
-35,
-30,
-41,
-37,
-37,
-46,
-46,
-51,
-51,
-54,
-54,
-56,
-56,
-55,
-55,
-58,
-58,
-52,
-52,
-45,
-45,
-37,
-37,
-31,
-31,
-22,
-10,
-13,
2,
-1,
-1,
8,
19,
19,
19,
24,
36,
34,
34,
43,
43,
50,
50,
53,
53,
56,
56,
61,
61,
57,
57,
55,
55,
54,
54,
48,
48,
40,
40,
32,
32,
24,
12,
13,
0,
1,
1,
-7,
-21,
-18,
-30,
-25,
-37,
-36,
-36,
-40,
-52,
-51,
-51,
-50,
-50,
-55,
-55,
-56,
-56,
-56,
-56,
-54,
-54,
-46,
-46,
-42,
-31,
-31,
-31,
-26,
-15,
-16,
-16,
-8,
4,
3,
14,
13,
13,
20,
35,
35,
35,
39,
39,
46,
46,
52,
52,
55,
55,
59,
59,
61,
61,
57,
57,
53,
53,
52,
52,
44,
44,
36,
25,
27,
16,
21,
4,
5,
5,
-1,
-1,
-9,
-23,
-23,
-23,
-33,
-33,
-39,
-39,
-44,
-44,
-49,
-49,
-54,
-54,
-55,
-55,
-54,
-54,
-52,
-52,
-51,
-51,
-48,
-37,
-38,
-38,
-33,
-22,
-25,
-13,
-14,
-3,
-4,
8,
3,
19,
17,
17,
26,
37,
33,
33,
43,
43,
48,
48,
55,
55,
57,
57,
60,
60,
60,
60,
56,
56,
51,
51,
48,
48,
39,
39,
33,
21,
23,
12,
14,
2,
2,
2,
-7,
-20,
-20,
-20,
-25,
-36,
-33,
-45,
-42,
-42,
-49,
-49,
-51,
-51,
-56,
-56,
-56,
-56,
-57,
-57,
-52,
-52,
-48,
-48,
-43,
-43,
-37,
-26,
-29,
-16,
-16,
-16,
-8,
5,
5,
5,
10,
22,
22,
36,
32,
43,
42,
42,
48,
48,
52,
52,
56,
56,
59,
59,
60,
60,
57,
57,
53,
53,
50,
50,
45,
45,
39,
25,
26,
26,
17,
17,
9,
-4,
-1,
-14,
-13,
-13,
-20,
-32,
-31,
-31,
-39,
-39,
-45,
-45,
-50,
-50,
-54,
-54,
-54,
-54,
-56,
-56,
-53,
-53,
-49,
-49,
-47,
-47,
-40,
-40,
-32,
-32,
-23,
-23,
-14,
-14,
-7,
9,
8,
20,
19,
19,
25,
25,
34,
47,
43,
43,
48,
48,
53,
53,
59,
59,
61,
61,
60,
60,
56,
56,
55,
55,
48,
48,
43,
31,
34,
34,
25,
13,
14,
0,
0,
0,
-6,
-20,
-17,
-29,
-28,
-28,
-32,
-46,
-44,
-44,
-47,
-47,
-51,
-51,
-56,
-56,
-58,
-58,
-56,
-56,
-54,
-54,
-49,
-49,
-44,
-33,
-33,
-33,
-30,
-17,
-19,
-8,
-10,
2,
1,
14,
12,
26,
22,
34,
33,
33,
39,
39,
47,
47,
51,
51,
55,
55,
60,
60,
60,
60,
58,
58,
53,
53,
52,
52,
43,
43,
36,
36,
28,
28,
18,
18,
13,
-3,
2,
-10,
-9,
-22,
-20,
-33,
-30,
-30,
-39,
-39,
-45,
-45,
-51,
-51,
-54,
-54,
-55,
-55,
-59,
-59,
-56,
-56,
-49,
-49,
-46,
-46,
-38,
-38,
-33,
-22,
-24,
-24,
-15,
-15,
-7,
5,
4,
15,
15,
26,
25,
36,
32,
44,
39,
50,
50,
50,
53,
53,
55,
55,
58,
58,
59,
59,
59,
59,
53,
53,
46,
46,
42,
42,
32,
20,
20,
20,
14,
3,
4,
-8,
-5,
-17,
-16,
-28,
-27,
-38,
-36,
-36,
-45,
-45,
-48,
-48,
-53,
-53,
-57,
-57,
-58,
-58,
-53,
-53,
-52,
-52,
-52,
-40,
-43,
-43,
-34,
-34,
-28,
-28,
-19,
-8,
-10,
3,
2,
16,
14,
25,
25,
25,
29,
41,
41,
41,
45,
45,
51,
51,
56,
56,
60,
60,
56,
56,
56,
56,
56,
56,
50,
50,
42,
42,
34,
34,
28,
15,
15,
15,
8,
8,
1,
-10,
-9,
-23,
-20,
-32,
-32,
-32,
-37,
-37,
-45,
-45,
-51,
-51,
-54,
-54,
-55,
-55,
-57,
-57,
-57,
-57,
-51,
-51,
-46,
-46,
-41,
-41,
-31,
-31,
-23,
-12,
-15,
-15,
-5,
8,
7,
19,
19,
32,
31,
31,
35,
46,
46,
46,
48,
48,
55,
55,
59,
59,
59,
59,
59,
59,
56,
56,
54,
54,
45,
45,
42,
42,
35,
22,
26,
12,
16,
1,
2,
2,
-4,
-17,
-16,
-28,
-28,
-28,
-35,
-35,
-40,
-51,
-47,
-47,
-53,
-53,
-55,
-55,
-57,
-57,
-54,
-54,
-53,
-53,
-46,
-46,
-44,
-44,
-36,
-36,
-27,
-27,
-18,
-18,
-8,
5,
4,
4,
9,
24,
23,
23,
28,
40,
35,
49,
48,
48,
53,
53,
54,
54,
59,
59,
57,
57,
55,
55,
57,
57,
49,
49,
45,
34,
38,
38,
30,
15,
18,
7,
7,
7,
-3,
-3,
-9,
-23,
-21,
-32,
-30,
-30,
-38,
-38,
-45,
-45,
-51,
-51,
-54,
-54,
-56,
-56,
-56,
-56,
-53,
-53,
-49,
-49,
-48,
-36,
-39,
-39,
-36,
-22,
-22,
-22,
-16,
-16,
-8,
10,
10,
10,
19,
19,
25,
36,
34,
46,
42,
42,
49,
