Data/Output/LOG0000/DS0108.CSV

Memory Length,4000,
Trigger Level,-1.20000e+02,
Source,CH2,
Probe,1.0X,
Vertical Units,V,
Vertical Scale,1.00000e+00,
Vertical Position,0.00000e+00,
Horizontal Units,S,
Horizontal Scale,1.00000e-02,
Horizontal Position,0.0000000e+00,
Horizontal Mode,Main,
Sampling Period,4.00000e-05,
Firmware,V1.14,
Time, ,
Mode,Fast,
Waveform Data,
40,
40,
40,
47,
47,
52,
52,
54,
54,
56,
56,
56,
56,
58,
58,
56,
56,
53,
53,
47,
47,
42,
31,
33,
33,
26,
15,
15,
15,
9,
-3,
-3,
-15,
-14,
-14,
-20,
-20,
-29,
-29,
-35,
-35,
-41,
-41,
-45,
-56,
-56,
-56,
-57,
-57,
-56,
-56,
-56,
-56,
-55,
-55,
-52,
-52,
-46,
-46,
-42,
-31,
-33,
-33,
-27,
-16,
-16,
-16,
-8,
3,
-1,
12,
8,
24,
21,
21,
26,
38,
34,
46,
43,
43,
50,
50,
54,
54,
58,
58,
60,
60,
56,
56,
57,
57,
56,
56,
52,
52,
44,
44,
40,
28,
30,
30,
22,
22,
13,
13,
4,
4,
-5,
-17,
-14,
-14,
-24,
-24,
-33,
-33,
-41,
-41,
-42,
-42,
-47,
-47,
-52,
-52,
-54,
-54,
-56,
-56,
-56,
-56,
-54,
-54,
-50,
-50,
-44,
-44,
-38,
-38,
-29,
-29,
-23,
-23,
-16,
-4,
-6,
8,
8,
8,
14,
26,
25,
25,
29,
40,
39,
39,
46,
46,
53,
53,
55,
55,
57,
57,
59,
59,
57,
57,
56,
56,
52,
52,
48,
48,
44,
44,
38,
26,
30,
18,
20,
8,
10,
10,
2,
-9,
-8,
-8,
-18,
-29,
-28,
-28,
-33,
-45,
-45,
-45,
-50,
-50,
-52,
-52,
-52,
-52,
-54,
-54,
-55,
-55,
-58,
-58,
-52,
-52,
-48,
-48,
-42,
-42,
-32,
-32,
-28,
-28,
-22,
-7,
-8,
-8,
2,
2,
9,
9,
15,
29,
29,
29,
32,
43,
42,
42,
50,
50,
56,
56,
53,
53,
57,
57,
56,
56,
57,
57,
55,
55,
54,
54,
45,
45,
39,
28,
33,
22,
23,
23,
18,
2,
3,
3,
-2,
-2,
-12,
-26,
-21,
-32,
-30,
-30,
-37,
-48,
-42,
-42,
-50,
-50,
-54,
-54,
-57,
-57,
-59,
-59,
-56,
-56,
-56,
-56,
-53,
-53,
-46,
-46,
-39,
-39,
-31,
-31,
-26,
-14,
-15,
-4,
-6,
-6,
1,
17,
15,
15,
24,
24,
30,
30,
38,
38,
43,
43,
51,
51,
53,
53,
59,
59,
60,
60,
58,
58,
58,
58,
55,
55,
50,
50,
42,
42,
38,
27,
28,
28,
22,
11,
11,
11,
2,
-9,
-5,
-17,
-13,
-25,
-22,
-35,
-33,
-33,
-41,
-41,
-45,
-45,
-52,
-52,
-55,
-55,
-58,
-58,
-53,
-53,
-58,
-58,
-51,
-51,
-47,
-47,
-42,
-42,
-40,
-28,
-30,
-30,
-20,
-20,
-12,
2,
2,
2,
10,
10,
16,
27,
27,
27,
34,
34,
39,
39,
47,
47,
53,
53,
56,
56,
59,
59,
58,
58,
57,
57,
55,
55,
52,
52,
49,
49,
42,
42,
34,
34,
26,
15,
16,
5,
9,
-2,
-1,
-1,
-8,
-22,
-22,
-22,
-28,
-28,
-36,
-36,
-43,
-43,
-49,
-49,
-52,
-52,
-56,
-56,
-57,
-57,
-56,
-56,
-55,
-55,
-52,
-52,
-47,
-47,
-38,
-38,
-34,
-34,
-25,
-13,
-14,
-14,
-8,
3,
0,
11,
10,
10,
19,
19,
28,
28,
35,
35,
44,
44,
48,
48,
53,
53,
59,
59,
57,
57,
57,
57,
55,
55,
54,
54,
50,
50,
44,
44,
40,
28,
28,
28,
23,
8,
11,
11,
3,
3,
-5,
-16,
-16,
-16,
-24,
-24,
-33,
-33,
-39,
-39,
-46,
-46,
-49,
-49,
-57,
-57,
-58,
-58,
-58,
-58,
-56,
-56,
-54,
-54,
-49,
-49,
-44,
-44,
-37,
-26,
-26,
-26,
-25,
-13,
-14,
-3,
-4,
11,
10,
10,
18,
18,
23,
34,
32,
32,
39,
39,
47,
47,
49,
49,
54,
54,
57,
57,
59,
59,
60,
60,
54,
54,
51,
51,
50,
39,
40,
40,
34,
34,
28,
28,
21,
8,
9,
-2,
-1,
-1,
-9,
-20,
-18,
-31,
-30,
-30,
-36,
-36,
-43,
-43,
-49,
-49,
-52,
-52,
-55,
-55,
-57,
-57,
-54,
-54,
-56,
-56,
-52,
-52,
-45,
-45,
-42,
-42,
-35,
-24,
-25,
-25,
-16,
-16,
-8,
4,
2,
14,
14,
14,
21,
21,
28,
28,
36,
36,
45,
45,
48,
48,
53,
53,
55,
55,
58,
58,
60,
60,
60,
60,
56,
56,
53,
42,
44,
44,
41,
29,
32,
20,
21,
21,
12,
12,
4,
-7,
-4,
-4,
-12,
-23,
-23,
-34,
-32,
-32,
-37,
-37,
-45,
-45,
-50,
-50,
-54,
-54,
-55,
-55,
-57,
-57,
-53,
-53,
-53,
-53,
-49,
-49,
-45,
-45,
-40,
-40,
-31,
-31,
-22,
-22,
-17,
-17,
-8,
6,
5,
17,
16,
16,
22,
22,
31,
31,
36,
47,
47,
47,
48,
48,
56,
56,
56,
56,
57,
57,
58,
58,
56,
56,
54,
54,
51,
51,
41,
41,
35,
35,
26,
26,
22,
8,
11,
-1,
1,
1,
-7,
-7,
-17,
-30,
-29,
-29,
-32,
-45,
-44,
-44,
-46,
-46,
-50,
-50,
-55,
-55,
-56,
-56,
-55,
-55,
-53,
-53,
-53,
-53,
-49,
-49,
-44,
-32,
-32,
-32,
-29,
-18,
-18,
-18,
-11,
3,
2,
14,
13,
13,
20,
20,
25,
36,
36,
36,
42,
42,
47,
47,
54,
54,
56,
56,
59,
59,
60,
60,
55,
55,
54,
54,
51,
51,
43,
43,
40,
40,
31,
31,
24,
12,
16,
2,
3,
3,
-2,
-13,
-13,
-13,
-20,
-33,
-33,
-33,
-38,
-38,
-47,
-47,
-52,
-52,
-51,
-51,
-57,
-57,
-60,
-60,
-55,
-55,
-57,
-57,
-49,
-49,
-46,
-46,
-41,
-41,
-32,
-32,
-25,
-11,
-11,
-11,
-8,
4,
4,
4,
9,
21,
18,
31,
28,
40,
39,
39,
44,
44,
50,
50,
53,
53,
54,
54,
57,
57,
59,
59,
57,
57,
55,
55,
48,
48,
44,
44,
38,
38,
29,
18,
20,
20,
11,
0,
1,
1,
-8,
-19,
-17,
-17,
-24,
-36,
-36,
-36,
-39,
-39,
-47,
-47,
-51,
-51,
-53,
-53,
-57,
-57,
-58,
-58,
-55,
-55,
-51,
-51,
-49,
-49,
-43,
-43,
-37,
-37,
-33,
-21,
-21,
-10,
-14,
-1,
-1,
-1,
6,
17,
16,
16,
22,
35,
35,
35,
36,
48,
45,
45,
50,
50,
55,
55,
56,
56,
60,
60,
56,
56,
54,
54,
54,
54,
47,
47,
41,
41,
32,
32,
25,
13,
18,
4,
7,
-4,
0,
0,
-9,
-22,
-21,
-21,
-28,
-28,
-36,
-36,
-42,
-42,
-48,
-48,
-50,
-50,
-53,
-53,
-54,
-54,
-58,
-58,
-56,
-56,
-49,
-49,
-47,
-47,
-39,
-39,
-32,
-32,
-28,
-17,
-19,
-8,
-10,
3,
3,
3,
9,
22,
21,
32,
30,
30,
36,
36,
43,
43,
47,
47,
53,
53,
56,
56,
60,
60,
59,
59,
58,
58,
53,
53,
50,
50,
43,
43,
38,
38,
30,
30,
26,
10,
10,
10,
3,
-8,
-5,
-16,
-14,
-25,
-23,
-23,
-30,
-44,
-38,
-38,
-46,
-46,
-49,
-49,
-54,
-54,
-55,
-55,
-56,
-56,
-58,
-58,
-55,
-55,
-50,
-50,
-44,
-44,
-38,
-38,
-33,
-19,
-20,
-20,
-10,
-10,
-6,
6,
6,
6,
15,
15,
20,
33,
30,
42,
40,
40,
46,
46,
49,
49,
52,
52,
57,
57,
59,
59,
57,
57,
55,
55,
52,
52,
47,
47,
44,
44,
37,
37,
29,
17,
21,
7,
10,
-2,
3,
-9,
-9,
-9,
-19,
-31,
-28,
-28,
-33,
-45,
-41,
-41,
-46,
-46,
-52,
-52,
-55,
-55,
-56,
-56,
-57,
-57,
-54,
-54,
-52,
-52,
-46,
-46,
-42,
-42,
-35,
-35,
-27,
-27,
-19,
-8,
-8,
-8,
-2,
11,
8,
21,
17,
30,
28,
28,
35,
35,
44,
44,
49,
49,
50,
50,
58,
58,
60,
60,
58,
58,
58,
58,
56,
56,
53,
53,
46,
46,
41,
41,
32,
32,
22,
22,
16,
3,
4,
4,
-3,
-3,
-10,
-24,
-22,
-22,
-30,
-30,
-34,
-46,
-42,
-42,
-49,
-49,
-53,
-53,
-56,
-56,
-55,
-55,
-56,
-56,
-51,
-51,
-51,
-51,
-45,
-45,
-38,
-38,
-32,
-32,
-23,
-23,
-13,
-13,
-6,
5,
2,
14,
10,
23,
21,
33,
29,
42,
41,
41,
43,
43,
48,
48,
54,
54,
60,
60,
57,
57,
60,
60,
58,
58,
55,
55,
48,
48,
40,
40,
35,
35,
30,
30,
21,
10,
10,
-1,
0,
0,
-7,
-18,
-13,
-28,
-25,
-38,
-33,
-45,
-41,
-41,
-48,
-48,
-51,
-51,
-54,
-54,
-56,
-56,
-57,
-57,
-54,
-54,
-52,
-52,
-48,
-48,
-45,
-45,
-40,
-26,
-28,
-17,
-18,
-18,
-10,
-10,
-4,
11,
6,
18,
14,
27,
27,
27,
34,
34,
42,
42,
45,
45,
52,
52,
54,
54,
57,
57,
58,
58,
57,
57,
58,
58,
51,
51,
45,
45,
42,
42,
33,
33,
27,
16,
16,
4,
5,
5,
0,
0,
-8,
-25,
-21,
-33,
-29,
-29,
-34,
-46,
-45,
-45,
-49,
-49,
-55,
-55,
-55,
-55,
-58,
-58,
-55,
-55,
-57,
-57,
-54,
-54,
-49,
-38,
-40,
-29,
-29,
-29,
-24,
-13,
-16,
-16,
-8,
-8,
-1,
12,
12,
23,
21,
21,
27,
38,
35,
35,
42,
42,
48,
48,
55,
55,
56,
56,
60,
60,
58,
58,
59,
59,
56,
56,
50,
50,
44,
44,
36,
36,
29,
18,
19,
19,
14,
0,
0,
0,
-6,
-6,
-12,
-25,
-24,
-24,
-32,
-43,
-41,
-41,
-45,
-45,
-52,
-52,
-53,
-53,
-58,
-58,
-58,
-58,
-57,
-57,
-57,
-57,
-50,
-50,
-45,
-45,
-38,
-38,
-32,
-18,
-19,
-19,
-12,
-1,
-1,
-1,
4,
18,
16,
16,
25,
36,
35,
35,
39,
39,
47,
47,
54,
54,
57,
57,
56,
56,
59,
59,
58,
58,
58,
58,
54,
54,
50,
50,
43,
43,
35,
35,
26,
26,
16,
4,
8,
-5,
-1,
-1,
-9,
-20,
-20,
-20,
-28,
-28,
-34,
-45,
-44,
-44,
-45,
-56,
-52,
-52,
-56,
-56,
-57,
-57,
-58,
-58,
-54,
-54,
-53,
-53,
-46,
-46,
-40,
-40,
-30,
-30,
-28,
-14,
-15,
-15,
-9,
4,
2,
2,
9,
9,
19,
30,
30,
30,
35,
35,
45,
45,
46,
46,
54,
54,
56,
56,
60,
60,
59,
59,
57,
57,
53,
53,
51,
51,
44,
44,
38,
38,
32,
32,
25,
12,
17,
3,
6,
-6,
-6,
-17,
-16,
-16,
-24,
-24,
-32,
-32,
-37,
-37,
-43,
-43,
-49,
-49,
-54,
-54,
-56,
-56,
-57,
-57,
-57,
-57,
-53,
-53,
-49,
-49,
-45,
-45,
-37,
-37,
-32,
-32,
-24,
-24,
-16,
-16,
-6,
-6,
2,
14,
12,
24,
22,
22,
32,
32,
39,
39,
46,
46,
51,
51,
55,
55,
60,
60,
60,
60,
60,
60,
55,
55,
54,
54,
51,
39,
40,
40,
38,
26,
28,
16,
19,
19,
11,
11,
2,
-9,
-8,
-8,
-16,
-30,
-28,
-28,
-34,
-34,
-42,
-42,
-49,
-49,
-54,
-54,
-55,
-55,
-56,
-56,
-55,
-55,
-57,
-57,
-52,
-52,
-46,
-46,
-42,
-42,
-36,
-36,
-29,
-18,
-22,
-9,
-13,
0,
-2,
9,
8,
20,
18,
18,
28,
28,
32,
44,
44,
44,
48,
48,
52,
52,
55,
55,
59,
59,
60,
60,
60,
60,
57,
57,
52,
52,
49,
49,
40,
40,
31,
31,
27,
10,
10,
10,
2,
2,
-1,
-13,
-13,
-13,
-21,
-21,
-30,
-30,
-37,
-37,
-42,
-42,
-46,
-46,
-51,
-51,
-54,
-54,
-56,
-56,
-58,
-58,
-54,
-54,
-47,
-47,
-48,
-48,
-40,
-40,
-32,
-32,
-25,
-25,
-17,
-4,
-5,
6,
3,
3,
10,
22,
20,
31,
30,
42,
41,
41,
45,
45,
50,
50,
55,
55,
59,
59,
60,
60,
60,
60,
59,
59,
54,
54,
51,
51,
44,
44,
37,
37,
32,
20,
22,
10,
10,
10,
3,
-9,
-9,
-21,
-17,
-29,
-27,
-27,
-34,
-34,
-41,
-41,
-48,
-48,
-50,
-50,
-56,
-56,
-56,
-56,
-60,
-60,
-54,
-54,
-53,
-53,
-50,
-39,
-43,
-43,
-36,
-36,
-32,
-20,
-25,
-10,
-13,
-2,
-2,
-2,
4,
17,
16,
28,
23,
36,
34,
34,
38,
38,
44,
56,
54,
54,
57,
57,
58,
58,
58,
58,
56,
56,
54,
54,
55,
55,
48,
48,
44,
33,
33,
33,
26,
26,
18,
7,
10,
-5,
-2,
-2,
-9,
-25,
-20,
-20,
-28,
-28,
-35,
-35,
-43,
-43,
-49,
-49,
-54,
-54,
-54,
-54,
-56,
-56,
-57,
-57,
-53,
-53,
-52,
-52,
-45,
-45,
-40,
-40,
-33,
-33,
-24,
-24,
-20,
-8,
-11,
4,
3,
14,
13,
13,
19,
32,
32,
32,
37,
37,
42,
42,
48,
48,
52,
52,
56,
56,
59,
59,
59,
59,
56,
56,
55,
55,
50,
50,
43,
43,
39,
39,
31,
31,
24,
11,
13,
1,
3,
-8,
-8,
-19,
-16,
-16,
-21,
-36,
-30,
-42,
-41,
-41,
-47,
-47,
-49,
-49,
-52,
-52,
-56,
-56,
-56,
-56,
-54,
-54,
-51,
-51,
-52,
-52,
-45,
-45,
-41,
-29,
-30,
-30,
-23,
-12,
-13,
-13,
-5,
7,
6,
17,
14,
26,
25,
36,
36,
36,
42,
42,
44,
44,
50,
50,
54,
54,
58,
58,
59,
59,
59,
59,
56,
56,
55,
55,
49,
49,
41,
41,
35,
24,
25,
25,
21,
6,
11,
-4,
-3,
-3,
-11,
-11,
-20,
-20,
-29,
-29,
-37,
-37,
-43,
-43,
-45,
-56,
-52,
-52,
-55,
-55,
-54,
-54,
-59,
-59,
-54,
-54,
-52,
-52,
-46,
-46,
-40,
-40,
-37,
-26,
-29,
-17,
-18,
-18,
-8,
-8,
-4,
11,
7,
19,
18,
18,
28,
28,
35,
35,
43,
43,
52,
52,
55,
55,
54,
54,
59,
59,
60,
60,
58,
58,
55,
55,
49,
49,
46,
46,
38,
38,
29,
29,
23,
23,
14,
3,
3,
3,
-4,
-4,
-11,
-23,
-21,
-32,
-29,
-29,
-38,
-38,
-44,
-44,
-48,
-48,
-53,
-53,
-55,
-55,
-56,
-56,
-55,
-55,
-53,
-53,
-49,
-49,
-44,
-44,
-37,
-37,
-33,
-21,
-23,
-23,
-13,
-13,
-6,
-6,
3,
14,
14,
25,
23,
23,
32,
32,
36,
48,
45,
45,
52,
52,
57,
57,
55,
55,
60,
60,
58,
58,
54,
54,
53,
53,
48,
48,
47,
36,
36,
36,
30,
18,
19,
8,
9,
9,
-1,
-1,
-9,
-9,
-16,
-16,
-26,
-26,
-34,
-34,
-43,
-43,
-48,
-48,
-48,
-48,
-56,
-56,
-54,
-54,
-55,
-55,
-55,
-55,
-54,
-54,
-46,
-46,
-44,
-44,
-35,
-35,
-28,
-28,
-22,
-10,
-10,
-10,
-4,
12,
10,
10,
14,
29,
27,
38,
35,
35,
43,
43,
47,
47,
53,
53,
54,
54,
58,
58,
58,
58,
59,
59,
57,
57,
52,
52,
48,
48,
38,
38,
30,
30,
26,
14,
14,
14,
9,
-2,
0,
0,
-9,
-21,
-21,
-33,
-33,
-33,
-38,
-38,
-42,
-42,
-49,
-49,
-54,
-54,
-54,
-54,
-57,
-57,
-56,
-56,
-54,
-54,
-48,
-48,
-45,
-45,
-40,
-40,
-33,
-22,
-25,
-14,
-15,
-15,
-9,
5,
4,
4,
11,
23,
23,
23,
28,
28,
36,
36,
44,
44,
51,
51,
55,
55,
55,
55,
58,
58,
56,
56,
60,
60,
54,
54,
51,
51,
43,
43,
37,
37,
28,
28,
21,
8,
9,
9,
0,
0,
-2,
-15,
-15,
-27,
-25,
-25,
-32,
-32,
-39,
-39,
-43,
-43,
-52,
-52,
-55,
-55,
-54,
-54,
-57,
-57,
-54,
-54,
-53,
-53,
-49,
-49,
-46,
-46,
-40,
-29,
-32,
-20,
-21,
-21,
-12,
-12,
-4,
-4,
4,
17,
14,
26,
21,
34,
34,
34,
44,
44,
48,
48,
53,
53,
57,
57,
56,
56,
60,
60,
56,
56,
56,
56,
54,
54,
49,
49,
42,
42,
35,
24,
24,
24,
19,
4,
4,
4,
0,
0,
-8,
-21,
-18,
-29,
-29,
-29,
-35,
-35,
-42,
-42,
-48,
-48,
-52,
-52,
-56,
-56,
-57,
-57,
-55,
-55,
-58,
-58,
-51,
-51,
-49,
-49,
-41,
-41,
-37,
-24,
-25,
-25,
-20,
-8,
-10,
1,
-1,
-1,
7,
19,
16,
28,
28,
28,
33,
45,
42,
42,
51,
51,
54,
54,
59,
59,
58,
58,
56,
56,
60,
60,
56,
56,
51,
51,
46,
46,
36,
36,
31,
31,
21,
21,
14,
3,
4,
4,
0,
-11,
-11,
-24,
-20,
-32,
-31,
-31,
-37,
-37,
-46,
-46,
-49,
-49,
-52,
-52,
-54,
-54,
-56,
-56,
-57,
-57,
-56,
-56,
-48,
-48,
-46,
-46,
-37,
-37,
-29,
-29,
-22,
-22,
-14,
-14,
-8,
6,
4,
17,
15,
26,
25,
25,
34,
34,
40,
40,
45,
45,
50,
50,
54,
54,
55,
55,
57,
57,
59,
59,
56,
56,
53,
53,
48,
48,
44,
44,
36,
36,
29,
16,
17,
17,
8,
8,
0,
0,
-8,
-21,
-17,
-30,
-28,
-28,
-34,
-34,
-44,
-44,
-44,
-44,
-50,
-50,
-54,
-54,
-58,
-58,
-56,
-56,
-54,
-54,
-53,
-53,
-45,
-45,
-40,
-40,
-36,
-36,
-26,
-26,
-20,
-8,
-10,
-10,
-2,
10,
8,
20,
20,
20,
26,
26,
35,
35,
42,
42,
50,
50,
50,
50,
58,
58,
57,
57,
57,
57,
58,
58,
56,
56,
52,
52,
45,
45,
38,
38,
29,
29,
24,
12,
12,
12,
5,
5,
-4,
-4,
-11,
-22,
-19,
-34,
-32,
-32,
-35,
-35,
-44,
-44,
-50,
-50,
-52,
-52,
-55,
-55,
-58,
-58,
-56,
-56,
-53,
-53,
-53,
-53,
-45,
-45,
-38,
-38,
-32,
-32,
-26,
-11,
-14,
-14,
-8,
3,
2,
15,
14,
14,
23,
23,
30,
30,
36,
36,
44,
44,
48,
48,
52,
52,
55,
55,
58,
58,
56,
56,
60,
60,
53,
53,
50,
50,
46,
35,
36,
36,
30,
30,
22,
11,
12,
12,
4,
-8,
-6,
-6,
-16,
-16,
-22,
-34,
-32,
-32,
-42,
-42,
-44,
-44,
-52,
-52,
-54,
-54,
-54,
-54,
-58,
-58,
-55,
-55,
-53,
-53,
-48,
-48,
-43,
-43,
-36,
-36,
-28,
-28,
-18,
-18,
-13,
-2,
-4,
10,
10,
10,
16,
27,
25,
25,
32,
32,
41,
41,
46,
46,
49,
49,
56,
56,
59,
59,
58,
58,
59,
59,
56,
56,
53,
53,
45,
45,
42,
42,
35,
23,
25,
14,
15,
15,
7,
7,
0,
-14,
-12,
-12,
-19,
-32,
-31,
-31,
-37,
-37,
-42,
-42,
-50,
-50,
-54,
-54,
-57,
-57,
-59,
-59,
-55,
-55,
-54,
-54,
-52,
-52,
-46,
-46,
-44,
-32,
-32,
-32,
-26,
-26,
-17,
-17,
-9,
4,
2,
15,
10,
21,
18,
31,
30,
30,
36,
36,
43,
43,
45,
56,
53,
53,
58,
58,
57,
57,
59,
59,
56,
56,
54,
54,
51,
51,
44,
44,
36,
36,
31,
31,
25,
12,
14,
14,
4,
-7,
-6,
-6,
-14,
-14,
-24,
-24,
-30,
-30,
-39,
-39,
-47,
-47,
-52,
-52,
-52,
-52,
-54,
-54,
-55,
-55,
-55,
-55,
-52,
-52,
-52,
-52,
-43,
-43,
-37,
-37,
-31,
-31,
-21,
-21,
-14,
-14,
-4,
8,
4,
18,
15,
26,
24,
36,
31,
42,
41,
41,
46,
46,
52,
52,
54,
54,
59,
59,
59,
59,
58,
58,
57,
57,
52,
52,
48,
48,
45,
33,
34,
34,
27,
27,
18,
7,
11,
-3,
-2,
-2,
-9,
-9,
-18,
-30,
-30,
-30,
-36,
-36,
-41,
-41,
-48,
-48,
-51,
-51,
-56,
-56,
-58,
-58,
-55,
-55,
-54,
-54,
-50,
-50,
-48,
-48,
-43,
-43,
-34,
-34,
-24,
-24,
-20,
-7,
-9,
4,
3,
3,
12,
12,
16,
28,
26,
26,
32,
32,
42,
42,
47,
47,
54,
54,
56,
56,
59,
59,
60,
60,
59,
59,
56,
56,
51,
51,
46,
46,
39,
39,
30,
30,
27,
11,
15,
15,
7,
-6,
-6,
-6,
-13,
-13,
-22,
-34,
-34,
-34,
-37,
-37,
-45,
-45,
-50,
-50,
-51,
-51,
-56,
-56,
-58,
-58,
-54,
-54,
-55,
-55,
-50,
-50,
-46,
-46,
-39,
-39,
-30,
-30,
-22,
-11,
-11,
-11,
-9,
5,
5,
5,
12,
27,
26,
26,
32,
32,
38,
38,
44,
44,
51,
51,
55,
55,
56,
56,
58,
58,
59,
59,
59,
59,
53,
53,
47,
47,
44,
33,
36,
36,
28,
17,
22,
10,
13,
1,
1,
1,
-8,
-21,
-20,
-20,
-27,
-27,
-36,
-36,
-42,
-42,
-44,
-44,
-49,
-49,
-57,
-57,
-57,
-57,
-54,
-54,
-57,
-57,
-51,
-51,
-51,
-51,
-45,
-34,
-35,
-35,
-26,
-26,
-18,
-18,
-13,
1,
-2,
12,
9,
20,
19,
19,
27,
27,
35,
35,
42,
42,
48,
48,
52,
52,
57,
57,
59,
59,
58,
58,
58,
58,
57,
57,
52,
52,
45,
45,
42,
31,
33,
33,
26,
26,
17,
5,
6,
-6,
-5,
-5,
-8,
-23,
-21,
-21,
-25,
-39,
-37,
-37,
-41,
-41,
-48,
-48,
-54,
-54,
-56,
-56,
-56,
-56,
-58,
-58,
-55,
-55,
-51,
-51,
-47,
-47,
-39,
-39,
-31,
-31,
-27,
-14,
-14,
-14,
-8,
3,
2,
2,
11,
22,
20,
32,
29,
29,
38,
38,
45,
45,
48,
48,
54,
54,
57,
57,
58,
58,
59,
59,
55,
55,
53,
53,
52,
52,
44,
44,
38,
38,
28,
28,
22,
11,
15,
2,
7,
-9,
-4,
-19,
-15,
-15,
-22,
-34,
-33,
-33,
-43,
-43,
-45,
-45,
-51,
-51,
-53,
-53,
-56,
-56,
-55,
-55,
-56,
-56,
-54,
-54,
-49,
-49,
-44,
-44,
-36,
-36,
-31,
-18,
-19,
-19,
-15,
-2,
-3,
-3,
7,
21,
20,
20,
27,
27,
31,
42,
40,
40,
46,
46,
50,
50,
52,
52,
59,
59,
59,
59,
58,
58,
55,
55,
53,
53,
44,
44,
40,
40,
34,
23,
24,
24,
15,
15,
8,
-5,
0,
-12,
-12,
-12,
-19,
-30,
-28,
-28,
-35,
-46,
-45,
-45,
-48,
-48,
-54,
-54,
-58,
-58,
-55,
-55,
-57,
-57,
-55,
-55,
-50,
-50,
-49,
-49,
-41,
-41,
-37,
-23,
-28,
-17,
-17,
-17,
-11,
5,
4,
4,
13,
13,
19,
19,
27,
27,
32,
44,
42,
42,
50,
50,
53,
53,
55,
55,
59,
59,
56,
56,
56,
56,
55,
55,
52,
52,
47,
36,
37,
37,
33,
22,
22,
22,
16,
-1,
-1,
-1,
-6,
-6,
-14,
-25,
-22,
-34,
-33,
-33,
-40,
-40,
-49,
-49,
-52,
-52,
-55,
-55,
-54,
-54,
-55,
-55,
-54,
-54,
-55,
-55,
-48,
-48,
-41,
-41,
-40,
-29,
-30,
-30,
-21,
-21,
-16,
-16,
-8,
6,
1,
15,
14,
14,
21,
34,
34,
34,
37,
37,
46,
46,
48,
48,
53,
53,
59,
59,
59,
59,
59,
59,
58,
58,
54,
54,
48,
48,
42,
42,
37,
24,
29,
16,
18,
18,
9,
-3,
1,
-10,
-8,
-19,
-18,
-18,
-26,
-37,
-35,
-35,
-41,
-41,
-47,
-47,
-50,
-50,
-55,
-55,
-55,
-55,
-54,
-54,
-53,
-53,
-53,
-53,
-47,
-47,
-40,
-40,
-36,
-23,
-23,
-23,
-16,
-16,
-13,
2,
-4,
10,
5,
20,
19,
19,
27,
27,
36,
36,
45,
45,
45,
45,
51,
51,
56,
56,
59,
59,
59,
59,
59,
59,
56,
56,
51,
51,
43,
43,
39,
28,
28,
28,
20,
20,
16,
16,
10,
-6,
-5,
-5,
-13,
-25,
-21,
-32,
-30,
-30,
-37,
-37,
-42,
-42,
-51,
-51,
-55,
-55,
-55,
-55,
-58,
-58,
-55,
-55,
-53,
-53,
-52,
-52,
-48,
-48,
-38,
-38,
-31,
-31,
-24,
-13,
-14,
-1,
-2,
-2,
8,
8,
12,
24,
23,
23,
32,
32,
36,
36,
45,
45,
49,
49,
55,
55,
55,
55,
57,
57,
59,
59,
58,
58,
53,
53,
50,
50,
45,
34,
36,
36,
31,
20,
21,
21,
11,
11,
4,
-9,
-8,
-8,
-16,
-16,
-25,
-25,
-35,
-35,
-42,
-42,
-47,
-47,
-52,
-52,
-53,
-53,
-56,
-56,
-57,
-57,
-53,
-53,
-54,
-54,
-47,
-47,
-43,
-43,
-34,
-34,
-30,
-19,
-22,
-10,
-13,
-1,
-3,
10,
10,
10,
15,
27,
27,
27,
34,
34,
43,
43,
44,
55,
52,
52,
57,
57,
57,
57,
61,
61,
57,
57,
56,
56,
51,
51,
48,
48,
40,
40,
32,
32,
27,
14,
17,
4,
4,
4,
0,
0,
-9,
-22,
-17,
-29,
-26,
-38,
-36,
-36,
-42,
-42,
-47,
-47,
-53,
-53,
-54,
-54,
-54,
-54,
-58,
-58,
-54,
-54,
-50,
-50,
-46,
-46,
-43,
-31,
-31,
-31,
-23,
-23,
-15,
-15,
-9,
4,
3,
3,
11,
22,
22,
22,
28,
28,
36,
36,
45,
45,
51,
51,
56,
56,
58,
58,
58,
58,
60,
60,
56,
56,
56,
56,
51,
51,
47,
47,
39,
28,
28,
28,
21,
21,
14,
2,
4,
-8,
-6,
-17,
-17,
-17,
-26,
-26,
-29,
-42,
-36,
-50,
-45,
-45,
-53,
-53,
-54,
-54,
-55,
-55,
-55,
-55,
-56,
-56,
-54,
-54,
-48,
-48,
-43,
-43,
-38,
-38,
-33,
-33,
-24,
-9,
-12,
1,
1,
1,
9,
9,
14,
27,
25,
25,
29,
43,
42,
42,
46,
46,
53,
53,
54,
54,
58,
58,
58,
58,
58,
58,
54,
54,
51,
51,
48,
48,
43,
43,
35,
35,
28,
28,
19,
19,
10,
-2,
-1,
-1,
-9,
-9,
-18,
-18,
-26,
-38,
-38,
-38,
-42,
-42,
-46,
-46,
-52,
-52,
-55,
-55,
-56,
-56,
-56,
-56,
-54,
-54,
-52,
-52,
-49,
-49,
-42,
-42,
-36,
-36,
-26,
-26,
-16,
-16,
-10,
3,
2,
2,
12,
12,
15,
30,
30,
30,
36,
36,
40,
40,
49,
49,
53,
53,
57,
57,
57,
57,
57,
57,
57,
57,
54,
54,
51,
51,
47,
47,
39,
39,
30,
19,
24,
10,
15,
1,
1,
1,
-4,
-16,
-14,
-14,
-22,
-22,
-28,
-40,
-40,
-40,
-46,
-46,
-51,
-51,
-53,
-53,
-56,
-56,
-55,
-55,
-56,
-56,
-56,
-56,
-50,
-50,
-46,
-46,
-41,
-30,
-31,
-31,
-25,
