Data/Output/LOG0000/DS0117.CSV

Memory Length,4000,
Trigger Level,-1.20000e+02,
Source,CH2,
Probe,1.0X,
Vertical Units,V,
Vertical Scale,1.00000e+00,
Vertical Position,0.00000e+00,
Horizontal Units,S,
Horizontal Scale,1.00000e-02,
Horizontal Position,0.0000000e+00,
Horizontal Mode,Main,
Sampling Period,4.00000e-05,
Firmware,V1.14,
Time, ,
Mode,Fast,
Waveform Data,
59,
59,
59,
56,
56,
60,
60,
55,
55,
48,
37,
37,
37,
31,
31,
24,
24,
18,
2,
3,
-9,
-6,
-6,
-14,
-27,
-24,
-35,
-33,
-44,
-43,
-43,
-49,
-49,
-52,
-52,
-57,
-57,
-58,
-58,
-53,
-53,
-53,
-53,
-50,
-50,
-41,
-41,
-34,
-23,
-24,
-24,
-14,
-14,
-8,
9,
8,
8,
13,
27,
24,
37,
36,
36,
43,
43,
50,
50,
54,
54,
56,
56,
60,
60,
59,
59,
56,
56,
53,
53,
45,
45,
41,
29,
30,
18,
20,
9,
9,
-4,
-2,
-2,
-9,
-9,
-18,
-30,
-30,
-30,
-38,
-38,
-43,
-43,
-50,
-50,
-53,
-53,
-54,
-54,
-59,
-59,
-55,
-55,
-50,
-50,
-48,
-36,
-38,
-38,
-31,
-31,
-24,
-11,
-11,
3,
2,
2,
8,
20,
19,
19,
27,
39,
39,
39,
43,
43,
50,
50,
55,
55,
58,
58,
60,
60,
60,
60,
57,
57,
51,
51,
45,
45,
38,
38,
29,
18,
20,
6,
6,
6,
-1,
-1,
-9,
-20,
-19,
-32,
-31,
-31,
-40,
-40,
-45,
-45,
-51,
-51,
-53,
-53,
-56,
-56,
-54,
-54,
-55,
-55,
-51,
-51,
-42,
-42,
-35,
-35,
-30,
-19,
-20,
-8,
-11,
3,
2,
14,
12,
23,
21,
32,
29,
41,
39,
39,
45,
45,
50,
50,
56,
56,
60,
60,
58,
58,
58,
58,
55,
55,
47,
47,
44,
44,
40,
22,
25,
13,
15,
15,
9,
-4,
-4,
-15,
-15,
-30,
-30,
-30,
-32,
-32,
-42,
-42,
-46,
-46,
-54,
-54,
-56,
-56,
-56,
-56,
-58,
-58,
-52,
-52,
-50,
-50,
-42,
-42,
-35,
-35,
-30,
-15,
-19,
-7,
-9,
2,
2,
18,
17,
28,
25,
36,
36,
36,
43,
43,
51,
51,
54,
54,
56,
56,
59,
59,
58,
58,
59,
59,
52,
52,
49,
49,
44,
28,
33,
20,
22,
22,
14,
3,
6,
-7,
-7,
-19,
-17,
-28,
-25,
-37,
-37,
-37,
-41,
-54,
-48,
-48,
-54,
-54,
-56,
-56,
-59,
-59,
-55,
-55,
-54,
-54,
-46,
-46,
-42,
-42,
-33,
-33,
-25,
-14,
-15,
-15,
-8,
4,
3,
18,
18,
18,
25,
25,
33,
47,
42,
42,
48,
48,
55,
55,
55,
55,
60,
60,
58,
58,
54,
54,
52,
52,
46,
46,
40,
29,
32,
20,
20,
7,
10,
-2,
-1,
-13,
-12,
-24,
-24,
-24,
-32,
-32,
-35,
-46,
-43,
-54,
-50,
-50,
-54,
-54,
-55,
-55,
-58,
-58,
-51,
-51,
-52,
-52,
-47,
-47,
-39,
-39,
-32,
-21,
-21,
-21,
-14,
0,
0,
11,
7,
19,
19,
30,
29,
29,
38,
38,
44,
44,
49,
49,
55,
55,
60,
60,
61,
61,
56,
56,
55,
55,
47,
47,
47,
32,
36,
25,
26,
15,
16,
16,
7,
-4,
-4,
-18,
-17,
-17,
-26,
-26,
-30,
-30,
-40,
-40,
-44,
-44,
-51,
-51,
-56,
-56,
-58,
-58,
-54,
-54,
-55,
-55,
-50,
-50,
-41,
-41,
-35,
-35,
-28,
-28,
-20,
-9,
-9,
-9,
0,
13,
10,
24,
23,
23,
29,
43,
42,
42,
46,
46,
51,
51,
57,
57,
58,
58,
58,
58,
56,
56,
51,
51,
46,
46,
41,
41,
34,
22,
27,
13,
15,
4,
6,
-5,
-5,
-20,
-16,
-16,
-26,
-38,
-37,
-37,
-38,
-49,
-49,
-49,
-53,
-53,
-56,
-56,
-55,
-55,
-55,
-55,
-51,
-51,
-49,
-49,
-41,
-41,
-34,
-34,
-24,
-24,
-20,
-7,
-8,
4,
3,
18,
18,
29,
26,
37,
34,
34,
44,
44,
47,
47,
53,
53,
59,
59,
58,
58,
60,
60,
57,
57,
55,
55,
47,
47,
40,
40,
32,
20,
21,
21,
14,
2,
4,
-9,
-7,
-20,
-20,
-20,
-25,
-38,
-35,
-46,
-45,
-45,
-50,
-50,
-54,
-54,
-53,
-53,
-55,
-55,
-52,
-52,
-52,
-52,
-46,
-46,
-41,
-30,
-30,
-30,
-24,
-13,
-16,
0,
-1,
-1,
5,
19,
18,
30,
29,
29,
33,
45,
42,
42,
51,
51,
54,
54,
56,
56,
62,
62,
59,
59,
56,
56,
50,
50,
47,
34,
37,
37,
30,
19,
22,
9,
9,
-2,
-2,
-2,
-11,
-24,
-22,
-22,
-28,
-39,
-36,
-48,
-44,
-44,
-53,
-53,
-54,
-54,
-56,
-56,
-59,
-59,
-52,
-52,
-52,
-52,
-49,
-36,
-37,
-37,
-30,
-30,
-22,
-10,
-11,
-11,
-3,
11,
9,
21,
21,
21,
26,
40,
39,
39,
45,
45,
52,
52,
58,
58,
60,
60,
58,
58,
58,
58,
54,
54,
50,
50,
43,
43,
35,
35,
26,
15,
16,
3,
3,
3,
-3,
-16,
-12,
-28,
-25,
-36,
-34,
-34,
-41,
-41,
-46,
-46,
-51,
-51,
-55,
-55,
-56,
-56,
-53,
-53,
-54,
-54,
-49,
-49,
-44,
-33,
-35,
-35,
-27,
-27,
-17,
-17,
-12,
4,
3,
16,
15,
27,
24,
35,
33,
33,
39,
50,
48,
48,
50,
50,
56,
56,
59,
59,
56,
56,
55,
55,
54,
54,
50,
36,
42,
30,
31,
31,
22,
11,
16,
0,
3,
3,
-5,
-20,
-20,
-20,
-26,
-37,
-37,
-37,
-42,
-42,
-50,
-50,
-51,
-51,
-52,
-52,
-54,
-54,
-53,
-53,
-53,
-53,
-46,
-46,
-40,
-40,
-35,
-35,
-25,
-25,
-18,
-7,
-7,
9,
8,
8,
14,
14,
23,
38,
35,
35,
44,
44,
46,
46,
56,
56,
59,
59,
59,
59,
57,
57,
55,
55,
51,
51,
48,
48,
41,
41,
32,
20,
20,
7,
7,
7,
0,
0,
-9,
-21,
-20,
-20,
-26,
-40,
-40,
-40,
-45,
-45,
-48,
-48,
-53,
-53,
-54,
-54,
-56,
-56,
-54,
-54,
-52,
-52,
-48,
-35,
-35,
-35,
-34,
-22,
-22,
-11,
-12,
-1,
-1,
11,
9,
22,
22,
22,
29,
40,
36,
36,
46,
46,
50,
50,
55,
55,
60,
60,
57,
57,
60,
60,
53,
53,
53,
42,
43,
43,
39,
27,
31,
18,
21,
9,
10,
-3,
-2,
-2,
-8,
-24,
-20,
-35,
-31,
-43,
-42,
-42,
-46,
-46,
-52,
-52,
-52,
-52,
-56,
-56,
-57,
-57,
-54,
-54,
-49,
-49,
-46,
-34,
-36,
-36,
-30,
-19,
-19,
-19,
-11,
1,
0,
0,
8,
20,
18,
30,
29,
40,
40,
40,
46,
46,
51,
51,
58,
58,
59,
59,
59,
59,
59,
59,
57,
57,
52,
41,
42,
42,
36,
36,
26,
13,
15,
4,
4,
-7,
-6,
-17,
-12,
-25,
-22,
-37,
-35,
-35,
-42,
-42,
-49,
-49,
-53,
-53,
-53,
-53,
-55,
-55,
-55,
-55,
-52,
-52,
-48,
-48,
-45,
-30,
-31,
-31,
-26,
-15,
-16,
-16,
-8,
5,
2,
15,
12,
28,
25,
36,
34,
34,
43,
43,
48,
48,
53,
53,
57,
57,
60,
60,
61,
61,
57,
57,
51,
51,
47,
47,
40,
28,
29,
29,
21,
21,
14,
1,
2,
-9,
-8,
-8,
-14,
-28,
-26,
-38,
-36,
-36,
-42,
-42,
-48,
-48,
-53,
-53,
-57,
-57,
-58,
-58,
-53,
-53,
-53,
-53,
-49,
-38,
-39,
-39,
-35,
-24,
-24,
-13,
-14,
-14,
-6,
8,
6,
19,
16,
28,
26,
38,
38,
38,
46,
46,
48,
48,
56,
56,
56,
56,
58,
58,
59,
59,
54,
54,
51,
51,
45,
45,
40,
28,
28,
28,
21,
10,
11,
-2,
0,
0,
-9,
-23,
-23,
-23,
-29,
-29,
-38,
-49,
-44,
-44,
-50,
-50,
-53,
-53,
-56,
-56,
-57,
-57,
-54,
-54,
-52,
-52,
-45,
-45,
-37,
-37,
-29,
-29,
-21,
-21,
-12,
-1,
-1,
-1,
8,
22,
20,
32,
32,
32,
36,
47,
45,
45,
48,
48,
53,
53,
60,
60,
59,
59,
59,
59,
55,
55,
50,
50,
44,
44,
38,
26,
27,
27,
18,
5,
6,
6,
0,
-18,
-14,
-28,
-24,
-35,
-34,
-34,
-38,
-38,
-47,
-47,
-51,
-51,
-54,
-54,
-55,
-55,
-57,
-57,
-55,
-55,
-49,
-49,
-45,
-45,
-37,
-24,
-25,
-25,
-20,
-7,
-8,
-8,
0,
12,
10,
24,
21,
32,
32,
32,
42,
42,
47,
47,
53,
53,
56,
56,
59,
59,
58,
58,
57,
57,
53,
53,
48,
48,
39,
39,
30,
30,
22,
22,
16,
2,
2,
2,
-6,
-17,
-13,
-30,
-29,
-29,
-34,
-45,
-44,
-44,
-48,
-48,
-51,
-51,
-56,
-56,
-56,
-56,
-54,
-54,
-52,
-52,
-47,
-47,
-43,
-43,
-33,
-33,
-24,
-24,
-17,
-17,
-9,
5,
4,
18,
18,
18,
25,
36,
36,
36,
44,
44,
48,
48,
53,
53,
56,
56,
59,
59,
58,
58,
57,
57,
52,
52,
46,
46,
40,
40,
33,
18,
18,
18,
11,
11,
2,
-9,
-7,
-19,
-16,
-31,
-26,
-39,
-39,
-39,
-45,
-45,
-50,
-50,
-52,
-52,
-54,
-54,
-55,
-55,
-55,
-55,
-52,
-52,
-46,
-46,
-38,
-38,
-34,
-22,
-22,
-11,
-16,
0,
0,
0,
9,
9,
17,
28,
27,
27,
35,
35,
44,
44,
54,
54,
52,
52,
59,
59,
58,
58,
59,
59,
55,
55,
54,
43,
45,
45,
35,
35,
29,
16,
17,
6,
8,
8,
2,
-9,
-9,
-23,
-21,
-32,
-32,
-32,
-38,
-38,
-47,
-47,
-49,
-49,
-57,
-57,
-54,
-54,
-54,
-54,
-54,
-54,
-51,
-51,
-46,
-46,
-38,
-38,
-29,
-17,
-17,
-17,
-10,
3,
0,
14,
12,
12,
21,
21,
31,
31,
39,
50,
46,
46,
53,
53,
56,
56,
57,
57,
57,
57,
59,
59,
54,
54,
53,
53,
43,
43,
35,
35,
26,
26,
19,
7,
8,
-6,
-5,
-17,
-14,
-27,
-27,
-27,
-36,
-36,
-37,
-48,
-46,
-46,
-51,
-51,
-56,
-56,
-56,
-56,
-57,
-57,
-52,
-52,
-49,
-49,
-43,
-43,
-34,
-34,
-28,
-14,
-14,
-14,
-8,
4,
4,
18,
16,
29,
28,
28,
35,
35,
43,
43,
51,
51,
55,
55,
56,
56,
60,
60,
59,
59,
56,
56,
55,
55,
48,
48,
40,
40,
31,
19,
24,
13,
15,
3,
6,
-8,
-8,
-20,
-17,
-17,
-23,
-36,
-34,
-34,
-42,
-42,
-51,
-51,
-53,
-53,
-54,
-54,
-58,
-58,
-57,
-57,
-49,
-49,
-47,
-47,
-40,
-40,
-34,
-22,
-23,
-23,
-13,
-13,
-4,
-4,
6,
19,
18,
18,
26,
37,
35,
48,
46,
46,
50,
50,
53,
53,
58,
58,
59,
59,
59,
59,
56,
56,
51,
51,
45,
45,
39,
39,
31,
18,
19,
7,
11,
-3,
-1,
-13,
-12,
-12,
-22,
-22,
-28,
-40,
-38,
-38,
-46,
-46,
-50,
-50,
-53,
-53,
-54,
-54,
-56,
-56,
-54,
-54,
-52,
-52,
-46,
-46,
-42,
-28,
-31,
-31,
-22,
-11,
-11,
2,
1,
13,
11,
11,
19,
32,
29,
29,
35,
46,
44,
44,
50,
50,
55,
55,
59,
59,
60,
60,
57,
57,
57,
57,
52,
52,
45,
45,
36,
36,
27,
27,
18,
7,
9,
-4,
-4,
-4,
-12,
-25,
-21,
-33,
-29,
-42,
-40,
-40,
-46,
-46,
-53,
-53,
-58,
-58,
-56,
-56,
-58,
-58,
-53,
-53,
-50,
-50,
-46,
-34,
-36,
-25,
-28,
-28,
-21,
-9,
-10,
3,
2,
13,
13,
24,
24,
24,
32,
32,
39,
39,
47,
47,
51,
51,
56,
56,
60,
60,
61,
61,
55,
55,
53,
53,
47,
47,
43,
43,
35,
35,
28,
12,
14,
2,
2,
2,
-2,
-17,
-13,
-28,
-25,
-39,
-37,
-37,
-40,
-40,
-48,
-48,
-52,
-52,
-56,
-56,
-56,
-56,
-54,
-54,
-55,
-55,
-46,
-46,
-43,
-43,
-35,
-24,
-25,
-25,
-20,
-7,
-7,
4,
3,
3,
12,
28,
28,
28,
33,
44,
43,
43,
50,
50,
56,
56,
59,
59,
58,
58,
59,
59,
56,
56,
53,
53,
45,
45,
41,
30,
35,
19,
21,
10,
10,
10,
2,
2,
-5,
-19,
-17,
-30,
-28,
-28,
-36,
-36,
-44,
-44,
-48,
-48,
-52,
-52,
-58,
-58,
-57,
-57,
-55,
-55,
-52,
-52,
-49,
-49,
-41,
-41,
-33,
-22,
-23,
-23,
-16,
-4,
-4,
7,
4,
16,
15,
27,
27,
27,
36,
36,
41,
52,
50,
50,
52,
52,
59,
59,
59,
59,
60,
60,
55,
55,
51,
51,
48,
36,
40,
40,
30,
18,
22,
8,
8,
-3,
-3,
-3,
-9,
-25,
-22,
-22,
-31,
-42,
-38,
-38,
-44,
-44,
-50,
-50,
-54,
-54,
-57,
-57,
-56,
-56,
-55,
-55,
-50,
-50,
-45,
-45,
-38,
-38,
-31,
-20,
-22,
-9,
-9,
-9,
-2,
12,
12,
12,
18,
30,
30,
30,
39,
39,
45,
45,
51,
51,
54,
54,
58,
58,
60,
60,
59,
59,
52,
52,
50,
50,
41,
41,
38,
24,
26,
15,
16,
3,
4,
4,
-6,
-17,
-15,
-28,
-26,
-26,
-35,
-35,
-39,
-39,
-46,
-46,
-49,
-49,
-56,
-56,
-60,
-60,
-58,
-58,
-54,
-54,
-50,
-50,
-44,
-33,
-35,
-24,
-28,
-16,
-18,
-18,
-9,
3,
3,
15,
14,
14,
19,
34,
32,
32,
39,
51,
50,
50,
52,
52,
58,
58,
59,
59,
59,
59,
57,
57,
51,
51,
46,
46,
39,
39,
33,
20,
22,
22,
16,
2,
3,
3,
-4,
-16,
-15,
-30,
-28,
-28,
-35,
-46,
-45,
-45,
-46,
-46,
-54,
-54,
-57,
-57,
-57,
-57,
-53,
-53,
-51,
-51,
-46,
-46,
-42,
-30,
-32,
-32,
-23,
-23,
-13,
-13,
-8,
7,
2,
16,
13,
30,
28,
39,
36,
36,
42,
42,
52,
52,
54,
54,
55,
55,
60,
60,
59,
59,
58,
58,
54,
54,
50,
37,
41,
29,
29,
29,
21,
7,
12,
-1,
3,
-9,
-8,
-20,
-18,
-31,
-29,
-29,
-33,
-44,
-43,
-43,
-50,
-50,
-53,
-53,
-56,
-56,
-56,
-56,
-55,
-55,
-49,
-49,
-48,
-36,
-39,
-28,
-33,
-20,
-22,
-11,
-12,
-12,
-3,
11,
10,
10,
18,
30,
29,
40,
38,
38,
43,
43,
49,
49,
56,
56,
58,
58,
57,
57,
60,
60,
56,
56,
52,
52,
44,
44,
39,
24,
27,
27,
18,
18,
12,
-3,
-2,
-13,
-13,
-13,
-22,
-35,
-30,
-41,
-38,
-38,
-44,
-44,
-50,
-50,
-54,
-54,
-57,
-57,
-56,
-56,
-56,
-56,
-49,
-49,
-46,
-46,
-40,
-29,
-29,
-29,
-21,
-21,
-12,
1,
1,
1,
7,
23,
18,
32,
32,
32,
37,
48,
47,
47,
52,
52,
57,
57,
59,
59,
58,
58,
57,
57,
55,
55,
48,
48,
44,
32,
35,
24,
26,
15,
15,
4,
5,
-8,
-8,
-8,
-13,
-24,
-23,
-38,
-33,
-33,
-43,
-43,
-48,
-48,
-52,
-52,
-57,
-57,
-58,
-58,
-54,
-54,
-52,
-52,
-48,
-48,
-43,
-43,
-35,
-24,
-26,
-13,
-16,
-16,
-8,
3,
1,
15,
12,
27,
26,
26,
35,
35,
42,
42,
47,
47,
53,
53,
56,
56,
58,
58,
58,
58,
55,
55,
50,
50,
47,
47,
43,
28,
32,
19,
21,
21,
12,
1,
4,
-9,
-9,
-9,
-14,
-29,
-29,
-40,
-36,
-36,
-46,
-46,
-48,
-48,
-54,
-54,
-54,
-54,
-54,
-54,
-53,
-53,
-52,
-52,
-49,
-49,
-40,
-40,
-31,
-31,
-25,
-25,
-17,
-6,
-8,
8,
8,
20,
19,
19,
24,
35,
32,
46,
43,
43,
49,
49,
52,
52,
58,
58,
60,
60,
61,
61,
54,
54,
50,
50,
45,
45,
41,
29,
31,
20,
20,
8,
8,
-4,
-4,
-4,
-9,
-23,
-22,
-22,
-31,
-31,
-35,
-48,
-47,
-47,
-51,
-51,
-54,
-54,
-54,
-54,
-54,
-54,
-54,
-54,
-51,
-51,
-45,
-45,
-40,
-26,
-27,
-27,
-22,
-11,
-13,
-1,
-2,
11,
11,
22,
19,
32,
32,
32,
40,
40,
43,
43,
52,
52,
54,
54,
59,
59,
59,
59,
57,
57,
57,
57,
50,
50,
44,
44,
36,
36,
29,
17,
18,
18,
9,
9,
-1,
-1,
-11,
-22,
-22,
-33,
-31,
-42,
-40,
-40,
-47,
-47,
-51,
-51,
-54,
-54,
-56,
-56,
-56,
-56,
-53,
-53,
-48,
-48,
-44,
-44,
-38,
-25,
-26,
-26,
-18,
-18,
-10,
2,
-1,
13,
13,
13,
20,
32,
28,
41,
37,
49,
48,
48,
52,
52,
56,
56,
59,
59,
56,
56,
56,
56,
55,
55,
50,
50,
44,
44,
34,
34,
27,
14,
14,
0,
2,
2,
-6,
-18,
-15,
-26,
-24,
-35,
-35,
-35,
-42,
-42,
-49,
-49,
-54,
-54,
-56,
-56,
-54,
-54,
-53,
-53,
-52,
-52,
-46,
-46,
-42,
-42,
-38,
-21,
-22,
-22,
-15,
-4,
-5,
-5,
2,
16,
13,
26,
23,
38,
35,
35,
44,
44,
49,
49,
55,
55,
55,
55,
60,
60,
61,
61,
59,
59,
53,
53,
46,
46,
40,
40,
30,
18,
18,
7,
8,
8,
4,
-9,
-8,
-21,
-20,
-20,
-25,
-37,
-36,
-36,
-44,
-44,
-49,
-49,
-52,
-52,
-54,
-54,
-58,
-58,
-54,
-54,
-49,
-49,
-45,
-45,
-41,
-30,
-30,
-30,
-24,
-24,
-16,
-3,
-3,
8,
7,
19,
18,
18,
26,
38,
37,
37,
44,
44,
53,
53,
54,
54,
59,
59,
57,
57,
61,
61,
55,
55,
49,
49,
46,
46,
38,
27,
29,
16,
20,
9,
10,
-2,
1,
-11,
-10,
-21,
-21,
-34,
-34,
-34,
-35,
-47,
-45,
-45,
-51,
-51,
-53,
-53,
-56,
-56,
-55,
-55,
-58,
-58,
-49,
-49,
-45,
-45,
-38,
-26,
-28,
-28,
-19,
-19,
-12,
0,
-1,
12,
12,
12,
18,
31,
30,
42,
41,
41,
44,
44,
51,
51,
54,
54,
55,
55,
61,
61,
59,
59,
54,
54,
50,
50,
42,
42,
35,
35,
29,
15,
16,
5,
8,
-8,
-8,
-8,
-11,
-29,
-25,
-36,
-34,
-34,
-41,
-41,
-47,
-47,
-54,
-54,
-53,
-53,
-56,
-56,
-56,
-56,
-56,
-56,
-49,
-49,
-43,
-43,
-37,
-26,
-26,
-13,
-14,
-14,
-8,
5,
5,
5,
12,
23,
21,
33,
31,
31,
40,
40,
48,
48,
53,
53,
56,
56,
58,
58,
58,
58,
55,
55,
54,
54,
46,
46,
40,
40,
31,
19,
19,
19,
12,
12,
4,
-9,
-8,
-19,
-18,
-29,
-23,
-38,
-37,
-37,
-42,
-42,
-51,
-51,
-53,
-53,
-56,
-56,
-55,
-55,
-56,
-56,
-51,
-51,
-46,
-46,
-41,
-41,
-33,
-22,
-26,
-12,
-12,
-12,
-8,
8,
7,
7,
15,
30,
30,
30,
36,
47,
46,
46,
51,
51,
52,
52,
58,
58,
60,
60,
57,
57,
57,
57,
50,
50,
48,
35,
39,
39,
32,
32,
23,
7,
8,
8,
-2,
-2,
-9,
-9,
-19,
-19,
-26,
-38,
-38,
-38,
-45,
-45,
-51,
-51,
-56,
-56,
-57,
-57,
-55,
-55,
-54,
-54,
-53,
-42,
-46,
-46,
-42,
-28,
-30,
-30,
-22,
-22,
-13,
-1,
-2,
11,
10,
10,
19,
30,
29,
29,
36,
47,
46,
46,
51,
51,
58,
58,
56,
56,
60,
60,
58,
58,
55,
55,
51,
51,
47,
34,
36,
36,
27,
27,
19,
5,
6,
-5,
-4,
-4,
-9,
-23,
-20,
-33,
-32,
-32,
-39,
-39,
-45,
-45,
-54,
-54,
-53,
-53,
-60,
-60,
-54,
-54,
-54,
-54,
-50,
-50,
-45,
-45,
-38,
-38,
-30,
-16,
-17,
-17,
-8,
4,
1,
14,
13,
24,
23,
23,
32,
32,
40,
40,
46,
46,
53,
53,
57,
57,
57,
57,
58,
58,
56,
56,
54,
54,
48,
48,
44,
44,
35,
35,
27,
16,
16,
16,
6,
-5,
-5,
-19,
-16,
-28,
-25,
-37,
-37,
-37,
-42,
-42,
-46,
-46,
-50,
-50,
-54,
-54,
-59,
-59,
-54,
-54,
-53,
-53,
-47,
-47,
-42,
-42,
-36,
-24,
-25,
-25,
-16,
-16,
-7,
6,
2,
18,
15,
27,
27,
39,
38,
38,
44,
44,
49,
49,
57,
57,
60,
60,
59,
59,
59,
59,
57,
57,
52,
52,
48,
48,
39,
39,
31,
19,
20,
9,
13,
2,
3,
-8,
-6,
-19,
-19,
-30,
-29,
-29,
-33,
-46,
-43,
-43,
-49,
-49,
-55,
-55,
-57,
-57,
-55,
-55,
-54,
-54,
-53,
-53,
-45,
-45,
-41,
-41,
-33,
-33,
-24,
-12,
-13,
-1,
-1,
-1,
8,
8,
16,
29,
28,
39,
36,
36,
43,
54,
52,
52,
55,
55,
56,
56,
58,
58,
56,
56,
57,
57,
54,
43,
44,
44,
36,
36,
29,
29,
20,
8,
10,
-5,
-1,
-1,
-10,
-24,
-22,
-33,
-32,
-32,
-36,
-48,
-45,
-45,
-51,
-51,
-54,
-54,
-56,
-56,
-54,
-54,
-55,
-55,
-51,
-51,
-46,
-46,
-37,
-37,
-32,
-17,
-22,
-11,
-12,
1,
0,
12,
12,
24,
23,
23,
29,
40,
38,
38,
42,
53,
52,
52,
56,
56,
56,
56,
60,
60,
59,
59,
55,
55,
51,
51,
47,
35,
36,
36,
29,
15,
18,
6,
6,
6,
-1,
-14,
-14,
-14,
-24,
-24,
-30,
-41,
-38,
-38,
-48,
-48,
-53,
-53,
-54,
-54,
-57,
-57,
-56,
-56,
-55,
-55,
-48,
-48,
-44,
-44,
-36,
-23,
-23,
-23,
-15,
-15,
-8,
4,
2,
15,
10,
25,
25,
25,
31,
42,
40,
40,
44,
44,
52,
52,
56,
56,
57,
57,
60,
60,
56,
56,
53,
53,
48,
48,
44,
32,
33,
33,
26,
14,
19,
0,
2,
-9,
-8,
-8,
-14,
-26,
-25,
-36,
-36,
-36,
-44,
-44,
-48,
-48,
-54,
-54,
-56,
-56,
-57,
-57,
-55,
-55,
-53,
-53,
-52,
-39,
-40,
-40,
-36,
-24,
-25,
-13,
-14,
-14,
-8,
6,
3,
16,
15,
15,
23,
38,
38,
38,
42,
42,
50,
50,
55,
55,
59,
59,
59,
59,
58,
58,
58,
58,
51,
51,
48,
36,
37,
37,
31,
31,
23,
9,
10,
-1,
0,
0,
-8,
-20,
-16,
-31,
-27,
-41,
-39,
-39,
-42,
-42,
-50,
-50,
-54,
-54,
-56,
-56,
-57,
-57,
-55,
-55,
-52,
-52,
-48,
-48,
-41,
-30,
-32,
-32,
-23,
-11,
-12,
-1,
-5,
9,
5,
18,
15,
28,
25,
38,
35,
35,
44,
44,
48,
48,
56,
56,
57,
57,
59,
59,
56,
56,
58,
58,
49,
49,
44,
44,
40,
27,
31,
20,
21,
9,
10,
-4,
-2,
-14,
-12,
-24,
-23,
-35,
-30,
-42,
-40,
-40,
-46,
-46,
-49,
-49,
-54,
-54,
-57,
-57,
-56,
-56,
-54,
-54,
-50,
-50,
-44,
-44,
-38,
-38,
-30,
-30,
-21,
-9,
-10,
4,
3,
3,
10,
21,
20,
32,
28,
41,
40,
40,
47,
47,
52,
52,
57,
57,
58,
58,
59,
59,
58,
58,
57,
57,
48,
48,
43,
32,
32,
32,
28,
14,
16,
4,
6,
-8,
-8,
-8,
-14,
-26,
-23,
-37,
-37,
-37,
-42,
-42,
-47,
-47,
-53,
-53,
-53,
-53,
-59,
-59,
-56,
-56,
-54,
-54,
-49,
-49,
-43,
-43,
-36,
-23,
-25,
-14,
-17,
-17,
-8,
3,
3,
15,
15,
15,
25,
25,
29,
42,
42,
42,
47,
47,
54,
54,
56,
56,
60,
60,
59,
59,
58,
58,
53,
53,
46,
46,
39,
39,
30,
19,
24,
10,
12,
1,
4,
-9,
-8,
-8,
-16,
-16,
-25,
-39,
-37,
-37,
-42,
-42,
-51,
-51,
-50,
-50,
-56,
-56,
-57,
-57,
-55,
-55,
-49,
-49,
-47,
-47,
-41,
-41,
-33,
-21,
-22,
-22,
-15,
-4,
-4,
-4,
3,
16,
16,
16,
26,
38,
35,
46,
43,
43,
51,
51,
56,
56,
56,
56,
58,
58,
60,
60,
56,
56,
53,
53,
46,
46,
40,
40,
30,
30,
21,
10,
11,
-3,
-1,
-1,
-9,
-9,
-19,
-30,
-29,
-29,
-39,
-39,
-43,
-43,
-49,
-49,
-56,
-56,
-57,
-57,
-58,
-58,
-53,
-53,
-48,
-48,
-42,
-42,
-39,
-28,
-28,
-28,
-21,
-21,
-13,
-1,
-1,
-1,
8,
21,
20,
20,
28,
40,
38,
38,
46,
46,
50,
50,
56,
56,
60,
60,
59,
59,
56,
56,
58,
58,
51,
51,
43,
43,
36,
36,
30,
15,
16,
16,
8,
-3,
-2,
-16,
-16,
-27,
-22,
-35,
-32,
-43,
-41,
-41,
-45,
-45,
-50,
-50,
-54,
-54,
-55,
-55,
-56,
-56,
-52,
-52,
-52,
-52,
-43,
-43,
-38,
-38,
-30,
-18,
-19,
-19,
-9,
2,
-1,
13,
11,
22,
19,
33,
29,
29,
39,
39,
46,
46,
51,
51,
58,
58,
58,
58,
59,
59,
57,
57,
52,
52,
49,
49,
40,
40,
35,
24,
27,
15,
17,
5,
5,
-6,
-5,
-18,
-18,
-18,
-25,
-25,
-34,
-46,
-42,
-42,
-50,
-50,
-52,
-52,
-57,
-57,
-57,
-57,
-56,
-56,
-53,
-53,
-47,
-47,
-41,
-41,
-36,
-25,
-26,
-15,
-16,
-5,
-6,
6,
5,
5,
12,
26,
23,
37,
35,
35,
44,
44,
49,
49,
51,
51,
58,
58,
59,
59,
60,
60,
56,
56,
52,
52,
45,
45,
40,
40,
34,
18,
22,
9,
10,
10,
2,
-9,
-8,
-22,
-19,
-30,
-24,
-38,
-37,
-48,
-44,
-44,
-51,
-51,
-52,
-52,
-56,
-56,
-53,
-53,
-53,
-53,
-49,
-49,
-45,
-45,
-42,
-42,
-33,
-21,
-22,
-22,
-16,
-16,
-7,
6,
3,
19,
18,
29,
29,
29,
33,
33,
42,
53,
50,
50,
52,
52,
57,
57,
59,
59,
58,
58,
57,
57,
48,
48,
46,
46,
38,
38,
32,
20,
21,
9,
12,
-3,
-2,
-16,
-15,
-15,
-21,
-34,
-31,
-31,
-41,
-41,
-41,
-54,
-54,
-54,
-54,
-54,
-55,
-55,
-54,
-54,
-54,
-54,
-50,
-50,
-45,
-45,
-37,
-37,
-32,
-16,
-17,
-17,
-11,
0,
-1,
11,
11,
11,
21,
32,
29,
42,
41,
41,
48,
48,
50,
50,
57,
57,
58,
58,
59,
59,
59,
59,
55,
55,
51,
51,
42,
42,
38,
24,
25,
25,
19,
4,
10,
-4,
-2,
-2,
-10,
-25,
-23,
-34,
-32,
-32,
-38,
-50,
-46,
-46,
-54,
-54,
-56,
-56,
-58,
-58,
-53,
-53,
-53,
