Data/Output/LOG0000/DS0116.CSV

Memory Length,4000,
Trigger Level,-1.20000e+02,
Source,CH2,
Probe,1.0X,
Vertical Units,V,
Vertical Scale,1.00000e+00,
Vertical Position,0.00000e+00,
Horizontal Units,S,
Horizontal Scale,1.00000e-02,
Horizontal Position,0.0000000e+00,
Horizontal Mode,Main,
Sampling Period,4.00000e-05,
Firmware,V1.14,
Time, ,
Mode,Fast,
Waveform Data,
-9,
-9,
-23,
-22,
-33,
-33,
-33,
-39,
-50,
-47,
-47,
-50,
-50,
-56,
-56,
-56,
-56,
-57,
-57,
-52,
-52,
-53,
-53,
-46,
-46,
-38,
-38,
-32,
-20,
-22,
-22,
-12,
-1,
-3,
9,
6,
20,
20,
20,
29,
29,
35,
46,
43,
43,
51,
51,
54,
54,
55,
55,
59,
59,
58,
58,
54,
54,
48,
48,
44,
44,
39,
27,
30,
18,
18,
18,
8,
8,
-2,
-2,
-9,
-24,
-22,
-33,
-30,
-30,
-38,
-38,
-45,
-45,
-52,
-52,
-52,
-52,
-60,
-60,
-56,
-56,
-55,
-55,
-54,
-54,
-48,
-36,
-37,
-37,
-30,
-30,
-25,
-11,
-16,
-1,
-4,
10,
10,
10,
19,
19,
26,
37,
35,
46,
45,
45,
53,
53,
58,
58,
59,
59,
58,
58,
59,
59,
57,
57,
52,
52,
47,
36,
40,
29,
31,
31,
21,
7,
7,
-4,
-3,
-3,
-10,
-21,
-19,
-33,
-32,
-32,
-37,
-37,
-46,
-46,
-51,
-51,
-54,
-54,
-56,
-56,
-56,
-56,
-54,
-54,
-52,
-52,
-45,
-45,
-38,
-38,
-34,
-22,
-23,
-12,
-15,
-3,
-3,
-3,
4,
16,
14,
29,
28,
39,
35,
35,
44,
44,
50,
50,
56,
56,
57,
57,
60,
60,
57,
57,
57,
57,
51,
51,
47,
47,
40,
40,
32,
32,
24,
11,
14,
2,
5,
-9,
-6,
-23,
-22,
-22,
-27,
-40,
-38,
-38,
-42,
-42,
-48,
-48,
-54,
-54,
-54,
-54,
-55,
-55,
-56,
-56,
-53,
-53,
-50,
-38,
-38,
-38,
-31,
-31,
-24,
-12,
-14,
-14,
-4,
8,
8,
8,
12,
26,
26,
26,
34,
45,
43,
43,
50,
50,
52,
52,
55,
55,
59,
59,
59,
59,
58,
58,
55,
55,
45,
45,
42,
31,
33,
22,
22,
22,
15,
3,
4,
-7,
-7,
-7,
-14,
-28,
-24,
-38,
-37,
-37,
-46,
-46,
-48,
-48,
-51,
-51,
-56,
-56,
-57,
-57,
-55,
-55,
-52,
-52,
-48,
-48,
-40,
-40,
-33,
-33,
-24,
-11,
-11,
-11,
-7,
7,
6,
6,
16,
16,
22,
34,
31,
42,
40,
40,
48,
48,
50,
50,
55,
55,
60,
60,
57,
57,
56,
56,
52,
52,
47,
47,
43,
43,
33,
33,
24,
24,
14,
3,
6,
-9,
-8,
-8,
-16,
-16,
-25,
-37,
-35,
-35,
-42,
-42,
-48,
-48,
-52,
-52,
-56,
-56,
-54,
-54,
-56,
-56,
-53,
-53,
-49,
-38,
-41,
-41,
-37,
-37,
-29,
-14,
-17,
-17,
-8,
6,
5,
5,
11,
24,
23,
35,
35,
35,
43,
43,
50,
50,
51,
51,
57,
57,
58,
58,
58,
58,
56,
56,
53,
53,
48,
48,
43,
43,
36,
22,
23,
11,
12,
12,
4,
-7,
-7,
-18,
-16,
-28,
-23,
-34,
-32,
-32,
-41,
-41,
-46,
-46,
-53,
-53,
-54,
-54,
-59,
-59,
-55,
-55,
-53,
-53,
-49,
-49,
-44,
-44,
-38,
-25,
-29,
-16,
-17,
-17,
-10,
3,
1,
13,
13,
24,
21,
33,
31,
42,
40,
40,
47,
47,
54,
54,
58,
58,
61,
61,
61,
61,
57,
57,
55,
55,
50,
50,
41,
41,
35,
35,
26,
12,
13,
13,
10,
-5,
-1,
-15,
-15,
-15,
-21,
-37,
-35,
-35,
-39,
-39,
-47,
-47,
-54,
-54,
-58,
-58,
-57,
-57,
-55,
-55,
-55,
-55,
-52,
-52,
-44,
-44,
-37,
-37,
-29,
-17,
-18,
-18,
-12,
0,
-1,
12,
10,
22,
20,
32,
29,
41,
38,
38,
46,
46,
48,
48,
57,
57,
59,
59,
56,
56,
55,
55,
56,
56,
50,
50,
44,
44,
35,
35,
27,
27,
18,
7,
7,
-5,
-4,
-4,
-9,
-26,
-26,
-26,
-35,
-35,
-41,
-41,
-45,
-45,
-50,
-50,
-54,
-54,
-58,
-58,
-58,
-58,
-56,
-56,
-53,
-42,
-42,
-42,
-40,
-29,
-33,
-17,
-20,
-9,
-9,
2,
0,
0,
8,
21,
21,
21,
27,
39,
36,
49,
48,
48,
54,
54,
53,
53,
56,
56,
56,
56,
57,
57,
55,
55,
52,
52,
44,
32,
34,
34,
28,
16,
17,
17,
10,
-6,
-4,
-4,
-9,
-22,
-20,
-34,
-32,
-32,
-38,
-38,
-45,
-45,
-51,
-51,
-56,
-56,
-57,
-57,
-58,
-58,
-55,
-55,
-49,
-49,
-44,
-44,
-40,
-29,
-30,
-18,
-22,
-10,
-10,
-10,
-3,
10,
10,
23,
22,
22,
28,
40,
39,
39,
44,
44,
51,
51,
55,
55,
56,
56,
61,
61,
56,
56,
54,
54,
53,
42,
45,
45,
39,
39,
32,
16,
18,
18,
8,
8,
2,
-9,
-9,
-20,
-19,
-33,
-32,
-32,
-38,
-38,
-45,
-45,
-48,
-48,
-51,
-51,
-56,
-56,
-56,
-56,
-55,
-55,
-51,
-51,
-46,
-46,
-39,
-39,
-30,
-30,
-25,
-12,
-13,
2,
0,
0,
7,
19,
16,
27,
26,
38,
33,
45,
45,
45,
51,
51,
56,
56,
59,
59,
59,
59,
59,
59,
54,
54,
54,
54,
45,
34,
36,
36,
31,
18,
19,
7,
8,
8,
4,
-9,
-8,
-19,
-18,
-32,
-27,
-38,
-38,
-38,
-44,
-44,
-51,
-51,
-53,
-53,
-57,
-57,
-56,
-56,
-55,
-55,
-52,
-52,
-46,
-46,
-43,
-31,
-32,
-21,
-22,
-10,
-10,
-10,
-6,
9,
8,
8,
16,
29,
29,
29,
34,
46,
44,
44,
50,
50,
54,
54,
58,
58,
58,
58,
61,
61,
59,
59,
51,
51,
48,
48,
42,
31,
33,
20,
21,
10,
12,
0,
3,
-9,
-9,
-22,
-22,
-22,
-31,
-31,
-37,
-37,
-43,
-43,
-50,
-50,
-52,
-52,
-57,
-57,
-56,
-56,
-54,
-54,
-51,
-51,
-46,
-46,
-42,
-42,
-36,
-22,
-24,
-24,
-16,
-5,
-5,
11,
10,
10,
18,
29,
27,
38,
36,
36,
44,
44,
48,
48,
53,
53,
55,
55,
59,
59,
59,
59,
56,
56,
51,
51,
50,
36,
41,
28,
33,
21,
21,
21,
15,
0,
1,
1,
-9,
-9,
-17,
-29,
-27,
-27,
-34,
-34,
-41,
-41,
-46,
-46,
-54,
-54,
-57,
-57,
-56,
-56,
-55,
-55,
-54,
-54,
-48,
-48,
-42,
-42,
-37,
-22,
-25,
-13,
-18,
-7,
-8,
7,
2,
16,
15,
15,
23,
36,
32,
43,
40,
40,
48,
48,
53,
53,
57,
57,
59,
59,
60,
60,
58,
58,
52,
52,
48,
48,
43,
31,
34,
20,
22,
22,
16,
0,
4,
-8,
-5,
-17,
-16,
-16,
-26,
-26,
-34,
-34,
-44,
-44,
-50,
-50,
-54,
-54,
-56,
-56,
-54,
-54,
-55,
-55,
-52,
-52,
-47,
-47,
-43,
-43,
-37,
-25,
-28,
-14,
-18,
-7,
-9,
3,
2,
17,
16,
16,
22,
22,
28,
42,
40,
40,
50,
50,
52,
52,
57,
57,
58,
58,
59,
59,
58,
58,
57,
46,
47,
47,
40,
40,
34,
34,
25,
25,
15,
4,
8,
-6,
-6,
-6,
-16,
-16,
-22,
-36,
-32,
-32,
-42,
-42,
-48,
-48,
-51,
-51,
-55,
-55,
-57,
-57,
-55,
-55,
-55,
-55,
-51,
-51,
-44,
-44,
-37,
-25,
-26,
-26,
-16,
-16,
-8,
4,
0,
13,
10,
23,
20,
32,
31,
42,
41,
41,
45,
45,
50,
50,
57,
57,
58,
58,
56,
56,
56,
56,
54,
54,
49,
49,
44,
32,
34,
22,
28,
16,
16,
16,
6,
-6,
-6,
-18,
-16,
-16,
-23,
-23,
-30,
-43,
-43,
-43,
-49,
-49,
-52,
-52,
-54,
-54,
-55,
-55,
-57,
-57,
-52,
-52,
-49,
-49,
-43,
-43,
-36,
-36,
-27,
-27,
-18,
-18,
-12,
4,
2,
15,
11,
24,
20,
31,
28,
42,
37,
37,
44,
44,
51,
51,
56,
56,
59,
59,
57,
57,
59,
59,
54,
54,
48,
48,
41,
41,
36,
36,
28,
28,
19,
4,
4,
4,
-1,
-1,
-9,
-22,
-21,
-34,
-30,
-43,
-41,
-41,
-43,
-54,
-49,
-49,
-54,
-54,
-56,
-56,
-56,
-56,
-56,
-56,
-50,
-50,
-47,
-36,
-36,
-36,
-29,
-29,
-21,
-10,
-10,
1,
-1,
10,
8,
20,
20,
32,
29,
29,
35,
49,
44,
44,
53,
53,
54,
54,
57,
57,
60,
60,
58,
58,
54,
54,
50,
50,
43,
43,
40,
26,
27,
27,
20,
6,
6,
-5,
-1,
-1,
-8,
-21,
-21,
-32,
-28,
-42,
-40,
-40,
-46,
-46,
-50,
-50,
-56,
-56,
-57,
-57,
-57,
-57,
-57,
-57,
-51,
-51,
-45,
-45,
-39,
-39,
-31,
-31,
-22,
-11,
-12,
-12,
-3,
9,
8,
8,
17,
17,
26,
38,
36,
36,
43,
43,
50,
50,
55,
55,
60,
60,
58,
58,
58,
58,
56,
56,
51,
51,
43,
43,
35,
35,
30,
30,
21,
6,
8,
-3,
-2,
-2,
-8,
-21,
-16,
-30,
-30,
-30,
-38,
-38,
-41,
-53,
-48,
-48,
-56,
-56,
-56,
-56,
-55,
-55,
-54,
-54,
-50,
-50,
-46,
-46,
-41,
-30,
-31,
-31,
-24,
-12,
-15,
-2,
-6,
9,
7,
21,
19,
30,
29,
29,
36,
36,
43,
43,
49,
49,
56,
56,
58,
58,
58,
58,
59,
59,
53,
53,
49,
49,
46,
46,
40,
40,
30,
30,
24,
6,
7,
7,
1,
-10,
-9,
-20,
-20,
-20,
-30,
-30,
-35,
-46,
-43,
-43,
-50,
-50,
-57,
-57,
-56,
-56,
-57,
-57,
-55,
-55,
-52,
-52,
-49,
-49,
-41,
-30,
-32,
-32,
-22,
-11,
-15,
0,
-3,
10,
10,
10,
17,
17,
26,
26,
35,
35,
41,
41,
47,
47,
54,
54,
55,
55,
59,
59,
56,
56,
55,
55,
50,
50,
44,
44,
38,
38,
32,
32,
23,
12,
14,
14,
4,
-8,
-5,
-21,
-16,
-29,
-29,
-29,
-35,
-35,
-41,
-41,
-50,
-50,
-54,
-54,
-54,
-54,
-55,
-55,
-52,
-52,
-53,
-53,
-47,
-47,
-40,
-40,
-33,
-33,
-26,
-14,
-17,
-4,
-5,
6,
5,
17,
16,
27,
27,
27,
33,
44,
43,
43,
48,
48,
52,
52,
56,
56,
57,
57,
58,
58,
56,
56,
55,
55,
47,
47,
40,
40,
32,
20,
20,
20,
12,
12,
4,
4,
-5,
-18,
-17,
-17,
-24,
-37,
-36,
-36,
-46,
-46,
-50,
-50,
-54,
-54,
-57,
-57,
-54,
-54,
-58,
-58,
-55,
-55,
-48,
-48,
-42,
-42,
-36,
-24,
-27,
-16,
-18,
-7,
-10,
4,
0,
18,
17,
17,
21,
36,
34,
34,
42,
42,
45,
45,
54,
54,
60,
60,
57,
57,
59,
59,
57,
57,
53,
53,
46,
46,
42,
31,
34,
34,
24,
12,
14,
1,
4,
-9,
-9,
-9,
-15,
-15,
-24,
-35,
-34,
-34,
-39,
-52,
-48,
-48,
-52,
-52,
-56,
-56,
-57,
-57,
-57,
-57,
-50,
-50,
-49,
-49,
-43,
-43,
-38,
-23,
-24,
-24,
-14,
-14,
-9,
3,
3,
16,
13,
24,
23,
23,
32,
44,
44,
44,
47,
47,
53,
53,
57,
57,
56,
56,
56,
56,
54,
54,
50,
50,
49,
38,
38,
38,
33,
22,
23,
23,
13,
13,
8,
-6,
-5,
-17,
-14,
-28,
-25,
-25,
-34,
-46,
-43,
-43,
-48,
-48,
-49,
-49,
-54,
-54,
-59,
-59,
-54,
-54,
-56,
-56,
-50,
-50,
-43,
-43,
-37,
-37,
-28,
-28,
-20,
-8,
-8,
3,
3,
3,
12,
12,
20,
31,
29,
40,
38,
38,
47,
47,
53,
53,
56,
56,
60,
60,
60,
60,
59,
59,
57,
46,
48,
48,
44,
31,
34,
34,
28,
28,
18,
4,
6,
-6,
-4,
-4,
-12,
-26,
-26,
-26,
-35,
-35,
-42,
-42,
-46,
-46,
-52,
-52,
-53,
-53,
-56,
-56,
-57,
-57,
-54,
-54,
-51,
-51,
-45,
-45,
-38,
-25,
-29,
-17,
-18,
-18,
-10,
4,
3,
3,
10,
21,
18,
32,
30,
41,
41,
41,
44,
44,
52,
52,
56,
56,
60,
60,
56,
56,
57,
57,
53,
53,
53,
53,
47,
35,
35,
35,
28,
17,
17,
5,
8,
-4,
-2,
-17,
-14,
-14,
-23,
-35,
-29,
-42,
-42,
-42,
-49,
-49,
-51,
-51,
-54,
-54,
-55,
-55,
-55,
-55,
-53,
-53,
-50,
-50,
-48,
-37,
-38,
-38,
-30,
-19,
-20,
-9,
-14,
0,
-3,
12,
12,
12,
19,
32,
31,
31,
39,
39,
42,
42,
52,
52,
55,
55,
58,
58,
58,
58,
60,
60,
54,
54,
51,
51,
47,
36,
36,
36,
29,
16,
18,
7,
10,
-4,
-3,
-15,
-13,
-25,
-25,
-25,
-33,
-33,
-40,
-40,
-46,
-46,
-52,
-52,
-54,
-54,
-58,
-58,
-55,
-55,
-53,
-53,
-52,
-52,
-46,
-46,
-38,
-27,
-29,
-18,
-19,
-19,
-13,
0,
-2,
10,
8,
21,
19,
19,
26,
39,
36,
36,
43,
43,
52,
52,
57,
57,
57,
57,
59,
59,
60,
60,
54,
54,
50,
50,
45,
45,
39,
28,
30,
19,
20,
8,
8,
8,
3,
-9,
-9,
-23,
-20,
-32,
-29,
-41,
-40,
-40,
-44,
-44,
-50,
-50,
-55,
-55,
-54,
-54,
-55,
-55,
-55,
-55,
-52,
-52,
-47,
-47,
-40,
-40,
-32,
-20,
-22,
-10,
-10,
-10,
-2,
13,
12,
12,
21,
21,
25,
37,
37,
37,
44,
44,
48,
48,
54,
54,
57,
57,
57,
57,
60,
60,
57,
57,
50,
50,
47,
36,
36,
36,
33,
19,
21,
10,
11,
-2,
-2,
-2,
-8,
-21,
-20,
-20,
-26,
-38,
-37,
-48,
-46,
-46,
-50,
-50,
-54,
-54,
-55,
-55,
-57,
-57,
-54,
-54,
-51,
-51,
-46,
-46,
-41,
-41,
-33,
-33,
-26,
-14,
-15,
-15,
-7,
6,
6,
6,
15,
15,
24,
24,
34,
34,
42,
42,
48,
48,
53,
53,
56,
56,
59,
59,
57,
57,
57,
57,
52,
52,
44,
44,
37,
37,
31,
31,
24,
10,
13,
0,
0,
0,
-8,
-20,
-20,
-20,
-28,
-28,
-37,
-37,
-42,
-42,
-48,
-48,
-54,
-54,
-57,
-57,
-55,
-55,
-56,
-56,
-53,
-53,
-46,
-46,
-43,
-43,
-36,
-20,
-21,
-21,
-12,
-12,
-9,
4,
3,
16,
15,
28,
27,
27,
34,
34,
42,
42,
46,
46,
54,
54,
58,
58,
59,
59,
60,
60,
54,
54,
54,
54,
48,
48,
40,
40,
35,
20,
24,
11,
15,
3,
4,
-9,
-9,
-20,
-19,
-30,
-29,
-29,
-36,
-47,
-46,
-46,
-49,
-49,
-54,
-54,
-56,
-56,
-55,
-55,
-57,
-57,
-51,
-51,
-48,
-48,
-44,
-31,
-34,
-22,
-24,
-24,
-17,
-17,
-8,
4,
2,
15,
15,
15,
21,
32,
32,
43,
42,
42,
46,
46,
55,
55,
58,
58,
61,
61,
56,
56,
58,
58,
52,
52,
52,
41,
41,
41,
34,
34,
26,
15,
18,
4,
8,
-6,
-5,
-5,
-14,
-26,
-24,
-37,
-36,
-36,
-41,
-41,
-50,
-50,
-52,
-52,
-57,
-57,
-56,
-56,
-55,
-55,
-53,
-53,
-51,
-51,
-45,
-34,
-38,
-25,
-25,
-25,
-17,
-17,
-8,
7,
5,
5,
13,
25,
25,
25,
28,
41,
41,
41,
47,
47,
52,
52,
58,
58,
59,
59,
56,
56,
58,
58,
53,
53,
51,
40,
44,
33,
34,
34,
27,
16,
16,
3,
7,
-5,
-5,
-5,
-14,
-26,
-25,
-25,
-31,
-42,
-38,
-38,
-47,
-47,
-53,
-53,
-55,
-55,
-54,
-54,
-57,
-57,
-53,
-53,
-50,
-50,
-41,
-41,
-37,
-25,
-26,
-26,
-17,
-17,
-8,
4,
4,
4,
12,
24,
23,
23,
31,
31,
35,
46,
46,
46,
52,
52,
56,
56,
57,
57,
57,
57,
60,
60,
54,
54,
47,
47,
41,
41,
36,
36,
27,
27,
17,
17,
9,
-4,
-4,
-4,
-14,
-28,
-26,
-26,
-32,
-32,
-40,
-40,
-47,
-47,
-53,
-53,
-54,
-54,
-55,
-55,
-56,
-56,
-51,
-51,
-50,
-50,
-43,
-43,
-36,
-25,
-26,
-26,
-22,
-11,
-12,
4,
1,
15,
13,
25,
25,
25,
27,
39,
36,
48,
48,
48,
54,
54,
57,
57,
57,
57,
58,
58,
59,
59,
52,
52,
49,
49,
43,
43,
38,
26,
31,
18,
21,
4,
4,
-8,
-5,
-17,
-12,
-25,
-25,
-25,
-31,
-31,
-37,
-48,
-44,
-44,
-53,
-53,
-55,
-55,
-58,
-58,
-55,
-55,
-56,
-56,
-50,
-50,
-46,
-35,
-38,
-38,
-32,
-21,
-22,
-11,
-12,
0,
0,
0,
9,
20,
19,
30,
28,
39,
36,
36,
43,
43,
51,
51,
56,
56,
57,
57,
59,
59,
57,
57,
55,
55,
50,
50,
45,
45,
39,
26,
27,
27,
18,
6,
7,
-6,
-5,
-5,
-9,
-22,
-18,
-32,
-30,
-30,
-37,
-49,
-46,
-46,
-50,
-50,
-56,
-56,
-57,
-57,
-57,
-57,
-56,
-56,
-49,
-49,
-46,
-46,
-42,
-30,
-32,
-20,
-21,
-21,
-13,
1,
-1,
-1,
4,
18,
16,
30,
28,
28,
36,
36,
43,
43,
50,
50,
55,
55,
55,
55,
59,
59,
58,
58,
55,
55,
51,
51,
47,
47,
39,
39,
31,
19,
21,
21,
11,
-1,
3,
-9,
-9,
-22,
-19,
-30,
-30,
-41,
-40,
-40,
-47,
-47,
-50,
-50,
-54,
-54,
-54,
-54,
-57,
-57,
-55,
-55,
-53,
-53,
-46,
-46,
-40,
-29,
-29,
-29,
-26,
-13,
-16,
0,
-2,
-2,
8,
19,
16,
27,
24,
35,
35,
35,
42,
42,
47,
47,
55,
55,
59,
59,
56,
56,
58,
58,
54,
54,
51,
51,
47,
47,
42,
28,
29,
18,
18,
7,
11,
-3,
3,
-9,
-8,
-22,
-20,
-20,
-25,
-38,
-35,
-46,
-44,
-44,
-48,
-48,
-52,
-52,
-54,
-54,
-57,
-57,
-56,
-56,
-52,
-52,
-47,
-47,
-41,
-29,
-35,
-24,
-26,
-14,
-15,
-3,
-6,
8,
8,
8,
15,
27,
26,
37,
35,
35,
41,
53,
50,
50,
56,
56,
58,
58,
59,
59,
57,
57,
57,
57,
53,
53,
48,
48,
42,
29,
30,
30,
27,
13,
17,
-1,
1,
1,
-9,
-9,
-16,
-29,
-28,
-28,
-32,
-45,
-44,
-44,
-48,
-48,
-52,
-52,
-54,
-54,
-54,
-54,
-53,
-53,
-52,
-52,
-46,
-46,
-42,
-42,
-35,
-21,
-25,
-13,
-13,
-13,
-8,
6,
4,
19,
19,
19,
25,
25,
32,
32,
40,
40,
48,
48,
55,
55,
59,
59,
60,
60,
60,
60,
56,
56,
55,
55,
47,
47,
42,
30,
30,
19,
20,
20,
14,
2,
3,
-9,
-8,
-8,
-14,
-27,
-26,
-26,
-33,
-45,
-39,
-50,
-49,
-49,
-53,
-53,
-54,
-54,
-58,
-58,
-56,
-56,
-51,
-51,
-50,
-50,
-41,
-41,
-35,
-35,
-28,
-16,
-17,
-17,
-8,
7,
7,
7,
12,
26,
24,
35,
34,
34,
43,
43,
47,
47,
53,
53,
59,
59,
61,
61,
61,
61,
56,
56,
56,
56,
51,
51,
41,
41,
35,
35,
29,
14,
18,
2,
4,
4,
-4,
-17,
-15,
-26,
-26,
-37,
-37,
-37,
-44,
-44,
-47,
-47,
-50,
-50,
-54,
-54,
-57,
-57,
-58,
-58,
-52,
-52,
-48,
-48,
-41,
-41,
-36,
-36,
-28,
-17,
-19,
-7,
-8,
3,
2,
15,
14,
28,
27,
27,
33,
44,
40,
40,
49,
49,
54,
54,
54,
54,
59,
59,
58,
58,
59,
59,
54,
54,
50,
39,
43,
43,
37,
22,
26,
14,
16,
5,
5,
5,
-3,
-16,
-14,
-28,
-28,
-28,
-33,
-33,
-41,
-41,
-47,
-47,
-52,
-52,
-54,
-54,
-57,
-57,
-55,
-55,
-51,
-51,
-52,
-52,
-44,
-44,
-36,
-36,
-29,
-17,
-20,
-8,
-9,
2,
1,
1,
10,
23,
20,
32,
31,
31,
38,
50,
46,
46,
49,
49,
53,
53,
57,
57,
60,
60,
59,
59,
55,
55,
51,
51,
43,
43,
37,
37,
28,
16,
16,
3,
4,
4,
-4,
-16,
-14,
-26,
-22,
-33,
-33,
-33,
-40,
-40,
-44,
-44,
-51,
-51,
-55,
-55,
-59,
-59,
-57,
-57,
-52,
-52,
-49,
-49,
-43,
-43,
-38,
-26,
-29,
-29,
-21,
-10,
-10,
1,
-1,
14,
11,
22,
20,
32,
32,
32,
37,
37,
44,
44,
51,
51,
57,
57,
56,
56,
59,
59,
57,
57,
56,
56,
51,
51,
45,
33,
34,
34,
24,
24,
19,
8,
9,
-4,
-1,
-1,
-9,
-22,
-22,
-22,
-30,
-30,
-37,
-49,
-45,
-45,
-53,
-53,
-55,
-55,
-56,
-56,
-56,
-56,
-57,
-57,
-49,
-49,
-49,
-36,
-38,
-38,
-29,
-29,
-22,
-9,
-10,
2,
2,
2,
9,
21,
19,
19,
27,
27,
35,
46,
43,
54,
54,
54,
53,
53,
57,
57,
59,
59,
59,
59,
52,
52,
50,
50,
47,
36,
38,
38,
31,
16,
19,
5,
11,
-2,
-1,
-1,
-9,
-23,
-23,
-34,
-32,
-32,
-39,
-39,
-44,
-44,
-52,
-52,
-56,
-56,
-54,
-54,
-55,
-55,
-54,
-54,
-53,
-53,
-45,
-45,
-41,
-29,
-29,
-29,
-23,
-11,
-11,
-11,
-3,
-3,
4,
22,
19,
30,
29,
29,
37,
37,
44,
44,
50,
50,
53,
53,
56,
56,
56,
56,
60,
60,
54,
54,
53,
53,
44,
44,
38,
26,
26,
26,
18,
18,
14,
1,
4,
-9,
-9,
-21,
-18,
-30,
-29,
-29,
-36,
-36,
-45,
-45,
-51,
-51,
-52,
-52,
-57,
-57,
-55,
-55,
-54,
-54,
-52,
-52,
-48,
-48,
-41,
-30,
-32,
-32,
-25,
-13,
-13,
-13,
-8,
7,
6,
19,
17,
28,
26,
37,
36,
36,
44,
44,
48,
48,
53,
53,
58,
58,
58,
58,
58,
58,
58,
58,
52,
52,
44,
44,
39,
39,
30,
30,
23,
10,
11,
-1,
2,
-10,
-9,
-20,
-20,
-20,
-26,
-38,
-36,
-36,
-43,
-43,
-51,
-51,
-55,
-55,
-56,
-56,
-56,
-56,
-57,
-57,
-52,
-52,
-50,
-50,
-41,
-41,
-34,
-34,
-25,
-14,
-14,
-14,
-5,
7,
5,
17,
13,
27,
26,
26,
33,
33,
40,
40,
50,
50,
51,
51,
56,
56,
60,
60,
61,
61,
55,
55,
51,
51,
48,
48,
40,
40,
32,
18,
21,
21,
15,
1,
5,
-10,
-8,
-21,
-20,
-20,
-24,
-36,
-33,
-33,
-42,
-42,
-49,
-49,
-52,
-52,
-54,
-54,
-57,
-57,
-56,
-56,
-50,
-50,
-49,
-38,
-41,
-41,
-33,
-33,
-29,
-14,
-15,
-15,
-8,
5,
3,
16,
13,
25,
24,
38,
33,
33,
43,
43,
50,
50,
52,
52,
57,
57,
60,
60,
59,
59,
57,
57,
55,
44,
45,
45,
38,
38,
32,
21,
23,
23,
14,
14,
7,
-9,
-9,
-9,
-14,
-29,
-26,
-26,
-34,
-45,
-43,
-43,
-46,
-46,
-52,
-52,
-55,
-55,
-59,
-59,
-54,
-54,
-52,
-52,
-49,
-49,
-43,
-43,
-34,
-34,
-28,
-15,
-15,
-15,
-8,
5,
4,
17,
16,
27,
27,
27,
32,
32,
40,
40,
48,
48,
52,
52,
55,
55,
60,
60,
58,
58,
59,
59,
52,
52,
47,
47,
41,
41,
31,
31,
24,
24,
15,
4,
5,
-8,
-5,
-5,
-12,
-27,
-23,
-35,
-33,
-33,
-42,
-42,
-49,
-49,
-51,
-51,
-55,
-55,
-56,
-56,
-54,
-54,
-51,
-51,
-47,
-47,
-45,
-34,
-35,
-35,
-28,
-15,
-17,
-17,
-12,
3,
-1,
14,
12,
23,
22,
33,
33,
33,
40,
40,
48,
48,
53,
53,
57,
57,
57,
57,
57,
57,
56,
56,
54,
54,
50,
50,
45,
45,
35,
23,
24,
24,
18,
3,
4,
4,
-5,
-5,
-15,
-15,
-22,
-35,
-33,
-33,
-37,
-50,
-50,
-50,
-53,
-53,
-57,
-57,
-57,
-57,
-58,
-58,
-54,
-54,
-52,
-52,
-46,
-46,
-37,
-26,
-26,
-26,
-22,
-8,
-11,
1,
-1,
11,
8,
22,
18,
35,
35,
35,
35,
50,
45,
45,
51,
51,
53,
53,
59,
59,
60,
60,
56,
56,
52,
52,
48,
48,
44,
44,
36,
25,
27,
27,
20,
8,
8,
-5,
-5,
-5,
-14,
-25,
-24,
-24,
-32,
-32,
-37,
-48,
-48,
-48,
-50,
-50,
-54,
-54,
-56,
-56,
-57,
-57,
-55,
-55,
-50,
-50,
-44,
-44,
-37,
-37,
-32,
-20,
-22,
-8,
-9,
4,
3,
14,
14,
14,
21,
32,
29,
29,
38,
38,
45,
45,
54,
54,
55,
55,
59,
59,
59,
59,
58,
58,
52,
52,
48,
48,
42,
42,
39,
25,
25,
25,
19,
7,
8,
-6,
-6,
-6,
-10,
-23,
-22,
-33,
-30,
-42,
-39,
-39,
-46,
-46,
-53,
-53,
-55,
-55,
-55,
-55,
-55,
-55,
-56,
-56,
-49,
-49,
-49,
-49,
-42,
-30,
-30,
-18,
-19,
-19,
-12,
-12,
-3,
13,
13,
13,
18,
29,
28,
28,
34,
45,
43,
43,
48,
48,
55,
55,
60,
60,
59,
59,
60,
60,
56,
56,
52,
52,
47,
35,
36,
36,
30,
16,
16,
16,
11,
0,
0,
0,
-9,
-23,
-21,
-21,
-29,
-29,
-38,
-38,
-44,
-44,
-52,
-52,
-54,
-54,
-55,
-55,
-54,
-54,
-53,
-53,
-51,
-51,
-43,
-43,
-42,
-42,
-33,
-20,
-23,
-9,
-13,
-1,
-1,
-1,
9,
22,
18,
29,
28,
28,
35,
35,
44,
44,
52,
52,
55,
55,
58,
58,
60,
60,
58,
58,
56,
56,
51,
51,
45,
45,
43,
31,
32,
20,
22,
10,
10,
-1,
1,
-10,
-9,
-20,
-20,
-34,
-30,
-30,
-37,
-37,
-42,
-42,
-51,
-51,
-54,
-54,
-54,
-54,
-55,
-55,
-53,
-53,
-52,
-52,
-45,
-45,
-39,
-39,
-36,
-24,
-25,
-14,
-14,
-14,
-5,
7,
4,
18,
14,
30,
30,
30,
35,
35,
44,
44,
50,
50,
53,
53,
58,
58,
59,
59,
60,
60,
56,
56,
51,
51,
43,
43,
41,
30,
32,
32,
23,
11,
12,
-1,
2,
-9,
-8,
-21,
-18,
-31,
-29,
-40,
-39,
-39,
-47,
-47,
-50,
-50,
-53,
-53,
-57,
-57,
-58,
-58,
-55,
-55,
-52,
-52,
-46,
-46,
-45,
-33,
-35,
-24,
-25,
-9,
-9,
-9,
-2,
-2,
5,
5,
14,
27,
26,
26,
34,
34,
41,
41,
48,
48,
53,
53,
59,
59,
60,
60,
57,
57,
56,
56,
54,
54,
45,
45,
40,
40,
34,
23,
24,
11,
13,
