Data/Output/LOG0000/DS0105.CSV

Memory Length,4000,
Trigger Level,-1.20000e+02,
Source,CH2,
Probe,1.0X,
Vertical Units,V,
Vertical Scale,1.00000e+00,
Vertical Position,0.00000e+00,
Horizontal Units,S,
Horizontal Scale,1.00000e-02,
Horizontal Position,0.0000000e+00,
Horizontal Mode,Main,
Sampling Period,4.00000e-05,
Firmware,V1.14,
Time, ,
Mode,Fast,
Waveform Data,
27,
27,
39,
34,
46,
44,
44,
49,
49,
53,
53,
58,
58,
60,
60,
60,
60,
59,
59,
56,
56,
51,
51,
51,
40,
43,
43,
33,
33,
24,
24,
19,
7,
8,
8,
0,
0,
-9,
-23,
-18,
-29,
-27,
-27,
-35,
-35,
-42,
-42,
-49,
-49,
-50,
-50,
-56,
-56,
-56,
-56,
-56,
-56,
-53,
-53,
-54,
-54,
-50,
-50,
-46,
-46,
-39,
-39,
-31,
-31,
-22,
-22,
-13,
-13,
-6,
-6,
2,
2,
10,
10,
18,
30,
30,
30,
36,
36,
44,
44,
51,
51,
51,
51,
55,
55,
58,
58,
60,
60,
57,
57,
58,
58,
52,
52,
44,
44,
42,
30,
35,
23,
26,
14,
16,
16,
11,
11,
3,
-10,
-9,
-9,
-18,
-29,
-27,
-27,
-31,
-31,
-39,
-39,
-47,
-47,
-53,
-53,
-56,
-56,
-54,
-54,
-56,
-56,
-55,
-55,
-51,
-51,
-49,
-49,
-45,
-45,
-38,
-38,
-32,
-32,
-26,
-12,
-13,
-13,
-5,
6,
4,
4,
10,
21,
19,
30,
27,
27,
34,
45,
45,
45,
47,
47,
53,
53,
56,
56,
60,
60,
60,
60,
60,
60,
55,
55,
53,
53,
48,
48,
43,
43,
34,
34,
28,
17,
17,
17,
10,
-1,
2,
-9,
-7,
-18,
-18,
-18,
-26,
-37,
-35,
-35,
-42,
-42,
-49,
-49,
-51,
-51,
-52,
-52,
-57,
-57,
-55,
-55,
-56,
-56,
-53,
-53,
-49,
-49,
-43,
-43,
-42,
-42,
-35,
-23,
-26,
-15,
-20,
-7,
-8,
-8,
-2,
13,
12,
12,
20,
31,
27,
27,
34,
34,
42,
42,
48,
48,
51,
51,
57,
57,
56,
56,
59,
59,
58,
58,
57,
57,
52,
52,
49,
49,
42,
42,
35,
35,
29,
18,
22,
10,
11,
11,
3,
-9,
-6,
-17,
-16,
-16,
-24,
-35,
-32,
-32,
-40,
-40,
-45,
-45,
-49,
-49,
-54,
-54,
-54,
-54,
-54,
-54,
-57,
-57,
-54,
-54,
-49,
-49,
-43,
-43,
-38,
-38,
-34,
-34,
-26,
-15,
-19,
-7,
-9,
2,
2,
2,
11,
22,
22,
22,
30,
30,
35,
35,
41,
41,
47,
47,
54,
54,
56,
56,
58,
58,
55,
55,
60,
60,
55,
55,
52,
52,
46,
46,
45,
45,
38,
27,
28,
17,
20,
9,
10,
10,
4,
-8,
-5,
-18,
-17,
-17,
-26,
-26,
-33,
-33,
-38,
-49,
-43,
-43,
-51,
-51,
-53,
-53,
-55,
-55,
-55,
-55,
-58,
-58,
-57,
-57,
-50,
-50,
-46,
-46,
-38,
-38,
-31,
-31,
-27,
-14,
-14,
-14,
-10,
3,
2,
2,
10,
10,
17,
17,
26,
26,
34,
34,
41,
41,
47,
47,
53,
53,
55,
55,
58,
58,
56,
56,
59,
59,
57,
57,
54,
54,
51,
51,
42,
42,
34,
34,
29,
29,
21,
10,
10,
10,
4,
4,
-4,
-16,
-15,
-15,
-24,
-24,
-32,
-32,
-36,
-36,
-45,
-45,
-47,
-47,
-53,
-53,
-56,
-56,
-57,
-57,
-56,
-56,
-51,
-51,
-50,
-50,
-44,
-44,
-40,
-40,
-36,
-24,
-25,
-25,
-17,
-17,
-11,
0,
-1,
-1,
9,
9,
16,
28,
24,
37,
33,
44,
41,
41,
46,
46,
54,
54,
54,
54,
60,
60,
59,
59,
60,
60,
57,
57,
53,
53,
48,
48,
43,
43,
37,
37,
31,
20,
20,
20,
11,
11,
4,
-8,
-5,
-18,
-15,
-15,
-22,
-22,
-29,
-29,
-37,
-37,
-42,
-42,
-49,
-49,
-53,
-53,
-53,
-53,
-55,
-55,
-57,
-57,
-54,
-54,
-50,
-50,
-46,
-46,
-41,
-41,
-37,
-24,
-24,
-24,
-16,
-16,
-10,
-10,
-3,
12,
9,
21,
18,
18,
22,
35,
30,
30,
40,
40,
46,
46,
50,
50,
53,
53,
60,
60,
61,
61,
57,
57,
58,
58,
53,
53,
49,
49,
45,
45,
37,
37,
31,
20,
23,
10,
16,
3,
6,
-9,
-4,
-16,
-15,
-15,
-22,
-22,
-29,
-29,
-35,
-46,
-44,
-44,
-49,
-49,
-52,
-52,
-59,
-59,
-54,
-54,
-53,
-53,
-56,
-56,
-53,
-53,
-46,
-46,
-41,
-41,
-32,
-32,
-28,
-16,
-18,
-18,
-12,
0,
-2,
10,
6,
20,
17,
28,
23,
35,
35,
35,
39,
39,
48,
48,
52,
52,
55,
55,
58,
58,
61,
61,
59,
59,
55,
55,
55,
55,
49,
49,
42,
42,
37,
37,
31,
31,
22,
22,
13,
13,
5,
-6,
-6,
-17,
-11,
-23,
-23,
-23,
-30,
-30,
-37,
-37,
-40,
-52,
-51,
-51,
-51,
-51,
-54,
-54,
-56,
-56,
-56,
-56,
-56,
-56,
-53,
-53,
-49,
-49,
-41,
-41,
-35,
-35,
-28,
-17,
-21,
-8,
-11,
-11,
-1,
10,
8,
19,
15,
26,
24,
24,
32,
32,
39,
39,
47,
47,
50,
50,
57,
57,
60,
60,
58,
58,
56,
56,
56,
56,
53,
53,
49,
49,
45,
45,
40,
28,
31,
18,
22,
22,
16,
3,
3,
3,
-2,
-13,
-13,
-25,
-20,
-33,
-32,
-32,
-38,
-38,
-45,
-45,
-49,
-49,
-54,
-54,
-55,
-55,
-56,
-56,
-57,
-57,
-53,
-53,
-51,
-51,
-47,
-47,
-42,
-42,
-35,
-35,
-28,
-28,
-21,
-21,
-13,
-1,
-3,
8,
7,
18,
17,
17,
22,
22,
32,
32,
40,
40,
44,
44,
50,
50,
55,
55,
60,
60,
59,
59,
58,
58,
58,
58,
53,
53,
51,
51,
45,
45,
41,
29,
33,
20,
23,
23,
18,
4,
5,
-7,
-7,
-7,
-11,
-23,
-21,
-21,
-30,
-30,
-35,
-35,
-42,
-42,
-48,
-48,
-53,
-53,
-54,
-54,
-56,
-56,
-56,
-56,
-54,
-54,
-49,
-49,
-49,
-49,
-41,
-41,
-35,
-24,
-24,
-24,
-20,
-9,
-12,
-12,
-6,
10,
8,
8,
13,
24,
23,
34,
32,
32,
38,
38,
45,
45,
48,
48,
54,
54,
57,
57,
61,
61,
61,
61,
56,
56,
56,
56,
51,
51,
46,
46,
38,
38,
34,
22,
23,
23,
16,
4,
4,
4,
-2,
-16,
-13,
-24,
-24,
-24,
-26,
-26,
-36,
-36,
-41,
-41,
-50,
-50,
-49,
-49,
-52,
-52,
-57,
-57,
-56,
-56,
-56,
-56,
-54,
-54,
-47,
-47,
-40,
-40,
-36,
-36,
-30,
-30,
-24,
-13,
-14,
-3,
-5,
6,
2,
15,
13,
13,
20,
33,
28,
39,
36,
36,
46,
46,
52,
52,
55,
55,
60,
60,
59,
59,
59,
59,
60,
60,
53,
53,
50,
50,
47,
47,
41,
41,
33,
33,
24,
13,
14,
14,
7,
-6,
-4,
-4,
-8,
-22,
-21,
-21,
-23,
-38,
-37,
-37,
-39,
-51,
-45,
-45,
-53,
-53,
-54,
-54,
-54,
-54,
-58,
-58,
-54,
-54,
-55,
-55,
-49,
-49,
-42,
-42,
-35,
-35,
-31,
-20,
-22,
-22,
-14,
-14,
-7,
7,
6,
6,
10,
22,
21,
32,
31,
31,
38,
38,
45,
45,
48,
48,
57,
57,
58,
58,
60,
60,
56,
56,
59,
59,
54,
54,
49,
49,
45,
45,
38,
38,
32,
32,
23,
23,
15,
15,
9,
9,
0,
0,
-8,
-20,
-18,
-18,
-25,
-37,
-34,
-34,
-44,
-44,
-46,
-46,
-52,
-52,
-55,
-55,
-54,
-54,
-58,
-58,
-57,
-57,
-53,
-53,
-46,
-46,
-43,
-43,
-37,
-37,
-31,
-31,
-23,
-23,
-14,
-14,
-8,
7,
3,
15,
13,
24,
22,
33,
30,
30,
39,
39,
46,
46,
48,
48,
52,
52,
58,
58,
59,
59,
59,
59,
58,
58,
55,
55,
53,
53,
48,
48,
39,
39,
31,
31,
23,
23,
18,
6,
8,
-4,
0,
0,
-9,
-9,
-18,
-30,
-28,
-28,
-32,
-32,
-42,
-42,
-47,
-47,
-50,
-50,
-53,
-53,
-57,
-57,
-56,
-56,
-54,
-54,
-52,
-52,
-50,
-50,
-44,
-44,
-39,
-39,
-30,
-30,
-24,
-13,
-14,
-14,
-7,
5,
5,
5,
14,
14,
21,
21,
30,
30,
36,
36,
44,
44,
47,
47,
51,
51,
56,
56,
58,
58,
58,
58,
58,
58,
54,
54,
50,
50,
46,
46,
38,
38,
33,
33,
27,
16,
17,
17,
12,
-3,
-2,
-2,
-8,
-19,
-17,
-30,
-26,
-26,
-35,
-35,
-41,
-41,
-50,
-50,
-52,
-52,
-52,
-52,
-57,
-57,
-54,
-54,
-53,
-53,
-52,
-52,
-49,
-49,
-45,
-45,
-39,
-39,
-32,
-32,
-22,
-22,
-15,
-15,
-8,
6,
3,
3,
12,
12,
17,
30,
27,
27,
32,
44,
44,
44,
51,
51,
53,
53,
56,
56,
59,
59,
60,
60,
58,
58,
57,
57,
51,
51,
47,
47,
44,
44,
35,
35,
27,
27,
20,
7,
11,
-3,
-3,
-3,
-6,
-20,
-20,
-20,
-25,
-25,
-32,
-43,
-42,
-42,
-46,
-46,
-53,
-53,
-54,
-54,
-56,
-56,
-54,
-54,
-54,
-54,
-51,
-51,
-47,
-47,
-46,
-46,
-38,
-38,
-31,
-31,
-22,
-22,
-15,
-15,
-9,
4,
3,
3,
8,
24,
20,
32,
29,
29,
33,
44,
43,
43,
49,
49,
54,
54,
55,
55,
58,
58,
60,
60,
59,
59,
54,
54,
50,
50,
48,
48,
43,
43,
34,
34,
26,
26,
19,
19,
11,
-1,
-1,
-1,
-8,
-8,
-15,
-30,
-29,
-29,
-35,
-35,
-39,
-39,
-48,
-48,
-50,
-50,
-53,
-53,
-53,
-53,
-56,
-56,
-57,
-57,
-54,
-54,
-49,
-49,
-44,
-44,
-42,
-29,
-31,
-31,
-23,
-23,
-17,
-17,
-12,
2,
2,
2,
9,
9,
19,
19,
27,
27,
35,
46,
43,
43,
47,
47,
51,
51,
56,
56,
61,
61,
60,
60,
60,
60,
55,
55,
52,
52,
49,
49,
41,
41,
37,
37,
28,
28,
19,
19,
12,
0,
1,
1,
-8,
-8,
-14,
-26,
-25,
-25,
-33,
-33,
-39,
-39,
-43,
-43,
-51,
-51,
-53,
-53,
-54,
-54,
-55,
-55,
-55,
-55,
-54,
-54,
-51,
-51,
-47,
-47,
-37,
-37,
-33,
-33,
-24,
-24,
-18,
-18,
-11,
5,
4,
4,
12,
12,
19,
19,
28,
28,
37,
37,
38,
50,
49,
49,
51,
51,
55,
55,
58,
58,
60,
60,
56,
56,
56,
56,
55,
55,
47,
47,
44,
44,
35,
35,
28,
28,
21,
10,
12,
-1,
0,
0,
-8,
-8,
-17,
-17,
-24,
-35,
-31,
-42,
-40,
-40,
-45,
-45,
-48,
-48,
-55,
-55,
-55,
-55,
-56,
-56,
-54,
-54,
-55,
-55,
-53,
-53,
-46,
-46,
-40,
-40,
-36,
-24,
-27,
-27,
-18,
-18,
-9,
2,
0,
11,
10,
21,
20,
20,
28,
28,
35,
35,
41,
41,
47,
47,
52,
52,
56,
56,
59,
59,
59,
59,
58,
58,
55,
55,
53,
53,
51,
40,
41,
41,
37,
37,
29,
16,
16,
16,
10,
-1,
4,
-9,
-8,
-21,
-18,
-18,
-21,
-33,
-30,
-42,
-39,
-39,
-45,
-45,
-52,
-52,
-52,
-52,
-55,
-55,
-56,
-56,
-57,
-57,
-55,
-55,
-49,
-49,
-47,
-47,
-38,
-38,
-31,
-31,
-26,
-26,
-18,
-18,
-11,
0,
0,
0,
6,
20,
19,
30,
29,
29,
35,
35,
42,
42,
49,
49,
52,
52,
55,
55,
59,
59,
58,
58,
60,
60,
55,
55,
54,
54,
48,
48,
45,
32,
35,
35,
31,
20,
24,
11,
12,
12,
4,
4,
-6,
-17,
-15,
-26,
-25,
-25,
-30,
-30,
-37,
-37,
-46,
-46,
-51,
-51,
-55,
-55,
-57,
-57,
-58,
-58,
-57,
-57,
-52,
-52,
-53,
-53,
-46,
-46,
-42,
-42,
-34,
-34,
-27,
-16,
-16,
-16,
-11,
-11,
-3,
9,
8,
8,
13,
29,
27,
27,
31,
43,
42,
42,
50,
50,
52,
52,
54,
54,
57,
57,
60,
60,
59,
59,
59,
59,
53,
53,
51,
51,
41,
41,
39,
39,
31,
31,
22,
22,
14,
2,
6,
-8,
-6,
-6,
-12,
-27,
-21,
-33,
-29,
-29,
-36,
-47,
-42,
-42,
-49,
-49,
-52,
-52,
-57,
-57,
-54,
-54,
-54,
-54,
-56,
-56,
-50,
-50,
-49,
-49,
-41,
-41,
-34,
-23,
-25,
-25,
-17,
-17,
-10,
-10,
-5,
10,
9,
9,
16,
27,
26,
26,
35,
35,
42,
42,
46,
46,
52,
52,
57,
57,
56,
56,
58,
58,
58,
58,
59,
59,
57,
57,
50,
50,
45,
45,
40,
27,
27,
27,
20,
20,
15,
4,
7,
-5,
-3,
-16,
-14,
-14,
-23,
-23,
-28,
-39,
-34,
-48,
-44,
-44,
-51,
-51,
-53,
-53,
-54,
-54,
-56,
-56,
-57,
-57,
-57,
-57,
-53,
-53,
-47,
-47,
-42,
-42,
-37,
-37,
-28,
-16,
-17,
-17,
-8,
-8,
0,
0,
5,
19,
19,
19,
24,
35,
34,
34,
40,
40,
46,
46,
51,
51,
54,
54,
57,
57,
58,
58,
58,
58,
57,
57,
54,
54,
50,
50,
44,
44,
36,
36,
33,
33,
26,
12,
12,
12,
4,
4,
-4,
-4,
-9,
-25,
-24,
-24,
-28,
-28,
-36,
-36,
-42,
-42,
-48,
-48,
-52,
-52,
-52,
-52,
-56,
-56,
-54,
-54,
-54,
-54,
-52,
-52,
-49,
-49,
-42,
-42,
-36,
-36,
-29,
-17,
-18,
-18,
-11,
-11,
-5,
8,
7,
18,
17,
17,
23,
23,
32,
32,
38,
38,
45,
45,
50,
50,
54,
54,
58,
58,
58,
58,
60,
60,
57,
57,
57,
57,
48,
48,
47,
34,
39,
28,
30,
30,
23,
12,
15,
15,
7,
7,
-1,
-1,
-9,
-21,
-21,
-21,
-29,
-29,
-36,
-36,
-44,
-44,
-48,
-48,
-50,
-50,
-54,
-54,
-54,
-54,
-57,
-57,
-56,
-56,
-52,
-52,
-47,
-47,
-42,
-42,
-36,
-36,
-26,
-26,
-17,
-17,
-13,
-2,
-2,
10,
8,
19,
19,
19,
22,
22,
30,
42,
39,
39,
45,
45,
48,
48,
52,
52,
58,
58,
60,
60,
58,
58,
57,
57,
56,
56,
52,
52,
44,
44,
40,
28,
31,
31,
22,
22,
16,
16,
7,
-4,
-1,
-1,
-9,
-24,
-17,
-30,
-27,
-39,
-36,
-36,
-44,
-44,
-48,
-48,
-51,
-51,
-54,
-54,
-57,
-57,
-58,
-58,
-56,
-56,
-54,
-54,
-46,
-46,
-40,
-40,
-38,
-26,
-30,
-30,
-20,
-20,
-13,
-1,
-1,
-1,
4,
16,
16,
16,
24,
24,
33,
33,
36,
49,
44,
44,
50,
50,
55,
55,
58,
58,
59,
59,
60,
60,
58,
58,
54,
54,
51,
51,
45,
45,
39,
39,
34,
20,
23,
23,
15,
15,
7,
-5,
-1,
-1,
-9,
-20,
-20,
-32,
-26,
-39,
-38,
-38,
-42,
-42,
-47,
-47,
-50,
-50,
-53,
-53,
-55,
-55,
-53,
-53,
-53,
-53,
-52,
-52,
-49,
-49,
-45,
-45,
-40,
-40,
-32,
-21,
-24,
-10,
-11,
-11,
-5,
-5,
3,
15,
14,
26,
23,
34,
30,
41,
38,
38,
45,
45,
50,
50,
53,
53,
57,
57,
58,
58,
59,
59,
59,
59,
56,
56,
51,
51,
45,
45,
38,
38,
32,
21,
25,
25,
19,
8,
9,
-3,
-2,
-13,
-12,
-12,
-19,
-31,
-31,
-31,
-34,
-34,
-41,
-41,
-46,
-46,
-52,
-52,
-53,
-53,
-58,
-58,
-56,
-56,
-56,
-56,
-55,
-55,
-50,
-50,
-42,
-42,
-35,
-35,
-30,
-30,
-22,
-22,
-13,
-13,
-8,
4,
4,
4,
11,
23,
20,
32,
28,
28,
36,
36,
45,
45,
46,
46,
54,
54,
58,
58,
58,
58,
60,
60,
58,
58,
56,
56,
55,
44,
44,
44,
39,
39,
32,
32,
26,
26,
18,
7,
11,
-2,
0,
0,
-10,
-10,
-16,
-29,
-28,
-28,
-37,
-37,
-40,
-40,
-47,
-47,
-52,
-52,
-54,
-54,
-56,
-56,
-57,
-57,
-55,
-55,
-53,
-53,
-50,
-50,
-45,
-45,
-39,
-27,
-29,
-29,
-25,
-13,
-14,
-14,
-8,
9,
8,
8,
13,
25,
20,
31,
27,
41,
40,
40,
41,
41,
48,
48,
53,
53,
55,
55,
57,
57,
58,
58,
59,
59,
54,
54,
52,
52,
47,
47,
39,
39,
34,
34,
28,
15,
17,
6,
10,
-2,
-2,
-2,
-9,
-9,
-19,
-30,
-29,
-29,
-36,
-36,
-43,
-43,
-47,
-47,
-51,
-51,
-55,
-55,
-56,
-56,
-57,
-57,
-54,
-54,
-52,
-52,
-51,
-51,
-44,
-44,
-40,
-40,
-33,
-20,
-23,
-12,
-12,
-12,
-8,
4,
3,
3,
9,
21,
20,
20,
28,
28,
35,
35,
40,
40,
46,
46,
51,
51,
55,
55,
59,
59,
59,
59,
58,
58,
56,
56,
51,
51,
50,
39,
43,
31,
31,
31,
26,
26,
19,
19,
11,
0,
3,
-9,
-8,
-20,
-19,
-19,
-27,
-38,
-34,
-34,
-40,
-40,
-48,
-48,
-48,
-48,
-55,
-55,
-53,
-53,
-54,
-54,
-57,
-57,
-51,
-51,
-48,
-48,
-46,
-46,
-37,
-37,
-34,
-22,
-27,
-15,
-16,
-16,
-8,
4,
2,
13,
12,
12,
20,
20,
28,
28,
35,
35,
41,
41,
44,
55,
54,
54,
57,
57,
58,
58,
58,
58,
59,
59,
56,
56,
51,
51,
47,
47,
42,
31,
34,
34,
26,
26,
18,
5,
6,
6,
1,
1,
-8,
-8,
-17,
-28,
-21,
-33,
-30,
-30,
-39,
-39,
-46,
-46,
-48,
-48,
-52,
-52,
-58,
-58,
-54,
-54,
-54,
-54,
-54,
-54,
-50,
-50,
-45,
-45,
-40,
-40,
-31,
-31,
-24,
-24,
-17,
-17,
-7,
4,
0,
11,
10,
21,
20,
20,
28,
28,
36,
36,
43,
43,
49,
49,
52,
52,
59,
59,
59,
59,
60,
60,
57,
57,
56,
56,
56,
44,
48,
48,
40,
40,
33,
33,
30,
18,
22,
9,
10,
-5,
-5,
-5,
-8,
-8,
-16,
-16,
-24,
-36,
-32,
-43,
-38,
-38,
-44,
-44,
-49,
-49,
-51,
-51,
-57,
-57,
-59,
-59,
-54,
-54,
-52,
-52,
-50,
-50,
-44,
-44,
-40,
-40,
-32,
-32,
-29,
-14,
-15,
-15,
-8,
-8,
1,
1,
7,
22,
22,
22,
27,
27,
35,
35,
44,
44,
50,
50,
51,
51,
55,
55,
58,
58,
57,
57,
56,
56,
55,
55,
55,
55,
50,
50,
41,
41,
34,
34,
26,
26,
18,
7,
8,
8,
0,
0,
-6,
-17,
-17,
-17,
-23,
-36,
-35,
-35,
-37,
-37,
-44,
-44,
-48,
-48,
-54,
-54,
-57,
-57,
-59,
-59,
-57,
-57,
-51,
-51,
-54,
-43,
-44,
-44,
-38,
-38,
-31,
-31,
-25,
-25,
-18,
-18,
-11,
1,
1,
12,
10,
10,
18,
18,
28,
28,
35,
35,
41,
41,
44,
44,
50,
50,
52,
52,
60,
60,
60,
60,
60,
60,
57,
57,
54,
54,
50,
50,
43,
43,
38,
38,
30,
18,
18,
18,
13,
1,
4,
-7,
-6,
-6,
-12,
-23,
-22,
-37,
-35,
-35,
-35,
-49,
-46,
-46,
-49,
-49,
-52,
-52,
-55,
-55,
-57,
-57,
-56,
-56,
-51,
-51,
-49,
-49,
-46,
-46,
-40,
-40,
-33,
-33,
-25,
-25,
-16,
-16,
-8,
3,
1,
12,
9,
9,
17,
17,
26,
26,
34,
34,
40,
40,
46,
46,
51,
51,
58,
58,
60,
60,
59,
59,
60,
60,
56,
56,
54,
54,
50,
50,
42,
42,
34,
34,
27,
27,
19,
19,
13,
2,
2,
2,
-6,
-18,
-18,
-18,
-22,
-33,
-33,
-33,
-38,
-38,
-41,
-52,
-50,
-50,
-53,
-53,
-53,
-53,
-57,
-57,
-55,
-55,
-53,
-53,
-49,
-49,
-45,
-45,
-42,
-42,
-33,
-33,
-28,
-14,
-19,
-19,
-11,
3,
2,
2,
10,
10,
15,
15,
25,
36,
35,
35,
39,
39,
47,
47,
51,
51,
54,
54,
59,
59,
58,
58,
55,
55,
56,
56,
52,
52,
49,
49,
46,
46,
36,
36,
32,
20,
22,
11,
12,
12,
6,
-5,
-3,
-17,
-14,
-14,
-23,
-23,
-30,
-41,
-39,
-39,
-43,
-43,
-48,
-48,
-52,
-52,
-54,
-54,
-56,
-56,
-58,
-58,
-55,
-55,
-50,
-50,
-46,
-46,
-40,
-40,
-36,
-24,
-27,
-27,
-19,
-7,
-9,
-9,
0,
0,
6,
17,
16,
16,
23,
36,
35,
35,
43,
43,
45,
45,
52,
52,
56,
56,
56,
56,
61,
61,
56,
56,
55,
55,
56,
56,
50,
50,
44,
44,
38,
38,
34,
20,
23,
23,
15,
4,
4,
4,
-6,
-6,
-12,
-12,
-22,
-33,
-32,
-32,
-40,
-40,
-42,
-42,
-49,
-49,
-52,
-52,
-57,
-57,
-56,
-56,
-57,
-57,
-56,
-56,
-53,
-53,
-48,
-48,
-41,
-41,
-36,
-36,
-32,
-18,
-19,
-19,
-14,
-3,
-5,
8,
6,
6,
16,
16,
26,
26,
32,
32,
41,
41,
48,
48,
52,
52,
54,
54,
57,
57,
59,
59,
58,
58,
58,
58,
55,
55,
49,
49,
44,
44,
37,
37,
32,
32,
24,
11,
12,
12,
5,
-6,
-4,
-17,
-17,
-17,
-24,
-24,
-30,
-30,
-38,
-38,
-46,
-46,
-46,
-46,
-51,
-51,
-53,
-53,
-56,
-56,
-59,
-59,
-54,
-54,
-51,
-51,
-49,
-49,
-41,
-41,
-35,
-35,
-30,
-30,
-22,
-9,
-9,
2,
1,
1,
7,
7,
17,
17,
22,
33,
30,
30,
38,
38,
47,
47,
53,
53,
54,
54,
59,
59,
60,
60,
58,
58,
56,
56,
54,
54,
50,
50,
46,
46,
39,
27,
32,
32,
24,
24,
16,
2,
6,
6,
-2,
-2,
-9,
-24,
-20,
-31,
-30,
-30,
-36,
-36,
-43,
-43,
-50,
-50,
-51,
-51,
-55,
-55,
-58,
-58,
-57,
-57,
-54,
-54,
-52,
-52,
-48,
-48,
-45,
-34,
-35,
-35,
-30,
-30,
-23,
-9,
-11,
-11,
-3,
-3,
6,
17,
16,
16,
22,
22,
29,
40,
39,
39,
43,
43,
51,
51,
54,
54,
59,
59,
60,
60,
60,
60,
59,
59,
52,
52,
52,
52,
47,
47,
38,
38,
28,
28,
25,
13,
14,
14,
9,
-4,
-3,
-3,
-9,
-22,
-21,
-32,
-28,
-28,
-36,
-36,
-40,
-51,
-48,
-48,
-52,
-52,
-54,
-54,
-57,
-57,
-55,
-55,
-58,
-58,
-54,
-54,
-48,
-48,
-43,
-43,
-39,
-39,
-30,
-19,
-20,
-9,
-13,
-13,
-8,
10,
9,
9,
18,
18,
26,
26,
29,
40,
37,
37,
44,
44,
51,
51,
55,
55,
57,
57,
61,
61,
60,
60,
59,
59,
57,
57,
48,
48,
46,
46,
40,
40,
34,
23,
24,
24,
18,
18,
9,
-6,
-5,
-5,
-14,
-14,
-16,
-29,
-26,
-37,
-34,
-45,
-44,
-44,
-47,
-47,
-51,
-51,
-54,
-54,
-54,
-54,
-59,
-59,
-57,
-57,
-55,
-55,
-46,
-46,
-44,
-44,
-38,
-26,
-29,
-29,
-22,
-11,
-16,
-4,
-4,
-4,
4,
17,
16,
28,
27,
27,
34,
34,
38,
38,
47,
47,
50,
50,
56,
56,
60,
60,
57,
57,
59,
59,
57,
57,
54,
54,
53,
53,
45,
45,
38,
38,
34,
34,
25,
14,
19,
6,
7,
7,
0,
0,
-8,
-22,
-19,
-19,
-28,
-28,
-34,
-34,
-42,
-42,
-49,
-49,
-51,
-51,
-53,
-53,
-53,
-53,
-55,
-55,
-53,
-53,
-53,
-53,
-50,
-50,
-45,
-45,
-39,
-39,
-30,
-30,
-23,
-23,
-15,
-2,
-4,
-4,
3,
16,
16,
16,
20,
20,
30,
30,
35,
46,
45,
45,
49,
49,
55,
55,
58,
58,
60,
60,
58,
58,
57,
57,
54,
54,
51,
51,
46,
46,
39,
39,
34,
34,
26,
15,
17,
4,
8,
-4,
-4,
-4,
-9,
-22,
-19,
-19,
-27,
-27,
-32,
-44,
-41,
-41,
-47,
-47,
-50,
-50,
-55,
-55,
-56,
-56,
-56,
-56,
-54,
-54,
-52,
-52,
-47,
-47,
-48,
-37,
-40,
-40,
-31,
-31,
-22,
-22,
-14,
-14,
-7,
6,
4,
16,
15,
15,
21,
21,
29,
29,
37,
48,
45,
45,
47,
47,
52,
52,
57,
57,
56,
56,
58,
58,
57,
57,
59,
59,
53,
53,
48,
48,
40,
40,
34,
34,
27,
14,
15,
15,
10,
-4,
-2,
-2,
-9,
-9,
-16,
-28,
-25,
-36,
-32,
-43,
-40,
-40,
-44,
-44,
-51,
-51,
-53,
-53,
-57,
-57,
-59,
-59,
-54,
-54,
-54,
-54,
-48,
-48,
-46,
-46,
-38,
-38,
-32,
-19,
-19,
-19,
-11,
-11,
-8,
6,
3,
14,
12,
12,
19,
31,
31,
31,
36,
36,
44,
44,
50,
50,
55,
55,
55,
55,
59,
59,
58,
58,
59,
59,
56,
56,
52,
52,
47,
47,
42,
31,
35,
35,
28,
16,
16,
16,
7,
7,
-1,
-1,
-9,
-22,
-21,
-21,
-27,
-27,
-34,
-34,
-42,
-42,
-46,
-46,
-50,
-50,
-53,
-53,
-53,
-53,
-58,
-58,
-54,
-54,
-53,
-53,
-48,
-48,
-43,
-43,
-38,
-38,
-31,
-31,
-24,
-24,
-17,
-17,
-9,
4,
-1,
13,
10,
22,
20,
31,
29,
29,
34,
34,
43,
43,
50,
50,
51,
51,
55,
55,
57,
57,
60,
60,
56,
56,
55,
55,
52,
52,
48,
48,
43,
31,
35,
35,
26,
26,
18,
18,
10,
10,
1,
1,
-9,
-9,
-17,
-28,
-24,
-37,
-32,
-44,
-40,
-40,
-44,
-44,
-52,
-52,
-54,
-54,
-56,
-56,
-54,
-54,
-58,
-58,
-51,
-51,
-50,
-50,
-45,
-45,
-42,
-42,
-33,
-33,
-27,
-15,
-15,
-15,
-8,
4,
2,
2,
12,
12,
20,
20,
27,
27,
35,
35,
43,
43,
44,
44,
53,
53,
58,
58,
59,
59,
59,
59,
58,
58,
58,
58,
50,
50,
52,
40,
42,
42,
34,
34,
30,
17,
18,
18,
10,
-1,
0,
0,
-5,
-18,
-14,
-25,
-24,
-24,
-33,
-33,
-42,
-42,
-44,
-44,
-48,
-48,
-53,
-53,
-57,
-57,
-54,
-54,
-55,
-55,
-56,
-56,
-49,
-49,
-46,
-46,
-40,
-40,
-33,
-33,
-25,
-25,
-16,
-16,
-8,
6,
2,
2,
10,
10,
17,
29,
27,
39,
36,
36,
43,
43,
49,
49,
52,
52,
57,
57,
58,
58,
59,
59,
58,
58,
58,
58,
52,
52,
47,
47,
47,
32,
36,
23,
28,
16,
21,
9,
11,
-1,
3,
-8,
-5,
-18,
-17,
-17,
-24,
-24,
-33,
-33,
-39,
-39,
-46,
-46,
-52,
-52,
-53,
-53,
-54,
-54,
-56,
-56,
-58,
-58,
-57,
-57,
-50,
-50,
-46,
-46,
-39,
-39,
-35,
-24,
-26,
-15,
-16,
-16,
-10,
