Data/Output/LOG0000/DS0119.CSV

Memory Length,4000,
Trigger Level,-1.20000e+02,
Source,CH2,
Probe,1.0X,
Vertical Units,V,
Vertical Scale,1.00000e+00,
Vertical Position,0.00000e+00,
Horizontal Units,S,
Horizontal Scale,1.00000e-02,
Horizontal Position,0.0000000e+00,
Horizontal Mode,Main,
Sampling Period,4.00000e-05,
Firmware,V1.14,
Time, ,
Mode,Fast,
Waveform Data,
-28,
-28,
-28,
-35,
-46,
-46,
-46,
-51,
-51,
-51,
-51,
-56,
-56,
-54,
-54,
-54,
-54,
-53,
-53,
-48,
-48,
-39,
-39,
-31,
-31,
-22,
-10,
-10,
-10,
-4,
10,
10,
10,
19,
33,
30,
30,
37,
50,
46,
46,
53,
53,
58,
58,
57,
57,
60,
60,
56,
56,
56,
56,
51,
51,
45,
32,
35,
22,
23,
23,
17,
3,
4,
-9,
-9,
-9,
-17,
-30,
-29,
-29,
-34,
-45,
-43,
-43,
-47,
-47,
-54,
-54,
-58,
-58,
-57,
-57,
-53,
-53,
-51,
-51,
-45,
-45,
-37,
-37,
-33,
-20,
-20,
-20,
-10,
4,
3,
15,
11,
24,
20,
32,
29,
41,
40,
40,
46,
46,
52,
52,
57,
57,
60,
60,
60,
60,
57,
57,
54,
54,
47,
47,
43,
30,
34,
22,
22,
11,
12,
12,
3,
-8,
-7,
-21,
-19,
-19,
-26,
-39,
-37,
-37,
-43,
-43,
-52,
-52,
-54,
-54,
-57,
-57,
-57,
-57,
-55,
-55,
-53,
-53,
-45,
-45,
-39,
-39,
-33,
-20,
-20,
-20,
-12,
2,
0,
0,
8,
19,
18,
34,
31,
42,
41,
41,
45,
45,
53,
53,
53,
53,
58,
58,
60,
60,
57,
57,
56,
56,
50,
50,
41,
41,
34,
23,
25,
12,
12,
12,
4,
-9,
-9,
-9,
-17,
-29,
-25,
-38,
-34,
-47,
-46,
-46,
-51,
-51,
-53,
-53,
-54,
-54,
-53,
-53,
-54,
-54,
-51,
-51,
-46,
-35,
-38,
-38,
-30,
-19,
-21,
-10,
-10,
-10,
-2,
15,
14,
26,
26,
26,
30,
42,
41,
41,
50,
50,
50,
50,
57,
57,
57,
57,
57,
57,
57,
57,
54,
54,
46,
46,
43,
32,
35,
22,
24,
11,
16,
3,
3,
3,
-7,
-19,
-16,
-31,
-27,
-40,
-39,
-39,
-45,
-45,
-49,
-49,
-53,
-53,
-59,
-59,
-56,
-56,
-54,
-54,
-48,
-48,
-47,
-47,
-40,
-26,
-30,
-18,
-20,
-20,
-13,
0,
-3,
11,
9,
22,
21,
32,
27,
41,
37,
48,
47,
47,
53,
53,
56,
56,
61,
61,
60,
60,
58,
58,
55,
55,
47,
47,
40,
40,
34,
22,
25,
13,
13,
-1,
1,
1,
-8,
-21,
-21,
-21,
-27,
-27,
-36,
-47,
-46,
-46,
-49,
-49,
-54,
-54,
-56,
-56,
-57,
-57,
-52,
-52,
-52,
-52,
-44,
-44,
-37,
-37,
-30,
-16,
-16,
-16,
-10,
4,
3,
3,
9,
24,
23,
23,
30,
44,
40,
40,
46,
46,
54,
54,
56,
56,
59,
59,
59,
59,
58,
58,
53,
53,
50,
50,
40,
40,
31,
20,
22,
8,
11,
-1,
-1,
-1,
-9,
-22,
-19,
-31,
-29,
-29,
-35,
-46,
-43,
-43,
-50,
-50,
-52,
-52,
-56,
-56,
-56,
-56,
-54,
-54,
-50,
-50,
-44,
-44,
-37,
-37,
-30,
-30,
-21,
-8,
-9,
-9,
-2,
12,
9,
24,
20,
34,
34,
34,
42,
42,
45,
56,
51,
51,
55,
55,
56,
56,
56,
56,
54,
54,
54,
54,
47,
47,
42,
29,
29,
29,
26,
10,
15,
-3,
2,
-9,
-8,
-22,
-20,
-32,
-30,
-30,
-40,
-40,
-43,
-43,
-50,
-50,
-54,
-54,
-55,
-55,
-55,
-55,
-54,
-54,
-51,
-51,
-44,
-44,
-39,
-27,
-28,
-17,
-22,
-7,
-8,
4,
0,
13,
12,
12,
19,
32,
30,
30,
37,
49,
48,
48,
55,
55,
59,
59,
59,
59,
59,
59,
57,
57,
55,
55,
49,
49,
41,
30,
30,
30,
26,
10,
14,
1,
2,
-9,
-6,
-20,
-18,
-32,
-32,
-32,
-34,
-49,
-46,
-46,
-49,
-49,
-52,
-52,
-59,
-59,
-57,
-57,
-55,
-55,
-50,
-50,
-45,
-45,
-37,
-37,
-29,
-17,
-17,
-17,
-10,
2,
0,
15,
14,
26,
26,
26,
32,
32,
42,
42,
45,
45,
54,
54,
56,
56,
58,
58,
57,
57,
59,
59,
52,
52,
47,
36,
40,
29,
29,
29,
23,
10,
16,
-4,
0,
-13,
-12,
-24,
-23,
-23,
-29,
-40,
-38,
-38,
-47,
-47,
-52,
-52,
-54,
-54,
-56,
-56,
-57,
-57,
-56,
-56,
-51,
-51,
-42,
-42,
-33,
-33,
-27,
-27,
-19,
-7,
-8,
3,
0,
15,
14,
25,
24,
35,
32,
43,
40,
40,
48,
48,
54,
54,
55,
55,
58,
58,
58,
58,
56,
56,
51,
51,
46,
46,
40,
40,
33,
22,
25,
8,
8,
-3,
-2,
-2,
-8,
-20,
-20,
-34,
-33,
-33,
-38,
-38,
-44,
-44,
-50,
-50,
-55,
-55,
-57,
-57,
-55,
-55,
-56,
-56,
-52,
-52,
-46,
-35,
-38,
-27,
-31,
-17,
-20,
-7,
-8,
3,
2,
16,
16,
16,
24,
24,
30,
43,
42,
42,
48,
48,
53,
53,
59,
59,
61,
61,
61,
61,
56,
56,
50,
50,
46,
35,
39,
39,
30,
30,
22,
11,
14,
-2,
-1,
-1,
-9,
-24,
-21,
-33,
-33,
-33,
-37,
-37,
-45,
-45,
-51,
-51,
-51,
-51,
-58,
-58,
-57,
-57,
-54,
-54,
-49,
-49,
-45,
-34,
-36,
-36,
-28,
-17,
-19,
-7,
-9,
3,
-2,
14,
10,
26,
26,
26,
34,
34,
39,
52,
48,
48,
56,
56,
60,
60,
58,
58,
56,
56,
58,
58,
54,
54,
44,
44,
38,
26,
26,
26,
20,
9,
10,
-1,
0,
0,
-9,
-22,
-19,
-30,
-30,
-30,
-39,
-39,
-43,
-43,
-50,
-50,
-55,
-55,
-54,
-54,
-54,
-54,
-51,
-51,
-50,
-50,
-45,
-45,
-39,
-26,
-28,
-17,
-17,
-17,
-8,
7,
7,
7,
12,
24,
22,
34,
33,
33,
41,
41,
48,
48,
54,
54,
59,
59,
57,
57,
58,
58,
57,
57,
52,
52,
44,
44,
41,
41,
34,
17,
19,
8,
9,
-4,
-4,
-4,
-9,
-22,
-18,
-32,
-31,
-42,
-42,
-42,
-48,
-48,
-50,
-50,
-54,
-54,
-54,
-54,
-55,
-55,
-55,
-55,
-50,
-50,
-45,
-45,
-38,
-27,
-32,
-14,
-14,
-14,
-5,
8,
6,
6,
14,
26,
26,
26,
33,
33,
40,
51,
50,
50,
54,
54,
60,
60,
55,
55,
59,
59,
58,
58,
53,
53,
44,
44,
40,
40,
31,
20,
20,
8,
10,
10,
1,
1,
-9,
-24,
-24,
-24,
-30,
-42,
-38,
-49,
-49,
-49,
-53,
-53,
-55,
-55,
-58,
-58,
-56,
-56,
-55,
-55,
-48,
-48,
-45,
-45,
-38,
-24,
-26,
-26,
-18,
-7,
-8,
7,
7,
7,
13,
24,
22,
36,
32,
43,
40,
51,
50,
50,
52,
52,
58,
58,
60,
60,
59,
59,
56,
56,
51,
51,
47,
36,
38,
38,
30,
16,
18,
7,
11,
-4,
-4,
-4,
-9,
-22,
-21,
-33,
-33,
-33,
-39,
-39,
-45,
-56,
-50,
-50,
-52,
-52,
-56,
-56,
-55,
-55,
-53,
-53,
-51,
-51,
-44,
-44,
-37,
-25,
-29,
-16,
-16,
-16,
-8,
3,
2,
15,
14,
26,
25,
38,
35,
35,
42,
42,
51,
51,
55,
55,
60,
60,
57,
57,
58,
58,
55,
55,
54,
54,
47,
47,
39,
28,
30,
16,
19,
19,
12,
-2,
0,
-15,
-14,
-14,
-21,
-35,
-33,
-33,
-36,
-48,
-48,
-48,
-50,
-50,
-55,
-55,
-57,
-57,
-57,
-57,
-52,
-52,
-47,
-47,
-42,
-31,
-32,
-32,
-30,
-16,
-17,
-17,
-8,
9,
9,
20,
16,
29,
25,
25,
32,
44,
44,
44,
49,
49,
51,
51,
56,
56,
60,
60,
58,
58,
54,
54,
55,
42,
43,
43,
39,
26,
30,
18,
19,
5,
6,
6,
-2,
-13,
-11,
-25,
-24,
-24,
-30,
-41,
-40,
-40,
-47,
-47,
-53,
-53,
-55,
-55,
-56,
-56,
-56,
-56,
-54,
-54,
-50,
-50,
-42,
-42,
-35,
-35,
-28,
-17,
-17,
-17,
-8,
7,
7,
7,
14,
25,
22,
39,
37,
37,
46,
46,
50,
50,
53,
53,
56,
56,
60,
60,
60,
60,
55,
55,
52,
52,
45,
45,
39,
28,
30,
18,
19,
6,
7,
7,
-1,
-15,
-13,
-13,
-22,
-33,
-32,
-32,
-38,
-51,
-50,
-50,
-54,
-54,
-52,
-52,
-54,
-54,
-54,
-54,
-54,
-54,
-48,
-48,
-43,
-43,
-34,
-34,
-26,
-15,
-18,
-7,
-8,
6,
2,
18,
16,
29,
28,
28,
35,
46,
45,
45,
52,
52,
53,
53,
58,
58,
58,
58,
55,
55,
58,
58,
52,
52,
44,
44,
39,
39,
30,
18,
20,
8,
11,
-3,
-3,
-3,
-12,
-24,
-21,
-34,
-33,
-33,
-42,
-42,
-48,
-48,
-51,
-51,
-54,
-54,
-55,
-55,
-58,
-58,
-50,
-50,
-45,
-45,
-44,
-44,
-36,
-22,
-24,
-13,
-15,
-15,
-9,
4,
2,
17,
16,
16,
25,
25,
32,
44,
42,
42,
51,
51,
57,
57,
57,
57,
60,
60,
59,
59,
56,
56,
54,
43,
45,
45,
38,
38,
28,
16,
20,
8,
10,
-7,
-3,
-15,
-15,
-15,
-24,
-35,
-30,
-42,
-38,
-49,
-48,
-48,
-52,
-52,
-55,
-55,
-58,
-58,
-54,
-54,
-50,
-50,
-48,
-48,
-41,
-41,
-33,
-33,
-27,
-11,
-13,
-13,
-7,
9,
8,
8,
15,
28,
27,
27,
33,
46,
44,
44,
49,
49,
58,
58,
56,
56,
58,
58,
60,
60,
56,
56,
50,
50,
46,
35,
35,
35,
27,
16,
18,
4,
5,
-6,
-6,
-17,
-14,
-25,
-23,
-34,
-34,
-34,
-39,
-50,
-45,
-45,
-53,
-53,
-54,
-54,
-56,
-56,
-53,
-53,
-52,
-52,
-48,
-48,
-39,
-39,
-33,
-33,
-26,
-15,
-16,
-16,
-7,
5,
2,
17,
14,
27,
25,
36,
35,
35,
44,
44,
48,
48,
53,
53,
59,
59,
58,
58,
57,
57,
55,
55,
53,
41,
42,
42,
36,
36,
27,
27,
20,
5,
10,
-6,
-4,
-15,
-14,
-14,
-24,
-36,
-36,
-36,
-43,
-43,
-48,
-48,
-53,
-53,
-54,
-54,
-54,
-54,
-54,
-54,
-52,
-52,
-49,
-49,
-41,
-41,
-34,
-34,
-24,
-12,
-16,
-1,
-1,
-1,
8,
8,
16,
16,
23,
37,
35,
35,
42,
42,
51,
51,
56,
56,
59,
59,
60,
60,
58,
58,
54,
54,
53,
53,
46,
34,
34,
34,
25,
25,
19,
6,
7,
-4,
-2,
-13,
-12,
-25,
-22,
-37,
-36,
-36,
-38,
-50,
-49,
-49,
-51,
-51,
-54,
-54,
-56,
-56,
-56,
-56,
-53,
-53,
-48,
-48,
-41,
-41,
-33,
-33,
-24,
-11,
-13,
-13,
-8,
8,
4,
22,
16,
31,
28,
39,
39,
39,
45,
45,
47,
47,
56,
56,
59,
59,
58,
58,
58,
58,
57,
57,
51,
51,
45,
33,
35,
24,
25,
25,
18,
6,
9,
-7,
-6,
-19,
-19,
-19,
-28,
-28,
-34,
-34,
-43,
-43,
-47,
-47,
-52,
-52,
-58,
-58,
-55,
-55,
-55,
-55,
-54,
-54,
-48,
-37,
-37,
-37,
-30,
-30,
-21,
-21,
-16,
-1,
-1,
-1,
5,
20,
19,
30,
30,
30,
35,
46,
44,
44,
51,
51,
55,
55,
58,
58,
59,
59,
58,
58,
55,
55,
49,
49,
44,
44,
35,
35,
28,
28,
20,
6,
6,
-6,
-5,
-5,
-14,
-25,
-24,
-38,
-38,
-38,
-41,
-41,
-48,
-48,
-51,
-51,
-57,
-57,
-57,
-57,
-53,
-53,
-53,
-53,
-47,
-47,
-42,
-42,
-33,
-33,
-24,
-13,
-16,
2,
0,
0,
8,
22,
21,
21,
28,
28,
34,
46,
45,
45,
51,
51,
55,
55,
60,
60,
61,
61,
60,
60,
52,
52,
48,
48,
42,
31,
33,
33,
28,
16,
16,
16,
10,
-6,
-5,
-17,
-16,
-29,
-26,
-37,
-36,
-36,
-42,
-42,
-47,
-47,
-53,
-53,
-53,
-53,
-56,
-56,
-58,
-58,
-51,
-51,
-46,
-46,
-40,
-40,
-33,
-33,
-23,
-23,
-14,
-2,
-2,
-2,
4,
18,
16,
28,
27,
39,
38,
38,
45,
45,
51,
51,
56,
56,
58,
58,
59,
59,
56,
56,
55,
55,
49,
49,
41,
41,
32,
32,
23,
23,
16,
4,
5,
-6,
-6,
-6,
-12,
-24,
-24,
-24,
-33,
-33,
-41,
-41,
-46,
-46,
-51,
-51,
-58,
-58,
-54,
-54,
-54,
-54,
-50,
-50,
-48,
-48,
-42,
-42,
-33,
-22,
-24,
-12,
-13,
-1,
-1,
13,
12,
12,
17,
30,
27,
38,
38,
38,
45,
45,
49,
49,
55,
55,
57,
57,
58,
58,
58,
58,
56,
56,
50,
50,
42,
42,
36,
36,
29,
12,
15,
3,
3,
-8,
-8,
-8,
-11,
-28,
-24,
-35,
-35,
-46,
-46,
-46,
-52,
-52,
-52,
-52,
-57,
-57,
-54,
-54,
-53,
-53,
-51,
-51,
-46,
-46,
-41,
-30,
-34,
-22,
-26,
-10,
-10,
3,
2,
13,
10,
21,
19,
31,
30,
30,
37,
37,
42,
54,
54,
54,
54,
54,
61,
61,
56,
56,
59,
59,
56,
56,
52,
38,
43,
32,
38,
24,
28,
13,
18,
3,
4,
4,
-4,
-17,
-16,
-29,
-28,
-28,
-37,
-37,
-43,
-43,
-49,
-49,
-55,
-55,
-57,
-57,
-57,
-57,
-56,
-56,
-51,
-51,
-45,
-45,
-43,
-30,
-34,
-20,
-20,
-20,
-14,
-1,
-1,
11,
10,
10,
18,
29,
27,
40,
36,
47,
43,
55,
54,
54,
53,
53,
59,
59,
60,
60,
59,
59,
56,
45,
46,
46,
44,
44,
35,
24,
24,
12,
12,
12,
6,
-8,
-8,
-8,
-15,
-15,
-25,
-36,
-35,
-35,
-43,
-43,
-48,
-48,
-52,
-52,
-53,
-53,
-57,
-57,
-54,
-54,
-53,
-53,
-45,
-45,
-39,
-39,
-34,
-20,
-24,
-11,
-12,
0,
-1,
-1,
7,
19,
19,
19,
29,
41,
38,
38,
45,
45,
54,
54,
58,
58,
60,
60,
57,
57,
59,
59,
52,
52,
50,
50,
44,
44,
35,
35,
26,
12,
13,
13,
8,
-7,
-5,
-22,
-19,
-19,
-26,
-38,
-35,
-35,
-42,
-42,
-51,
-51,
-50,
-50,
-56,
-56,
-57,
-57,
-54,
-54,
-52,
-52,
-44,
-44,
-39,
-39,
-30,
-30,
-24,
-11,
-11,
0,
-1,
15,
14,
14,
21,
32,
30,
30,
35,
49,
48,
48,
52,
52,
56,
56,
58,
58,
60,
60,
55,
55,
52,
52,
50,
38,
42,
30,
34,
22,
25,
13,
13,
0,
4,
-8,
-5,
-19,
-16,
-29,
-27,
-27,
-37,
-37,
-44,
-44,
-49,
-49,
-54,
-54,
-55,
-55,
-56,
-56,
-54,
-54,
-53,
-53,
-48,
-37,
-38,
-38,
-32,
-32,
-23,
-12,
-14,
1,
-3,
13,
12,
12,
19,
19,
28,
42,
40,
40,
48,
48,
52,
52,
58,
58,
56,
56,
60,
60,
58,
58,
53,
53,
51,
51,
42,
42,
32,
32,
25,
12,
13,
2,
2,
2,
-5,
-21,
-17,
-29,
-29,
-29,
-34,
-45,
-42,
-42,
-51,
-51,
-54,
-54,
-53,
-53,
-54,
-54,
-53,
-53,
-52,
-52,
-48,
-36,
-40,
-28,
-28,
-28,
-20,
-20,
-12,
0,
0,
0,
9,
23,
22,
34,
34,
34,
36,
48,
47,
47,
53,
53,
54,
54,
60,
60,
56,
56,
57,
57,
54,
54,
48,
48,
42,
42,
34,
23,
25,
12,
13,
13,
4,
4,
-6,
-18,
-18,
-18,
-25,
-37,
-36,
-36,
-44,
-44,
-51,
-51,
-54,
-54,
-56,
-56,
-56,
-56,
-55,
-55,
-51,
-51,
-44,
-44,
-40,
-40,
-33,
-18,
-19,
-8,
-9,
-9,
-2,
10,
7,
20,
19,
30,
30,
30,
36,
48,
45,
45,
54,
54,
58,
58,
57,
57,
61,
61,
57,
57,
53,
53,
51,
39,
43,
32,
35,
23,
24,
13,
15,
3,
3,
-10,
-8,
-20,
-20,
-20,
-30,
-30,
-35,
-46,
-41,
-54,
-52,
-52,
-56,
-56,
-57,
-57,
-56,
-56,
-53,
-53,
-49,
-49,
-44,
-44,
-37,
-37,
-28,
-28,
-21,
-8,
-8,
-8,
1,
14,
10,
21,
21,
32,
32,
32,
37,
49,
49,
49,
54,
54,
58,
58,
58,
58,
60,
60,
57,
57,
54,
54,
49,
49,
43,
31,
31,
31,
22,
10,
14,
-1,
2,
-9,
-8,
-19,
-18,
-30,
-29,
-29,
-39,
-39,
-43,
-43,
-48,
-48,
-55,
-55,
-54,
-54,
-57,
-57,
-54,
-54,
-51,
-51,
-45,
-45,
-36,
-36,
-29,
-29,
-21,
-9,
-9,
2,
-2,
10,
8,
22,
18,
33,
29,
42,
41,
41,
48,
48,
52,
52,
57,
57,
59,
59,
57,
57,
54,
54,
52,
52,
50,
38,
39,
39,
33,
19,
24,
12,
16,
2,
3,
-10,
-9,
-20,
-19,
-19,
-28,
-41,
-38,
-38,
-46,
-46,
-51,
-51,
-53,
-53,
-53,
-53,
-55,
-55,
-51,
-51,
-50,
-50,
-46,
-46,
-40,
-28,
-28,
-28,
-18,
-18,
-10,
4,
4,
4,
11,
22,
21,
21,
29,
41,
39,
39,
44,
44,
54,
54,
60,
60,
61,
61,
59,
59,
57,
57,
54,
54,
48,
48,
42,
42,
32,
20,
20,
20,
16,
1,
3,
-8,
-7,
-19,
-18,
-31,
-25,
-40,
-40,
-40,
-43,
-54,
-49,
-49,
-52,
-52,
-53,
-53,
-58,
-58,
-56,
-56,
-50,
-50,
-43,
-43,
-37,
-37,
-28,
-16,
-17,
-17,
-8,
-8,
1,
12,
12,
24,
24,
35,
33,
33,
43,
43,
49,
49,
50,
50,
58,
58,
58,
58,
57,
57,
55,
55,
56,
56,
49,
49,
41,
29,
31,
20,
21,
21,
13,
2,
3,
-10,
-9,
-24,
-24,
-24,
-33,
-33,
-37,
-37,
-45,
-45,
-51,
-51,
-55,
-55,
-58,
-58,
-56,
-56,
-55,
-55,
-53,
-53,
-45,
-45,
-37,
-24,
-25,
-25,
-16,
-16,
-9,
4,
3,
3,
11,
25,
24,
24,
34,
34,
38,
50,
48,
48,
51,
51,
58,
58,
60,
60,
60,
60,
56,
56,
52,
52,
47,
47,
43,
30,
30,
30,
27,
13,
14,
-2,
-1,
-1,
-9,
-21,
-21,
-21,
-28,
-42,
-42,
-42,
-45,
-45,
-51,
-51,
-52,
-52,
-55,
-55,
-54,
-54,
-55,
-55,
-52,
-52,
-47,
-47,
-41,
-29,
-30,
-30,
-21,
-8,
-11,
6,
5,
5,
13,
27,
27,
27,
32,
32,
40,
40,
48,
48,
52,
52,
57,
57,
59,
59,
60,
60,
57,
57,
51,
51,
45,
45,
40,
27,
30,
19,
22,
9,
9,
9,
4,
-9,
-8,
-21,
-20,
-33,
-32,
-32,
-38,
-38,
-45,
-45,
-49,
-49,
-54,
-54,
-56,
-56,
-54,
-54,
-57,
-57,
-50,
-50,
-44,
-44,
-38,
-38,
-29,
-18,
-19,
-8,
-8,
5,
4,
4,
9,
23,
20,
33,
32,
43,
42,
42,
50,
50,
51,
51,
58,
58,
59,
59,
58,
58,
55,
55,
53,
53,
45,
45,
39,
28,
30,
16,
17,
17,
10,
-1,
-1,
-1,
-9,
-21,
-19,
-30,
-28,
-28,
-38,
-38,
-45,
-45,
-50,
-50,
-54,
-54,
-58,
-58,
-54,
-54,
-53,
-53,
-49,
-49,
-43,
-43,
-36,
-36,
-29,
-29,
-22,
-8,
-9,
4,
2,
17,
16,
16,
21,
33,
32,
32,
42,
42,
50,
50,
54,
54,
55,
55,
59,
59,
58,
58,
58,
58,
53,
53,
46,
35,
39,
28,
34,
22,
25,
7,
10,
-4,
-3,
-3,
-12,
-12,
-17,
-32,
-29,
-40,
-40,
-40,
-48,
-48,
-53,
-53,
-53,
-53,
-57,
-57,
-57,
-57,
-53,
-53,
-50,
-50,
-44,
-44,
-39,
-27,
-30,
-17,
-21,
-7,
-8,
7,
4,
18,
14,
25,
25,
25,
33,
33,
39,
39,
49,
49,
55,
55,
56,
56,
59,
59,
60,
60,
59,
59,
53,
53,
48,
36,
39,
39,
30,
30,
24,
9,
11,
-1,
-1,
-1,
-8,
-21,
-20,
-31,
-31,
-31,
-38,
-38,
-45,
-45,
-53,
-53,
-56,
-56,
-56,
-56,
-56,
-56,
-54,
-54,
-50,
-50,
-41,
-41,
-38,
-27,
-30,
-16,
-16,
-16,
-8,
6,
6,
17,
16,
16,
22,
22,
31,
43,
40,
40,
45,
56,
55,
55,
56,
56,
59,
59,
60,
60,
58,
58,
53,
53,
45,
45,
42,
28,
32,
19,
21,
9,
9,
-3,
1,
-14,
-12,
-12,
-19,
-30,
-29,
-41,
-39,
-39,
-46,
-46,
-50,
-50,
-53,
-53,
-55,
-55,
-57,
-57,
-53,
-53,
-49,
-49,
-45,
-45,
-37,
-37,
-30,
-16,
-18,
-18,
-9,
4,
4,
4,
13,
13,
22,
34,
33,
44,
42,
42,
48,
48,
56,
56,
59,
59,
60,
60,
57,
57,
56,
56,
51,
51,
47,
47,
41,
30,
32,
19,
23,
7,
8,
8,
3,
-10,
-9,
-26,
-23,
-34,
-33,
-33,
-38,
-38,
-44,
-44,
-52,
-52,
-53,
-53,
-56,
-56,
-56,
-56,
-54,
-54,
-49,
-49,
-42,
-42,
-34,
-22,
-26,
-26,
-18,
-7,
-8,
5,
4,
18,
16,
27,
27,
27,
34,
34,
41,
52,
51,
51,
50,
50,
56,
56,
58,
58,
60,
60,
56,
56,
52,
52,
49,
34,
36,
36,
29,
18,
20,
9,
10,
-4,
0,
0,
-9,
-24,
-21,
-34,
-32,
-32,
-38,
-38,
-44,
-44,
-52,
-52,
-53,
-53,
-54,
-54,
-55,
-55,
-54,
-54,
-50,
-50,
-46,
-34,
-35,
-35,
-28,
-16,
-16,
-16,
-8,
6,
3,
18,
17,
17,
21,
33,
32,
45,
43,
43,
49,
49,
53,
53,
59,
59,
60,
60,
61,
61,
55,
55,
50,
50,
44,
44,
38,
38,
28,
28,
20,
8,
8,
-4,
-2,
-2,
-9,
-26,
-23,
-34,
-33,
-33,
-38,
-38,
-48,
-48,
-54,
-54,
-54,
-54,
-55,
-55,
-53,
-53,
-52,
-52,
-52,
-40,
-43,
-43,
-35,
-23,
-24,
-24,
-15,
-15,
-8,
6,
4,
16,
13,
27,
27,
38,
37,
37,
40,
51,
50,
50,
56,
56,
57,
57,
60,
60,
59,
59,
54,
54,
52,
52,
46,
46,
39,
28,
28,
28,
22,
8,
10,
-4,
1,
-10,
-9,
-23,
-23,
-23,
-31,
-43,
-37,
-50,
-47,
-47,
-53,
-53,
-56,
-56,
-58,
-58,
-54,
-54,
-53,
-53,
-49,
-49,
-41,
-41,
-37,
-25,
-29,
-13,
-14,
-14,
-7,
6,
3,
15,
11,
26,
25,
25,
31,
42,
41,
41,
48,
48,
55,
55,
58,
58,
56,
56,
58,
58,
54,
54,
51,
51,
47,
36,
38,
38,
32,
18,
19,
8,
9,
-2,
-2,
-16,
-13,
-27,
-26,
-26,
-32,
-32,
-38,
-38,
-46,
-46,
-53,
-53,
-56,
-56,
-58,
-58,
-56,
-56,
-52,
-52,
-46,
-46,
-41,
-41,
-32,
-32,
-26,
-26,
-18,
-1,
-2,
-2,
5,
18,
16,
16,
24,
37,
35,
35,
40,
51,
50,
50,
54,
54,
59,
59,
60,
60,
58,
58,
57,
57,
54,
43,
45,
45,
38,
27,
28,
28,
20,
6,
8,
-6,
-6,
-18,
-17,
-17,
-22,
-35,
-33,
-33,
-43,
-43,
-44,
-55,
-50,
-50,
-53,
-53,
-55,
-55,
-55,
-55,
-51,
-51,
-49,
-49,
-42,
-42,
-33,
-33,
-25,
-25,
-17,
-17,
-8,
7,
4,
4,
14,
26,
24,
35,
34,
45,
43,
43,
50,
50,
55,
55,
57,
57,
58,
58,
57,
57,
53,
53,
48,
48,
48,
34,
35,
35,
27,
15,
19,
7,
9,
-3,
-2,
-16,
-14,
-14,
-23,
-34,
-34,
-34,
-42,
-42,
-49,
-49,
-52,
-52,
-52,
-52,
-56,
-56,
-53,
-53,
-50,
-50,
-49,
-49,
-40,
-40,
-36,
-24,
-24,
-13,
-14,
-14,
-6,
7,
7,
18,
18,
18,
27,
27,
34,
45,
43,
43,
47,
47,
55,
55,
60,
60,
59,
59,
60,
60,
55,
55,
51,
51,
45,
45,
38,
38,
29,
16,
17,
17,
10,
-5,
-4,
-4,
-10,
-24,
-22,
-35,
-32,
-43,
-43,
-43,
-46,
-46,
-52,
-52,
-53,
-53,
-56,
-56,
-56,
-56,
-55,
-55,
-48,
-48,
-39,
-39,
-32,
-32,
-24,
-13,
-13,
-2,
-3,
-3,
4,
18,
18,
30,
30,
30,
35,
47,
46,
46,
50,
50,
51,
51,
59,
59,
60,
60,
56,
56,
54,
54,
52,
52,
48,
35,
36,
24,
24,
24,
16,
16,
10,
-3,
-2,
-18,
-15,
-28,
-27,
-27,
-35,
-35,
-43,
-43,
-48,
-48,
-51,
-51,
-54,
-54,
-57,
-57,
-56,
-56,
-54,
-54,
-50,
-50,
-42,
-29,
-29,
-29,
-21,
-21,
-13,
-13,
-4,
12,
10,
10,
16,
29,
28,
40,
40,
40,
42,
42,
51,
51,
54,
54,
59,
59,
59,
59,
58,
58,
56,
56,
49,
49,
44,
44,
37,
26,
27,
27,
21,
8,
8,
-6,
-5,
-17,
-15,
-15,
-24,
-24,
-32,
-45,
-45,
-45,
-48,
-48,
-52,
-52,
-54,
-54,
-58,
-58,
-53,
-53,
-54,
-54,
-49,
-49,
-43,
-43,
-37,
-23,
-25,
-14,
-17,
-6,
-8,
10,
8,
8,
16,
31,
30,
30,
35,
35,
44,
44,
48,
48,
56,
56,
59,
59,
60,
60,
60,
60,
56,
56,
50,
50,
43,
43,
34,
23,
28,
15,
15,
15,
7,
7,
-2,
-16,
-15,
-28,
-25,
-37,
-36,
-36,
-42,
-42,
-48,
-48,
-51,
-51,
-54,
-54,
-57,
-57,
-56,
-56,
-54,
-54,
-48,
-48,
-42,
-42,
-34,
-22,
-26,
-14,
-15,
-15,
-5,
9,
8,
8,
15,
28,
24,
38,
38,
38,
46,
46,
52,
52,
54,
54,
59,
59,
58,
58,
59,
59,
55,
55,
50,
50,
43,
43,
34,
34,
26,
12,
13,
13,
4,
4,
-4,
-16,
-15,
-15,
-21,
-34,
-32,
-43,
-42,
-42,
-49,
-49,
-51,
-51,
-56,
-56,
-59,
-59,
-54,
-54,
-51,
-51,
-48,
-48,
-41,
-41,
-32,
-32,
-24,
-24,
-16,
-3,
-4,
7,
7,
21,
20,
20,
27,
38,
35,
46,
45,
45,
51,
51,
56,
56,
56,
56,
56,
56,
57,
57,
55,
55,
50,
50,
43,
32,
34,
34,
26,
26,
17,
2,
4,
-8,
-6,
-19,
-19,
-19,
-22,
-35,
-34,
-45,
-43,
-43,
-52,
-52,
-55,
-55,
-54,
-54,
-56,
-56,
-57,
-57,
-51,
-51,
-45,
-45,
-39,
-39,
-34,
-22,
-24,
-24,
-15,
-1,
-2,
12,
10,
22,
18,
31,
31,
31,
38,
38,
44,
44,
51,
51,
54,
54,
59,
59,
59,
59,
59,
59,
56,
56,
50,
50,
45,
32,
35,
35,
28,
