Data/Output/LOG0000/DS0110.CSV

Memory Length,4000,
Trigger Level,-1.20000e+02,
Source,CH2,
Probe,1.0X,
Vertical Units,V,
Vertical Scale,1.00000e+00,
Vertical Position,0.00000e+00,
Horizontal Units,S,
Horizontal Scale,1.00000e-02,
Horizontal Position,0.0000000e+00,
Horizontal Mode,Main,
Sampling Period,4.00000e-05,
Firmware,V1.14,
Time, ,
Mode,Fast,
Waveform Data,
11,
11,
0,
5,
-9,
-6,
-6,
-16,
-28,
-28,
-28,
-34,
-34,
-38,
-38,
-46,
-46,
-54,
-54,
-52,
-52,
-57,
-57,
-56,
-56,
-52,
-52,
-51,
-51,
-48,
-48,
-44,
-31,
-32,
-32,
-25,
-25,
-16,
-16,
-12,
1,
-1,
12,
9,
22,
21,
21,
30,
30,
37,
37,
45,
45,
50,
50,
55,
55,
58,
58,
59,
59,
59,
59,
56,
56,
56,
56,
50,
50,
44,
33,
36,
36,
28,
17,
19,
8,
8,
8,
0,
0,
-9,
-21,
-19,
-19,
-27,
-39,
-39,
-39,
-42,
-42,
-48,
-48,
-51,
-51,
-54,
-54,
-57,
-57,
-55,
-55,
-54,
-54,
-50,
-50,
-44,
-44,
-40,
-40,
-35,
-22,
-22,
-22,
-14,
-14,
-8,
6,
5,
5,
14,
26,
26,
26,
29,
42,
39,
39,
45,
45,
51,
51,
58,
58,
57,
57,
58,
58,
57,
57,
58,
58,
51,
51,
48,
48,
39,
39,
33,
22,
23,
23,
15,
15,
6,
6,
-2,
-17,
-13,
-24,
-20,
-20,
-30,
-30,
-36,
-36,
-45,
-45,
-48,
-48,
-50,
-50,
-52,
-52,
-56,
-56,
-54,
-54,
-52,
-52,
-49,
-49,
-41,
-41,
-34,
-34,
-30,
-30,
-21,
-21,
-13,
-2,
-3,
10,
5,
19,
19,
19,
28,
28,
36,
36,
43,
43,
45,
45,
53,
53,
57,
57,
59,
59,
61,
61,
58,
58,
53,
53,
49,
49,
44,
44,
35,
35,
29,
29,
24,
10,
10,
10,
2,
-9,
-7,
-7,
-14,
-27,
-26,
-26,
-31,
-44,
-42,
-42,
-48,
-48,
-53,
-53,
-58,
-58,
-54,
-54,
-56,
-56,
-56,
-56,
-53,
-53,
-46,
-46,
-40,
-40,
-36,
-24,
-25,
-13,
-13,
-13,
-8,
4,
1,
13,
13,
13,
22,
22,
26,
39,
36,
47,
42,
42,
49,
49,
52,
52,
57,
57,
60,
60,
59,
59,
55,
55,
53,
53,
50,
50,
42,
42,
36,
36,
28,
28,
19,
19,
10,
-2,
-1,
-1,
-9,
-20,
-20,
-31,
-29,
-40,
-39,
-39,
-41,
-52,
-49,
-49,
-51,
-51,
-56,
-56,
-57,
-57,
-54,
-54,
-54,
-54,
-51,
-51,
-46,
-46,
-40,
-40,
-30,
-30,
-24,
-12,
-15,
-15,
-7,
8,
8,
8,
12,
25,
23,
23,
32,
43,
40,
40,
43,
55,
53,
53,
56,
56,
57,
57,
58,
58,
58,
58,
54,
54,
51,
51,
45,
45,
42,
42,
32,
32,
26,
13,
14,
2,
3,
3,
-3,
-15,
-15,
-15,
-22,
-22,
-30,
-30,
-39,
-39,
-45,
-45,
-49,
-49,
-52,
-52,
-56,
-56,
-56,
-56,
-56,
-56,
-53,
-53,
-50,
-50,
-43,
-43,
-38,
-25,
-29,
-16,
-21,
-10,
-12,
1,
-1,
11,
11,
11,
17,
28,
25,
36,
34,
34,
41,
41,
47,
47,
54,
54,
56,
56,
58,
58,
56,
56,
59,
59,
52,
52,
51,
51,
45,
45,
37,
37,
32,
17,
20,
20,
12,
12,
4,
-8,
-8,
-19,
-19,
-30,
-25,
-36,
-34,
-34,
-40,
-40,
-46,
-46,
-52,
-52,
-53,
-53,
-56,
-56,
-54,
-54,
-57,
-57,
-51,
-51,
-49,
-37,
-38,
-38,
-34,
-23,
-25,
-14,
-17,
-17,
-10,
5,
3,
16,
13,
24,
20,
31,
30,
30,
39,
39,
42,
42,
51,
51,
54,
54,
60,
60,
57,
57,
59,
59,
55,
55,
51,
51,
46,
46,
42,
42,
36,
36,
28,
15,
16,
16,
10,
-1,
-1,
-1,
-8,
-22,
-20,
-32,
-31,
-31,
-34,
-34,
-40,
-52,
-47,
-47,
-53,
-53,
-53,
-53,
-57,
-57,
-56,
-56,
-54,
-54,
-51,
-51,
-42,
-42,
-38,
-38,
-33,
-22,
-24,
-24,
-14,
-14,
-6,
9,
8,
8,
16,
27,
26,
26,
34,
34,
39,
39,
47,
47,
54,
54,
55,
55,
58,
58,
59,
59,
57,
57,
57,
57,
50,
50,
46,
46,
38,
38,
34,
22,
26,
15,
15,
15,
8,
-7,
-7,
-18,
-15,
-15,
-24,
-24,
-32,
-32,
-42,
-42,
-44,
-44,
-49,
-49,
-53,
-53,
-53,
-53,
-58,
-58,
-53,
-53,
-52,
-52,
-46,
-46,
-46,
-35,
-37,
-37,
-30,
-19,
-21,
-9,
-10,
-10,
-3,
11,
7,
21,
18,
30,
30,
30,
35,
46,
43,
43,
48,
48,
54,
54,
57,
57,
58,
58,
59,
59,
60,
60,
56,
56,
52,
52,
45,
45,
41,
28,
29,
29,
25,
12,
16,
1,
5,
-9,
-8,
-8,
-14,
-28,
-25,
-37,
-35,
-35,
-41,
-41,
-46,
-46,
-51,
-51,
-55,
-55,
-56,
-56,
-55,
-55,
-56,
-56,
-51,
-51,
-45,
-45,
-40,
-40,
-33,
-33,
-28,
-16,
-17,
-17,
-7,
4,
3,
15,
14,
26,
26,
26,
29,
40,
38,
38,
45,
45,
49,
49,
53,
53,
59,
59,
57,
57,
59,
59,
56,
56,
54,
54,
50,
50,
45,
32,
33,
33,
24,
24,
17,
6,
6,
-5,
-1,
-15,
-14,
-14,
-21,
-21,
-30,
-30,
-34,
-34,
-41,
-41,
-49,
-49,
-54,
-54,
-56,
-56,
-55,
-55,
-57,
-57,
-53,
-53,
-48,
-48,
-48,
-37,
-38,
-38,
-33,
-21,
-24,
-13,
-16,
-2,
-5,
7,
7,
7,
15,
27,
25,
25,
32,
32,
40,
40,
45,
45,
54,
54,
53,
53,
57,
57,
60,
60,
59,
59,
57,
57,
50,
50,
46,
46,
37,
37,
32,
20,
23,
12,
13,
2,
5,
-6,
-4,
-4,
-13,
-28,
-27,
-27,
-32,
-32,
-40,
-40,
-46,
-46,
-48,
-48,
-53,
-53,
-58,
-58,
-54,
-54,
-54,
-54,
-55,
-55,
-49,
-49,
-43,
-43,
-36,
-36,
-31,
-17,
-17,
-17,
-10,
-10,
-4,
11,
10,
10,
19,
30,
26,
39,
36,
36,
40,
40,
46,
46,
51,
51,
58,
58,
58,
58,
57,
57,
58,
58,
53,
53,
51,
51,
47,
35,
36,
36,
29,
29,
22,
9,
12,
1,
4,
-9,
-8,
-8,
-16,
-28,
-24,
-37,
-36,
-36,
-41,
-41,
-48,
-48,
-54,
-54,
-56,
-56,
-54,
-54,
-56,
-56,
-53,
-53,
-52,
-52,
-48,
-48,
-42,
-42,
-32,
-32,
-24,
-13,
-14,
-14,
-9,
4,
1,
16,
14,
25,
24,
24,
31,
31,
37,
37,
45,
45,
49,
49,
53,
53,
59,
59,
59,
59,
58,
58,
55,
55,
52,
52,
50,
50,
40,
40,
35,
35,
26,
12,
17,
5,
5,
5,
-2,
-2,
-9,
-24,
-23,
-23,
-28,
-28,
-37,
-48,
-43,
-43,
-46,
-46,
-51,
-51,
-55,
-55,
-56,
-56,
-57,
-57,
-52,
-52,
-50,
-50,
-46,
-34,
-38,
-38,
-32,
-20,
-20,
-20,
-12,
-12,
-3,
-3,
6,
17,
16,
27,
26,
26,
32,
44,
41,
41,
46,
46,
52,
52,
54,
54,
57,
57,
60,
60,
59,
59,
58,
58,
50,
50,
45,
45,
42,
42,
34,
21,
22,
22,
14,
14,
6,
-5,
-5,
-5,
-12,
-24,
-23,
-23,
-31,
-31,
-37,
-37,
-43,
-43,
-48,
-48,
-53,
-53,
-58,
-58,
-53,
-53,
-53,
-53,
-51,
-51,
-48,
-48,
-41,
-41,
-39,
-25,
-26,
-26,
-17,
-17,
-10,
-10,
-1,
11,
8,
21,
16,
31,
30,
30,
36,
36,
45,
45,
48,
48,
56,
56,
59,
59,
57,
57,
60,
60,
57,
57,
54,
54,
48,
48,
45,
34,
34,
34,
31,
31,
21,
21,
12,
0,
1,
1,
-8,
-19,
-15,
-28,
-26,
-26,
-33,
-33,
-41,
-41,
-49,
-49,
-52,
-52,
-55,
-55,
-55,
-55,
-56,
-56,
-55,
-55,
-51,
-51,
-45,
-45,
-39,
-39,
-30,
-30,
-27,
-13,
-14,
-14,
-7,
7,
6,
6,
15,
15,
22,
36,
34,
34,
42,
42,
44,
44,
51,
51,
52,
52,
60,
60,
60,
60,
61,
61,
56,
56,
53,
53,
48,
48,
40,
40,
33,
33,
26,
26,
18,
5,
6,
6,
-3,
-3,
-9,
-23,
-22,
-22,
-29,
-40,
-37,
-37,
-44,
-44,
-48,
-48,
-53,
-53,
-55,
-55,
-56,
-56,
-55,
-55,
-51,
-51,
-48,
-48,
-43,
-43,
-38,
-38,
-31,
-18,
-21,
-21,
-15,
-15,
-7,
10,
9,
9,
16,
29,
28,
28,
31,
42,
42,
42,
49,
49,
54,
54,
55,
55,
58,
58,
57,
57,
58,
58,
55,
55,
50,
50,
44,
44,
42,
29,
34,
22,
24,
11,
12,
0,
3,
-9,
-6,
-18,
-18,
-18,
-25,
-25,
-32,
-32,
-40,
-40,
-46,
-46,
-53,
-53,
-56,
-56,
-58,
-58,
-58,
-58,
-53,
-53,
-53,
-53,
-49,
-49,
-44,
-44,
-35,
-35,
-29,
-17,
-18,
-18,
-12,
0,
-1,
12,
11,
11,
21,
21,
30,
30,
34,
34,
44,
44,
49,
49,
55,
55,
58,
58,
60,
60,
58,
58,
58,
58,
56,
45,
46,
46,
46,
35,
36,
36,
27,
27,
22,
10,
11,
-2,
-2,
-2,
-9,
-21,
-20,
-20,
-28,
-28,
-34,
-34,
-42,
-42,
-50,
-50,
-54,
-54,
-55,
-55,
-54,
-54,
-56,
-56,
-54,
-54,
-52,
-52,
-46,
-46,
-39,
-39,
-35,
-35,
-28,
-16,
-17,
-17,
-8,
5,
2,
15,
14,
14,
23,
23,
28,
41,
40,
40,
47,
47,
48,
48,
52,
52,
59,
59,
59,
59,
61,
61,
59,
59,
51,
51,
49,
49,
39,
39,
33,
33,
26,
11,
12,
12,
4,
4,
-1,
-13,
-13,
-24,
-20,
-34,
-33,
-33,
-37,
-37,
-43,
-43,
-47,
-47,
-53,
-53,
-56,
-56,
-56,
-56,
-56,
-56,
-53,
-53,
-49,
-49,
-45,
-45,
-39,
-39,
-29,
-29,
-23,
-12,
-16,
3,
0,
11,
10,
10,
14,
27,
24,
35,
33,
33,
43,
43,
48,
48,
53,
53,
55,
55,
60,
60,
60,
60,
58,
58,
57,
57,
50,
50,
46,
46,
37,
37,
31,
31,
25,
11,
15,
3,
5,
5,
-4,
-21,
-20,
-20,
-27,
-38,
-36,
-36,
-41,
-41,
-47,
-47,
-51,
-51,
-52,
-52,
-60,
-60,
-54,
-54,
-57,
-57,
-51,
-51,
-46,
-46,
-43,
-32,
-35,
-24,
-28,
-16,
-17,
-17,
-11,
3,
-1,
12,
12,
12,
18,
18,
28,
28,
35,
47,
43,
43,
51,
51,
54,
54,
60,
60,
58,
58,
60,
60,
57,
57,
55,
55,
49,
49,
44,
44,
37,
37,
31,
19,
19,
8,
8,
8,
0,
0,
-8,
-23,
-18,
-29,
-25,
-38,
-36,
-36,
-40,
-40,
-48,
-48,
-51,
-51,
-54,
-54,
-56,
-56,
-56,
-56,
-55,
-55,
-51,
-51,
-45,
-45,
-38,
-38,
-32,
-20,
-25,
-12,
-13,
-13,
-7,
4,
3,
15,
11,
25,
23,
35,
35,
35,
38,
38,
46,
46,
53,
53,
54,
54,
57,
57,
60,
60,
59,
59,
54,
54,
54,
54,
47,
47,
43,
32,
33,
33,
25,
25,
17,
17,
7,
7,
-1,
-1,
-9,
-23,
-21,
-35,
-33,
-33,
-38,
-38,
-45,
-45,
-49,
-49,
-55,
-55,
-56,
-56,
-56,
-56,
-54,
-54,
-54,
-54,
-48,
-48,
-40,
-40,
-36,
-36,
-31,
-31,
-22,
-22,
-14,
-3,
-3,
8,
7,
19,
18,
18,
26,
26,
35,
35,
43,
43,
48,
48,
56,
56,
59,
59,
58,
58,
58,
58,
57,
57,
56,
56,
50,
50,
48,
35,
38,
38,
30,
30,
22,
11,
12,
12,
5,
-9,
-8,
-8,
-15,
-26,
-24,
-38,
-35,
-35,
-43,
-43,
-46,
-46,
-52,
-52,
-55,
-55,
-58,
-58,
-54,
-54,
-55,
-55,
-52,
-52,
-45,
-45,
-43,
-43,
-34,
-34,
-26,
-13,
-15,
-15,
-8,
-8,
1,
12,
9,
23,
23,
23,
30,
30,
36,
36,
42,
42,
48,
48,
55,
55,
58,
58,
59,
59,
59,
59,
56,
56,
52,
52,
49,
49,
43,
43,
36,
36,
27,
27,
18,
18,
9,
9,
0,
0,
-9,
-20,
-19,
-19,
-27,
-39,
-39,
-39,
-44,
-44,
-48,
-48,
-53,
-53,
-54,
-54,
-57,
-57,
-56,
-56,
-52,
-52,
-49,
-49,
-44,
-44,
-41,
-29,
-33,
-20,
-24,
-12,
-14,
-2,
-4,
7,
6,
6,
12,
24,
23,
23,
31,
42,
39,
39,
45,
45,
51,
51,
57,
57,
58,
58,
58,
58,
57,
57,
56,
56,
52,
52,
48,
48,
40,
40,
32,
20,
21,
21,
14,
3,
6,
6,
-2,
-13,
-13,
-25,
-22,
-34,
-31,
-42,
-41,
-41,
-46,
-46,
-50,
-50,
-54,
-54,
-58,
-58,
-57,
-57,
-57,
-57,
-53,
-53,
-50,
-50,
-45,
-45,
-36,
-36,
-29,
-29,
-23,
-11,
-15,
-1,
-1,
10,
10,
10,
16,
28,
28,
28,
33,
33,
42,
42,
47,
47,
53,
53,
53,
53,
57,
57,
58,
58,
58,
58,
55,
55,
51,
51,
43,
43,
38,
38,
31,
20,
25,
10,
14,
-1,
4,
-8,
-5,
-18,
-17,
-29,
-29,
-29,
-33,
-33,
-42,
-42,
-46,
-46,
-52,
-52,
-54,
-54,
-56,
-56,
-56,
-56,
-53,
-53,
-54,
-54,
-48,
-48,
-43,
-31,
-31,
-31,
-27,
-16,
-16,
-16,
-9,
7,
6,
6,
16,
16,
23,
23,
29,
40,
38,
38,
44,
44,
49,
49,
56,
56,
58,
58,
59,
59,
59,
59,
56,
56,
52,
52,
49,
49,
40,
40,
34,
34,
27,
27,
17,
17,
9,
-3,
-2,
-2,
-9,
-22,
-20,
-20,
-27,
-38,
-38,
-38,
-45,
-45,
-51,
-51,
-53,
-53,
-53,
-53,
-58,
-58,
-58,
-58,
-52,
-52,
-52,
-52,
-45,
-45,
-39,
-28,
-32,
-32,
-24,
-24,
-17,
0,
0,
0,
8,
8,
15,
15,
23,
23,
30,
41,
39,
39,
48,
48,
53,
53,
57,
57,
58,
58,
58,
58,
59,
59,
58,
58,
54,
54,
50,
38,
40,
40,
33,
33,
25,
13,
17,
2,
4,
4,
-6,
-6,
-13,
-13,
-21,
-33,
-32,
-32,
-37,
-48,
-48,
-48,
-49,
-49,
-56,
-56,
-52,
-52,
-55,
-55,
-55,
-55,
-53,
-53,
-49,
-49,
-40,
-40,
-37,
-26,
-26,
-26,
-19,
-19,
-13,
-1,
-1,
-1,
7,
20,
19,
19,
26,
26,
36,
36,
41,
41,
51,
51,
51,
51,
56,
56,
58,
58,
58,
58,
57,
57,
56,
56,
51,
51,
42,
42,
36,
36,
32,
18,
21,
10,
11,
0,
1,
1,
-6,
-20,
-17,
-28,
-27,
-27,
-33,
-44,
-43,
-43,
-46,
-46,
-53,
-53,
-54,
-54,
-55,
-55,
-55,
-55,
-55,
-55,
-52,
-52,
-47,
-47,
-41,
-41,
-33,
-33,
-25,
-14,
-14,
-14,
-9,
3,
-1,
14,
9,
23,
17,
32,
31,
31,
36,
47,
47,
47,
54,
54,
55,
55,
56,
56,
59,
59,
58,
58,
56,
56,
55,
55,
51,
38,
41,
41,
32,
32,
26,
15,
16,
4,
4,
4,
-3,
-3,
-8,
-24,
-24,
-24,
-30,
-30,
-36,
-36,
-42,
-42,
-47,
-47,
-51,
-51,
-56,
-56,
-58,
-58,
-56,
-56,
-56,
-56,
-49,
-49,
-44,
-44,
-41,
-41,
-32,
-32,
-23,
-12,
-13,
-13,
-7,
8,
4,
18,
17,
17,
26,
26,
33,
33,
43,
43,
48,
48,
48,
48,
56,
56,
56,
56,
58,
58,
58,
58,
55,
55,
53,
53,
48,
36,
39,
39,
33,
22,
27,
12,
13,
13,
8,
-4,
-4,
-4,
-14,
-14,
-21,
-33,
-32,
-32,
-38,
-38,
-46,
-46,
-51,
-51,
-56,
-56,
-56,
-56,
-58,
-58,
-52,
-52,
-53,
-53,
-49,
-49,
-41,
-41,
-36,
-36,
-28,
-28,
-21,
-9,
-9,
-9,
-1,
10,
8,
19,
17,
28,
26,
37,
36,
36,
41,
41,
50,
50,
53,
53,
58,
58,
57,
57,
59,
59,
58,
58,
54,
54,
51,
51,
44,
44,
37,
37,
28,
28,
20,
20,
13,
-1,
-1,
-1,
-6,
-18,
-18,
-30,
-27,
-27,
-30,
-44,
-44,
-44,
-46,
-46,
-50,
-50,
-58,
-58,
-58,
-58,
-57,
-57,
-54,
-54,
-50,
-50,
-46,
-46,
-42,
-42,
-33,
-33,
-28,
-13,
-14,
-14,
-10,
6,
4,
15,
13,
13,
23,
23,
30,
41,
41,
41,
44,
44,
50,
50,
55,
55,
58,
58,
59,
59,
60,
60,
56,
56,
50,
50,
45,
45,
43,
32,
33,
33,
27,
27,
20,
7,
10,
-2,
-1,
-14,
-14,
-14,
-20,
-20,
-29,
-29,
-37,
-37,
-44,
-44,
-49,
-49,
-53,
-53,
-53,
-53,
-55,
-55,
-54,
-54,
-51,
-51,
-48,
-48,
-44,
-44,
-38,
-38,
-31,
-31,
-24,
-9,
-9,
-9,
-4,
7,
7,
7,
16,
16,
21,
38,
33,
33,
43,
43,
47,
47,
51,
51,
56,
56,
58,
58,
59,
59,
56,
56,
57,
57,
50,
50,
47,
36,
36,
36,
31,
19,
20,
20,
11,
11,
9,
-5,
-4,
-16,
-16,
-16,
-21,
-33,
-32,
-32,
-35,
-48,
-46,
-46,
-53,
-53,
-53,
-53,
-55,
-55,
-54,
-54,
-53,
-53,
-51,
-51,
-49,
-49,
-45,
-34,
-38,
-26,
-26,
-26,
-19,
-19,
-10,
-10,
-4,
10,
8,
19,
17,
28,
27,
38,
38,
38,
43,
43,
49,
49,
56,
56,
55,
55,
60,
60,
58,
58,
56,
56,
54,
54,
52,
52,
45,
45,
36,
36,
28,
28,
20,
8,
9,
9,
4,
-9,
-6,
-19,
-16,
-27,
-26,
-37,
-35,
-35,
-41,
-41,
-50,
-50,
-49,
-49,
-57,
-57,
-57,
-57,
-56,
-56,
-55,
-55,
-51,
-51,
-49,
-38,
-38,
-38,
-34,
-34,
-25,
-25,
-17,
-17,
-8,
4,
2,
14,
8,
23,
21,
21,
29,
29,
37,
37,
44,
44,
51,
51,
58,
58,
60,
60,
57,
57,
58,
58,
57,
57,
53,
53,
48,
48,
42,
42,
33,
33,
28,
16,
16,
16,
10,
-3,
-3,
-3,
-9,
-20,
-17,
-29,
-28,
-28,
-36,
-36,
-42,
-42,
-50,
-50,
-52,
-52,
-54,
-54,
-53,
-53,
-56,
-56,
-57,
-57,
-53,
-42,
-43,
-43,
-39,
-39,
-30,
-18,
-20,
-20,
-13,
-13,
-6,
8,
3,
16,
16,
28,
24,
35,
35,
35,
43,
43,
49,
49,
52,
52,
59,
59,
56,
56,
58,
58,
58,
58,
59,
48,
50,
50,
45,
45,
39,
39,
32,
32,
24,
24,
14,
1,
3,
3,
-6,
-6,
-14,
-26,
-25,
-25,
-32,
-32,
-40,
-40,
-45,
-45,
-53,
-53,
-52,
-52,
-56,
-56,
-58,
-58,
-56,
-56,
-51,
-51,
-46,
-46,
-43,
-43,
-33,
-33,
-26,
-26,
-21,
-9,
-9,
2,
-2,
12,
8,
19,
18,
29,
28,
39,
38,
38,
43,
43,
49,
49,
54,
54,
57,
57,
58,
58,
60,
60,
55,
55,
51,
51,
50,
50,
44,
44,
37,
37,
28,
17,
17,
6,
6,
6,
0,
0,
-9,
-21,
-19,
-30,
-28,
-28,
-35,
-35,
-40,
-40,
-48,
-48,
-51,
-51,
-56,
-56,
-55,
-55,
-57,
-57,
-56,
-56,
-53,
-53,
-46,
-46,
-37,
-37,
-37,
-24,
-24,
-24,
-16,
-16,
-7,
4,
1,
15,
12,
12,
21,
32,
28,
41,
40,
40,
45,
45,
51,
51,
55,
55,
57,
57,
58,
58,
57,
57,
57,
57,
53,
53,
47,
47,
43,
32,
32,
32,
28,
16,
21,
6,
7,
-4,
-3,
-3,
-9,
-23,
-20,
-31,
-28,
-40,
-37,
-37,
-44,
-44,
-47,
-47,
-54,
-54,
-54,
-54,
-56,
-56,
-60,
-60,
-54,
-54,
-49,
-49,
-44,
-44,
-36,
-36,
-32,
-20,
-25,
-12,
-14,
-3,
-3,
8,
8,
20,
19,
19,
25,
36,
31,
44,
41,
41,
49,
49,
52,
52,
57,
57,
58,
58,
59,
59,
57,
57,
56,
56,
51,
51,
45,
45,
38,
38,
30,
19,
22,
22,
12,
12,
6,
-6,
-6,
-19,
-17,
-28,
-25,
-25,
-32,
-32,
-37,
-49,
-48,
-48,
-49,
-49,
-54,
-54,
-56,
-56,
-54,
-54,
-54,
-54,
-52,
-52,
-49,
-49,
-41,
-41,
-31,
-31,
-28,
-16,
-18,
-7,
-8,
-8,
-1,
12,
12,
12,
20,
20,
29,
29,
35,
47,
46,
46,
50,
50,
54,
54,
57,
57,
57,
57,
60,
60,
56,
56,
52,
52,
52,
52,
44,
44,
39,
28,
28,
17,
18,
18,
13,
2,
2,
-10,
-9,
-21,
-18,
-18,
-23,
-37,
-36,
-36,
-42,
-42,
-48,
-48,
-51,
-51,
-54,
-54,
-56,
-56,
-58,
-58,
-55,
-55,
-54,
-43,
-46,
-35,
-37,
-37,
-30,
-30,
-22,
-22,
-14,
-14,
-8,
7,
7,
7,
16,
16,
20,
33,
28,
39,
38,
38,
45,
45,
51,
51,
55,
55,
59,
59,
58,
58,
59,
59,
57,
57,
52,
52,
48,
48,
42,
30,
32,
32,
26,
14,
19,
2,
4,
4,
-3,
-3,
-9,
-22,
-21,
-21,
-29,
-29,
-36,
-36,
-42,
-42,
-51,
-51,
-52,
-52,
-55,
-55,
-59,
-59,
-57,
-57,
-54,
-54,
-50,
-50,
-44,
-44,
-39,
-28,
-30,
-17,
-19,
-19,
-10,
-10,
0,
0,
7,
19,
15,
29,
29,
29,
35,
35,
42,
42,
46,
46,
55,
55,
59,
59,
59,
59,
58,
58,
58,
58,
57,
57,
53,
53,
48,
36,
39,
28,
34,
20,
22,
11,
14,
0,
2,
-9,
-7,
-7,
-16,
-27,
-25,
-25,
-33,
-33,
-38,
-38,
-45,
-45,
-49,
-49,
-53,
-53,
-56,
-56,
-58,
-58,
-56,
-56,
-52,
-52,
-48,
-48,
-39,
-39,
-32,
-32,
-24,
-24,
-18,
-7,
-8,
3,
-1,
13,
11,
11,
19,
19,
28,
40,
38,
38,
43,
43,
50,
50,
53,
53,
59,
59,
58,
58,
59,
59,
56,
56,
55,
55,
48,
48,
43,
32,
35,
35,
27,
27,
20,
20,
12,
0,
3,
-9,
-7,
-21,
-20,
-31,
-30,
-30,
-36,
-36,
-45,
-45,
-47,
-47,
-52,
-52,
-56,
-56,
-56,
-56,
-57,
-57,
-54,
-54,
-53,
-53,
-47,
-47,
-39,
-39,
-33,
-21,
-24,
-24,
-16,
-16,
-8,
5,
2,
15,
15,
15,
20,
32,
30,
41,
40,
40,
48,
48,
53,
53,
54,
54,
57,
57,
56,
56,
59,
59,
54,
54,
52,
52,
48,
48,
39,
39,
34,
23,
23,
23,
17,
4,
6,
-6,
-5,
-5,
-10,
-23,
-21,
-33,
-33,
-33,
-38,
-38,
-44,
-44,
-50,
-50,
-53,
-53,
-57,
-57,
-58,
-58,
-56,
-56,
-54,
-54,
-48,
-48,
-46,
-35,
-36,
-36,
-30,
-19,
-20,
-9,
-11,
-11,
-6,
7,
4,
17,
15,
26,
23,
36,
35,
35,
42,
42,
50,
50,
51,
51,
55,
55,
57,
57,
58,
58,
58,
58,
56,
56,
51,
51,
47,
36,
39,
39,
32,
32,
24,
12,
13,
0,
1,
1,
-4,
-22,
-22,
-22,
-30,
-30,
-31,
-31,
-40,
-40,
-46,
-46,
-52,
-52,
-54,
-54,
-55,
-55,
-54,
-54,
-53,
-53,
-50,
-50,
-48,
-48,
-43,
-31,
-35,
-23,
-24,
-24,
-19,
-8,
-10,
3,
2,
2,
11,
11,
17,
33,
31,
31,
40,
40,
43,
43,
49,
49,
54,
54,
60,
60,
58,
58,
60,
60,
59,
59,
53,
53,
48,
48,
42,
42,
38,
26,
26,
26,
20,
8,
8,
8,
-1,
-1,
-8,
-22,
-18,
-29,
-27,
-27,
-35,
-46,
-46,
-46,
-49,
-49,
-53,
-53,
-58,
-58,
-57,
-57,
-57,
-57,
-53,
-53,
-53,
-53,
-44,
-44,
-40,
-40,
-31,
-20,
-24,
-13,
-16,
-2,
-3,
-3,
3,
16,
15,
15,
20,
32,
31,
42,
41,
41,
42,
53,
53,
53,
56,
56,
58,
58,
59,
59,
58,
58,
56,
56,
53,
53,
48,
48,
42,
42,
34,
34,
25,
25,
17,
6,
8,
-4,
0,
0,
-9,
-24,
-24,
-24,
-31,
-31,
-37,
-37,
-45,
-45,
-47,
-47,
-54,
-54,
-54,
-54,
-56,
-56,
-54,
-54,
-52,
-52,
-51,
-51,
-42,
-42,
-36,
-36,
-30,
-18,
-19,
-7,
-10,
1,
-1,
11,
9,
9,
18,
18,
27,
27,
33,
33,
39,
39,
49,
49,
53,
53,
55,
55,
60,
60,
59,
59,
57,
57,
56,
56,
50,
50,
45,
45,
38,
38,
33,
20,
20,
20,
13,
2,
2,
2,
-8,
-8,
-15,
-15,
-22,
-33,
-32,
-32,
-40,
-40,
-48,
-48,
-51,
-51,
-55,
-55,
-54,
-54,
-55,
-55,
-54,
-54,
-52,
-52,
-44,
-44,
-38,
-38,
-38,
-25,
-28,
-13,
-16,
-16,
-8,
-8,
0,
11,
9,
20,
19,
30,
29,
29,
36,
36,
43,
43,
50,
50,
55,
55,
59,
59,
58,
58,
59,
59,
57,
57,
53,
53,
47,
47,
42,
42,
39,
26,
28,
17,
21,
5,
10,
-2,
-2,
-2,
-9,
-21,
-20,
-20,
-26,
-38,
-38,
-38,
-41,
-41,
-46,
-46,
-53,
-53,
-59,
-59,
-54,
-54,
-58,
-58,
-54,
-54,
-50,
-50,
-45,
-45,
-37,
-37,
-32,
-20,
-20,
-20,
-17,
-6,
-8,
6,
5,
19,
18,
18,
24,
24,
32,
32,
38,
38,
48,
48,
53,
53,
53,
53,
56,
56,
60,
60,
58,
58,
55,
55,
53,
42,
47,
36,
41,
30,
30,
30,
25,
25,
15,
15,
7,
-5,
-2,
-17,
-16,
-16,
-22,
-22,
-32,
-32,
-40,
-40,
-45,
-45,
-50,
-50,
-55,
-55,
-56,
-56,
-54,
-54,
-56,
-56,
-52,
-52,
-53,
-42,
-46,
-34,
-36,
-36,
-26,
-26,
-18,
-18,
-13,
1,
-1,
12,
10,
10,
20,
20,
29,
29,
36,
36,
42,
42,
47,
47,
54,
54,
57,
57,
60,
60,
59,
59,
59,
59,
56,
56,
52,
52,
42,
42,
39,
28,
29,
29,
21,
10,
11,
0,
0,
0,
-9,
-9,
-18,
-18,
-27,
-27,
-32,
-44,
-41,
-41,
-46,
-46,
-52,
-52,
-54,
-54,
-57,
-57,
-57,
-57,
-57,
-57,
-53,
-53,
-47,
-47,
-40,
-40,
-34,
-34,
-25,
-25,
-18,
-7,
-8,
4,
4,
4,
10,
10,
19,
31,
29,
40,
38,
38,
44,
44,
51,
51,
53,
53,
60,
60,
56,
56,
58,
58,
58,
58,
50,
50,
46,
46,
43,
43,
34,
34,
28,
15,
15,
15,
9,
-4,
0,
0,
-8,
-20,
-18,
