Data/Output/LOG0000/DS0100.CSV

Memory Length,4000,
Trigger Level,-1.20000e+02,
Source,CH2,
Probe,1.0X,
Vertical Units,V,
Vertical Scale,1.00000e+00,
Vertical Position,0.00000e+00,
Horizontal Units,S,
Horizontal Scale,1.00000e-02,
Horizontal Position,0.0000000e+00,
Horizontal Mode,Main,
Sampling Period,4.00000e-05,
Firmware,V1.14,
Time, ,
Mode,Fast,
Waveform Data,
-47,
-47,
-47,
-53,
-53,
-53,
-53,
-55,
-55,
-60,
-60,
-54,
-54,
-50,
-50,
-50,
-50,
-46,
-46,
-40,
-40,
-36,
-36,
-28,
-28,
-18,
-18,
-11,
0,
-2,
-2,
5,
18,
18,
18,
23,
34,
33,
33,
37,
37,
43,
43,
49,
49,
53,
53,
55,
55,
55,
55,
60,
60,
57,
57,
59,
59,
53,
53,
51,
51,
44,
44,
39,
39,
33,
21,
22,
22,
20,
8,
9,
-2,
-1,
-1,
-8,
-8,
-14,
-26,
-25,
-25,
-33,
-33,
-36,
-36,
-44,
-44,
-49,
-49,
-53,
-53,
-53,
-53,
-53,
-53,
-56,
-56,
-53,
-53,
-51,
-51,
-47,
-47,
-42,
-42,
-40,
-40,
-30,
-30,
-28,
-16,
-20,
-8,
-8,
-8,
-1,
-1,
5,
19,
14,
26,
22,
34,
30,
41,
41,
41,
43,
43,
50,
50,
54,
54,
57,
57,
61,
61,
59,
59,
59,
59,
56,
56,
51,
51,
51,
51,
44,
44,
38,
38,
31,
31,
23,
11,
11,
11,
7,
7,
-1,
-13,
-10,
-22,
-22,
-22,
-27,
-27,
-33,
-33,
-40,
-40,
-44,
-44,
-46,
-46,
-52,
-52,
-57,
-57,
-55,
-55,
-57,
-57,
-55,
-55,
-54,
-54,
-46,
-46,
-45,
-45,
-37,
-26,
-30,
-30,
-21,
-21,
-13,
-13,
-9,
4,
2,
2,
8,
20,
20,
20,
27,
27,
30,
43,
40,
40,
47,
47,
51,
51,
58,
58,
57,
57,
58,
58,
61,
61,
59,
59,
57,
57,
51,
51,
50,
50,
42,
42,
37,
37,
29,
18,
22,
22,
15,
2,
4,
4,
-4,
-4,
-9,
-20,
-17,
-30,
-30,
-30,
-35,
-35,
-39,
-39,
-46,
-46,
-50,
-50,
-52,
-52,
-56,
-56,
-57,
-57,
-56,
-56,
-55,
-55,
-54,
-54,
-47,
-47,
-42,
-42,
-37,
-37,
-31,
-31,
-23,
-23,
-17,
-17,
-8,
4,
4,
4,
12,
12,
16,
30,
27,
27,
33,
44,
41,
41,
46,
46,
52,
52,
53,
53,
58,
58,
59,
59,
58,
58,
57,
57,
56,
56,
49,
49,
46,
46,
39,
39,
35,
35,
26,
26,
19,
19,
14,
2,
5,
-6,
-5,
-16,
-15,
-15,
-21,
-33,
-31,
-31,
-37,
-37,
-39,
-39,
-47,
-47,
-50,
-50,
-54,
-54,
-54,
-54,
-58,
-58,
-55,
-55,
-54,
-54,
-51,
-51,
-45,
-45,
-41,
-41,
-35,
-35,
-30,
-19,
-21,
-10,
-10,
-10,
-4,
-4,
4,
4,
13,
13,
21,
21,
29,
29,
36,
36,
41,
41,
47,
47,
54,
54,
54,
54,
58,
58,
56,
56,
58,
58,
58,
58,
55,
55,
50,
50,
46,
46,
37,
37,
35,
35,
26,
14,
15,
15,
11,
-2,
-2,
-2,
-8,
-8,
-12,
-24,
-21,
-32,
-29,
-29,
-38,
-38,
-42,
-42,
-50,
-50,
-52,
-52,
-56,
-56,
-57,
-57,
-55,
-55,
-54,
-54,
-52,
-52,
-52,
-52,
-47,
-47,
-40,
-40,
-31,
-31,
-26,
-26,
-18,
-18,
-10,
-10,
-2,
-2,
2,
18,
18,
18,
23,
23,
31,
31,
36,
36,
43,
43,
47,
47,
53,
53,
57,
57,
60,
60,
59,
59,
58,
58,
57,
57,
58,
47,
52,
52,
46,
46,
37,
37,
32,
32,
25,
14,
14,
14,
5,
5,
1,
1,
-8,
-8,
-18,
-18,
-21,
-32,
-32,
-32,
-38,
-38,
-42,
-42,
-48,
-48,
-50,
-50,
-58,
-58,
-56,
-56,
-55,
-55,
-53,
-53,
-53,
-53,
-47,
-47,
-45,
-45,
-41,
-41,
-34,
-23,
-28,
-16,
-19,
-8,
-10,
-10,
-1,
11,
8,
19,
19,
19,
25,
25,
32,
32,
38,
38,
46,
46,
50,
50,
53,
53,
59,
59,
59,
59,
59,
59,
60,
60,
55,
55,
54,
54,
50,
50,
44,
44,
36,
36,
34,
22,
24,
12,
15,
3,
8,
-3,
1,
-10,
-9,
-20,
-20,
-20,
-22,
-35,
-34,
-34,
-41,
-41,
-44,
-44,
-50,
-50,
-51,
-51,
-53,
-53,
-54,
-54,
-55,
-55,
-53,
-53,
-50,
-50,
-50,
-50,
-41,
-41,
-40,
-40,
-34,
-22,
-23,
-23,
-16,
-16,
-10,
2,
1,
1,
8,
8,
17,
17,
24,
24,
32,
32,
40,
40,
44,
44,
52,
52,
57,
57,
60,
60,
58,
58,
59,
59,
56,
56,
57,
57,
52,
52,
49,
49,
43,
43,
38,
27,
27,
27,
26,
12,
17,
1,
6,
-5,
-5,
-5,
-10,
-10,
-17,
-29,
-28,
-28,
-33,
-33,
-38,
-50,
-47,
-47,
-53,
-53,
-51,
-51,
-54,
-54,
-56,
-56,
-61,
-61,
-52,
-52,
-53,
-53,
-46,
-46,
-41,
-41,
-36,
-36,
-28,
-28,
-24,
-11,
-12,
-12,
-8,
4,
2,
14,
11,
11,
16,
28,
27,
27,
35,
35,
41,
41,
50,
50,
53,
53,
57,
57,
58,
58,
60,
60,
60,
60,
56,
56,
56,
56,
51,
51,
50,
39,
40,
40,
35,
35,
31,
17,
20,
9,
11,
11,
3,
3,
-4,
-4,
-12,
-12,
-21,
-21,
-27,
-27,
-36,
-36,
-41,
-41,
-45,
-45,
-51,
-51,
-54,
-54,
-59,
-59,
-55,
-55,
-56,
-56,
-53,
-53,
-52,
-52,
-46,
-46,
-44,
-44,
-37,
-37,
-32,
-20,
-24,
-13,
-14,
-14,
-9,
6,
1,
15,
14,
14,
19,
32,
31,
31,
34,
34,
41,
41,
45,
45,
52,
52,
56,
56,
58,
58,
60,
60,
60,
60,
57,
57,
55,
55,
49,
49,
46,
46,
39,
39,
31,
31,
30,
19,
20,
9,
10,
-1,
1,
1,
-7,
-7,
-15,
-26,
-23,
-23,
-27,
-38,
-34,
-34,
-43,
-43,
-47,
-47,
-49,
-49,
-56,
-56,
-56,
-56,
-58,
-58,
-54,
-54,
-52,
-52,
-49,
-49,
-49,
-49,
-43,
-43,
-34,
-34,
-28,
-28,
-18,
-18,
-12,
-1,
-2,
9,
5,
16,
16,
16,
23,
23,
28,
39,
39,
39,
42,
42,
46,
46,
51,
51,
54,
54,
60,
60,
58,
58,
60,
60,
55,
55,
54,
54,
50,
50,
47,
47,
41,
28,
30,
30,
25,
25,
16,
16,
8,
8,
3,
-9,
-6,
-6,
-14,
-14,
-23,
-23,
-29,
-40,
-38,
-38,
-46,
-46,
-50,
-50,
-54,
-54,
-53,
-53,
-56,
-56,
-57,
-57,
-57,
-57,
-54,
-54,
-49,
-49,
-42,
-42,
-37,
-37,
-30,
-30,
-23,
-23,
-17,
-17,
-13,
4,
3,
3,
8,
19,
14,
25,
24,
24,
31,
31,
35,
48,
43,
43,
50,
50,
55,
55,
57,
57,
58,
58,
60,
60,
60,
60,
59,
59,
53,
53,
48,
48,
44,
44,
40,
27,
29,
29,
20,
20,
17,
6,
7,
7,
-2,
-2,
-8,
-8,
-17,
-28,
-25,
-25,
-32,
-32,
-39,
-39,
-43,
-43,
-49,
-49,
-51,
-51,
-53,
-53,
-54,
-54,
-55,
-55,
-53,
-53,
-54,
-54,
-49,
-49,
-45,
-45,
-40,
-29,
-30,
-30,
-23,
-23,
-16,
-16,
-8,
4,
3,
3,
8,
21,
18,
18,
26,
26,
33,
33,
39,
39,
43,
43,
51,
51,
55,
55,
57,
57,
60,
60,
56,
56,
56,
56,
55,
55,
52,
52,
48,
48,
44,
44,
38,
26,
32,
19,
22,
22,
16,
3,
4,
4,
-2,
-2,
-10,
-22,
-19,
-31,
-29,
-29,
-32,
-44,
-42,
-42,
-43,
-43,
-50,
-50,
-53,
-53,
-54,
-54,
-54,
-54,
-53,
-53,
-54,
-54,
-49,
-49,
-49,
-49,
-44,
-44,
-35,
-35,
-30,
-30,
-25,
-13,
-16,
-16,
-8,
3,
3,
3,
10,
10,
16,
28,
27,
27,
34,
34,
40,
40,
49,
49,
52,
52,
55,
55,
55,
55,
58,
58,
60,
60,
60,
60,
56,
56,
52,
52,
49,
49,
40,
40,
36,
36,
31,
18,
21,
10,
10,
10,
4,
4,
-3,
-3,
-10,
-22,
-17,
-29,
-26,
-40,
-38,
-38,
-44,
-44,
-44,
-44,
-50,
-50,
-51,
-51,
-56,
-56,
-55,
-55,
-57,
-57,
-53,
-53,
-49,
-49,
-47,
-47,
-41,
-41,
-37,
-37,
-30,
-30,
-21,
-21,
-13,
-2,
-5,
-5,
3,
3,
11,
22,
18,
29,
29,
29,
38,
38,
43,
43,
50,
50,
51,
51,
56,
56,
58,
58,
58,
58,
61,
61,
56,
56,
54,
54,
50,
50,
47,
47,
43,
31,
34,
34,
27,
27,
19,
19,
11,
0,
5,
-9,
-9,
-9,
-11,
-24,
-24,
-24,
-30,
-30,
-38,
-38,
-44,
-44,
-49,
-49,
-53,
-53,
-55,
-55,
-56,
-56,
-54,
-54,
-56,
-56,
-51,
-51,
-51,
-51,
-48,
-48,
-43,
-43,
-38,
-26,
-28,
-28,
-20,
-20,
-14,
0,
-4,
7,
3,
16,
15,
15,
21,
21,
28,
39,
35,
35,
43,
43,
48,
48,
54,
54,
56,
56,
59,
59,
57,
57,
58,
58,
55,
55,
54,
54,
50,
50,
42,
42,
41,
41,
35,
22,
26,
14,
16,
16,
10,
-2,
0,
0,
-8,
-8,
-15,
-15,
-22,
-34,
-32,
-32,
-41,
-41,
-41,
-41,
-50,
-50,
-52,
-52,
-57,
-57,
-53,
-53,
-54,
-54,
-54,
-54,
-54,
-54,
-52,
-52,
-45,
-45,
-38,
-38,
-32,
-32,
-26,
-26,
-19,
-19,
-10,
-10,
-1,
-1,
6,
17,
16,
16,
26,
26,
30,
30,
35,
48,
43,
43,
49,
49,
52,
52,
53,
53,
60,
60,
57,
57,
57,
57,
56,
56,
54,
54,
51,
51,
43,
43,
40,
28,
31,
20,
23,
23,
19,
5,
10,
-2,
2,
-9,
-7,
-7,
-16,
-27,
-25,
-37,
-32,
-32,
-41,
-41,
-46,
-46,
-48,
-48,
-52,
-52,
-55,
-55,
-57,
-57,
-56,
-56,
-56,
-56,
-52,
-52,
-47,
-47,
-44,
-44,
-37,
-37,
-29,
-29,
-26,
-13,
-13,
-13,
-9,
3,
0,
0,
8,
8,
16,
16,
21,
36,
33,
33,
38,
38,
47,
47,
48,
48,
55,
55,
57,
57,
59,
59,
60,
60,
58,
58,
55,
55,
50,
50,
52,
40,
45,
45,
36,
36,
29,
29,
24,
13,
16,
16,
8,
-3,
-2,
-2,
-9,
-9,
-19,
-19,
-25,
-36,
-32,
-32,
-38,
-38,
-44,
-44,
-48,
-48,
-50,
-50,
-55,
-55,
-54,
-54,
-57,
-57,
-56,
-56,
-52,
-52,
-49,
-49,
-43,
-43,
-38,
-38,
-32,
-32,
-23,
-12,
-13,
-13,
-8,
4,
3,
3,
9,
20,
20,
20,
24,
24,
31,
43,
42,
42,
47,
47,
52,
52,
58,
58,
56,
56,
58,
58,
59,
59,
56,
56,
57,
57,
53,
53,
49,
49,
44,
44,
36,
36,
31,
18,
18,
18,
15,
4,
7,
-5,
-4,
-15,
-15,
-15,
-18,
-30,
-28,
-28,
-33,
-33,
-40,
-40,
-46,
-46,
-51,
-51,
-53,
-53,
-54,
-54,
-54,
-54,
-55,
-55,
-53,
-53,
-51,
-51,
-45,
-45,
-41,
-41,
-38,
-38,
-30,
-30,
-21,
-21,
-13,
-13,
-8,
4,
2,
13,
12,
12,
20,
20,
26,
39,
37,
37,
45,
45,
48,
48,
51,
51,
55,
55,
56,
56,
61,
61,
60,
60,
58,
58,
56,
56,
51,
51,
50,
50,
44,
32,
33,
33,
28,
28,
21,
21,
15,
2,
3,
3,
-4,
-4,
-13,
-27,
-25,
-25,
-31,
-31,
-34,
-34,
-40,
-40,
-44,
-44,
-52,
-52,
-55,
-55,
-56,
-56,
-56,
-56,
-55,
-55,
-55,
-55,
-53,
-53,
-49,
-38,
-39,
-39,
-36,
-36,
-29,
-17,
-21,
-21,
-14,
-2,
-6,
7,
2,
14,
14,
25,
24,
24,
32,
32,
39,
39,
41,
41,
51,
51,
54,
54,
56,
56,
61,
61,
57,
57,
60,
60,
55,
55,
55,
55,
51,
51,
46,
46,
39,
39,
33,
33,
28,
28,
20,
9,
10,
10,
3,
3,
-4,
-17,
-16,
-16,
-25,
-25,
-31,
-31,
-38,
-38,
-46,
-46,
-48,
-48,
-52,
-52,
-52,
-52,
-56,
-56,
-55,
-55,
-55,
-55,
-54,
-54,
-51,
-51,
-48,
-48,
-42,
-42,
-37,
-24,
-30,
-16,
-18,
-18,
-11,
2,
2,
2,
7,
7,
13,
24,
22,
33,
29,
29,
35,
35,
44,
44,
48,
48,
54,
54,
55,
55,
55,
55,
58,
58,
58,
58,
57,
57,
54,
54,
51,
51,
45,
45,
40,
28,
32,
32,
23,
23,
18,
6,
7,
7,
1,
1,
-6,
-19,
-17,
-28,
-28,
-28,
-31,
-31,
-38,
-38,
-46,
-46,
-48,
-48,
-51,
-51,
-55,
-55,
-54,
-54,
-56,
-56,
-60,
-60,
-51,
-51,
-48,
-48,
-45,
-45,
-40,
-40,
-31,
-31,
-22,
-22,
-17,
-17,
-9,
-9,
0,
11,
10,
10,
15,
15,
23,
36,
31,
42,
40,
40,
43,
43,
48,
48,
54,
54,
56,
56,
56,
56,
59,
59,
59,
59,
58,
58,
52,
52,
50,
50,
44,
44,
38,
38,
33,
20,
24,
24,
16,
16,
8,
-4,
1,
-10,
-8,
-21,
-20,
-20,
-28,
-28,
-35,
-35,
-39,
-39,
-44,
-44,
-52,
-52,
-52,
-52,
-54,
-54,
-58,
-58,
-56,
-56,
-54,
-54,
-51,
-51,
-49,
-49,
-43,
-43,
-38,
-38,
-28,
-28,
-26,
-12,
-14,
-14,
-9,
3,
2,
2,
8,
22,
19,
19,
27,
27,
34,
34,
39,
39,
47,
47,
52,
52,
54,
54,
57,
57,
60,
60,
60,
60,
56,
56,
58,
58,
53,
53,
46,
46,
43,
43,
36,
36,
30,
30,
21,
21,
16,
2,
4,
4,
-2,
-2,
-9,
-22,
-21,
-21,
-24,
-37,
-32,
-44,
-41,
-41,
-45,
-45,
-50,
-50,
-54,
-54,
-55,
-55,
-57,
-57,
-57,
-57,
-54,
-54,
-49,
-49,
-46,
-46,
-43,
-43,
-37,
-26,
-30,
-18,
-22,
-11,
-14,
-14,
-5,
-5,
4,
4,
10,
21,
18,
29,
29,
29,
34,
34,
42,
42,
48,
48,
50,
50,
54,
54,
55,
55,
56,
56,
58,
58,
57,
57,
58,
58,
53,
53,
48,
48,
43,
31,
31,
31,
30,
19,
22,
10,
13,
0,
0,
0,
-3,
-17,
-17,
-17,
-18,
-30,
-30,
-30,
-37,
-37,
-43,
-43,
-45,
-45,
-50,
-50,
-53,
-53,
-54,
-54,
-55,
-55,
-55,
-55,
-53,
-53,
-50,
-50,
-49,
-49,
-43,
-43,
-35,
-35,
-30,
-30,
-21,
-21,
-14,
-14,
-4,
-4,
4,
4,
11,
24,
23,
23,
30,
30,
38,
38,
40,
51,
48,
48,
51,
51,
56,
56,
60,
60,
60,
60,
60,
60,
58,
58,
55,
55,
51,
51,
43,
43,
40,
40,
35,
35,
29,
18,
18,
18,
14,
2,
3,
-9,
-9,
-9,
-18,
-18,
-19,
-33,
-29,
-40,
-37,
-37,
-44,
-44,
-48,
-48,
-53,
-53,
-51,
-51,
-54,
-54,
-57,
-57,
-56,
-56,
-55,
-55,
-48,
-48,
-48,
-48,
-44,
-30,
-33,
-33,
-26,
-26,
-19,
-19,
-12,
-12,
-4,
10,
10,
10,
18,
18,
25,
25,
28,
40,
36,
36,
42,
42,
49,
49,
54,
54,
54,
54,
59,
59,
57,
57,
56,
56,
55,
55,
51,
51,
48,
48,
46,
46,
39,
39,
32,
32,
25,
25,
19,
19,
10,
-2,
0,
0,
-9,
-9,
-18,
-18,
-26,
-26,
-32,
-32,
-39,
-39,
-44,
-44,
-50,
-50,
-51,
-51,
-54,
-54,
-55,
-55,
-58,
-58,
-56,
-56,
-55,
-55,
-50,
-50,
-49,
-38,
-39,
-39,
-30,
-30,
-25,
-25,
-16,
-16,
-10,
-10,
-2,
10,
10,
10,
17,
17,
23,
23,
31,
31,
38,
38,
46,
46,
48,
48,
53,
53,
56,
56,
58,
58,
60,
60,
59,
59,
58,
58,
50,
50,
49,
49,
44,
44,
36,
36,
32,
21,
22,
22,
16,
16,
10,
-3,
-3,
-3,
-9,
-9,
-18,
-18,
-26,
-37,
-35,
-35,
-38,
-38,
-45,
-45,
-49,
-49,
-51,
-51,
-57,
-57,
-58,
-58,
-53,
-53,
-54,
-54,
-52,
-52,
-49,
-49,
-44,
-44,
-36,
-36,
-34,
-22,
-27,
-13,
-14,
-14,
-7,
-7,
0,
0,
9,
22,
18,
29,
28,
28,
30,
30,
36,
36,
44,
44,
51,
51,
54,
54,
56,
56,
60,
60,
59,
59,
59,
59,
58,
58,
54,
54,
48,
48,
44,
44,
35,
35,
28,
28,
23,
23,
14,
14,
9,
-7,
-2,
-13,
-12,
-12,
-20,
-20,
-28,
-28,
-32,
-43,
-42,
-42,
-46,
-46,
-49,
-49,
-56,
-56,
-56,
-56,
-56,
-56,
-60,
-60,
-54,
-54,
-52,
-52,
-49,
-49,
-40,
-40,
-38,
-27,
-30,
-30,
-22,
-22,
-13,
-13,
-7,
7,
2,
14,
11,
11,
20,
20,
25,
37,
36,
36,
43,
43,
45,
45,
51,
51,
55,
55,
57,
57,
58,
58,
60,
60,
58,
58,
54,
54,
52,
52,
49,
49,
42,
42,
36,
36,
29,
18,
19,
19,
12,
12,
3,
3,
-7,
-7,
-10,
-22,
-18,
-33,
-31,
-31,
-35,
-35,
-39,
-39,
-46,
-46,
-50,
-50,
-54,
-54,
-56,
-56,
-54,
-54,
-54,
-54,
-52,
-52,
-53,
-53,
-49,
-38,
-42,
-42,
-35,
-35,
-29,
-18,
-19,
-19,
-14,
-2,
-5,
-5,
3,
14,
13,
13,
22,
22,
30,
30,
36,
36,
43,
43,
46,
46,
51,
51,
54,
54,
60,
60,
57,
57,
59,
59,
58,
58,
56,
56,
52,
52,
44,
44,
44,
32,
32,
32,
27,
27,
19,
19,
12,
-1,
-1,
-1,
-4,
-16,
-15,
-15,
-24,
-24,
-30,
-30,
-38,
-38,
-44,
-44,
-46,
-46,
-51,
-51,
-54,
-54,
-54,
-54,
-57,
-57,
-56,
-56,
-53,
-53,
-52,
-52,
-43,
-43,
-37,
-37,
-37,
-37,
-28,
-28,
-20,
-20,
-11,
-11,
-5,
8,
7,
7,
16,
16,
24,
24,
28,
28,
36,
36,
41,
41,
48,
48,
54,
54,
59,
59,
58,
58,
60,
60,
61,
61,
56,
56,
53,
53,
52,
52,
44,
44,
40,
40,
33,
33,
26,
26,
19,
4,
4,
4,
0,
0,
-7,
-19,
-14,
-27,
-25,
-25,
-31,
-31,
-40,
-40,
-41,
-41,
-46,
-46,
-53,
-53,
-56,
-56,
-57,
-57,
-55,
-55,
-53,
-53,
-55,
-55,
-51,
-51,
-44,
-44,
-40,
-40,
-34,
-34,
-26,
-26,
-21,
-7,
-8,
3,
3,
3,
6,
6,
14,
26,
25,
25,
30,
41,
41,
41,
43,
43,
48,
48,
53,
53,
57,
57,
56,
56,
57,
57,
58,
58,
56,
56,
55,
55,
49,
49,
43,
43,
39,
39,
34,
34,
26,
15,
16,
4,
5,
5,
1,
1,
-7,
-21,
-18,
-18,
-26,
-26,
-32,
-32,
-41,
-41,
-46,
-46,
-50,
-50,
-53,
-53,
-55,
-55,
-54,
-54,
-58,
-58,
-57,
-57,
-53,
-53,
-48,
-48,
-40,
-40,
-37,
-37,
-29,
-29,
-25,
-25,
-20,
-7,
-8,
4,
0,
0,
8,
8,
15,
26,
24,
24,
33,
33,
40,
40,
44,
44,
50,
50,
54,
54,
57,
57,
60,
60,
60,
60,
57,
57,
57,
57,
52,
52,
47,
47,
44,
44,
38,
38,
30,
30,
25,
13,
13,
13,
5,
5,
-2,
-2,
-9,
-22,
-21,
-21,
-26,
-37,
-34,
-34,
-41,
-41,
-45,
-45,
-51,
-51,
-54,
-54,
-54,
-54,
-56,
-56,
-56,
-56,
-54,
-54,
-51,
-51,
-47,
-47,
-44,
-44,
-37,
-37,
-30,
-30,
-20,
-20,
-16,
-16,
-8,
7,
4,
4,
13,
13,
15,
27,
23,
34,
32,
32,
40,
40,
44,
44,
49,
49,
54,
54,
56,
56,
60,
60,
59,
59,
58,
58,
56,
56,
53,
53,
47,
47,
43,
43,
36,
36,
28,
28,
23,
10,
12,
12,
4,
4,
-4,
-4,
-12,
-24,
-18,
-32,
-31,
-31,
-34,
-45,
-40,
-52,
-49,
-49,
-52,
-52,
-53,
-53,
-58,
-58,
-58,
-58,
-57,
-57,
-53,
-53,
-49,
-49,
-49,
-49,
-39,
-39,
-40,
-28,
-31,
-31,
-21,
-9,
-11,
-11,
-5,
-5,
4,
4,
9,
22,
22,
22,
28,
28,
32,
44,
40,
40,
47,
47,
52,
52,
55,
55,
58,
58,
61,
61,
60,
60,
56,
56,
58,
58,
53,
53,
46,
46,
40,
40,
33,
33,
26,
26,
20,
20,
11,
11,
3,
3,
-4,
-19,
-17,
-17,
-22,
-22,
-28,
-40,
-38,
-38,
-40,
-40,
-47,
-47,
-53,
-53,
-52,
-52,
-54,
-54,
-53,
-53,
-55,
-55,
-57,
-46,
-50,
-50,
-45,
-45,
-41,
-30,
-32,
-32,
-28,
-28,
-20,
-20,
-12,
0,
-4,
-4,
4,
15,
15,
15,
21,
21,
30,
30,
34,
46,
41,
41,
49,
49,
54,
54,
54,
54,
57,
57,
58,
58,
58,
58,
56,
56,
54,
54,
52,
52,
47,
36,
41,
41,
34,
34,
26,
14,
14,
14,
10,
10,
2,
2,
-7,
-7,
-14,
-26,
-23,
-34,
-33,
-33,
-36,
-36,
-44,
-44,
-47,
-47,
-49,
-49,
-55,
-55,
-57,
-57,
-56,
-56,
-54,
-54,
-52,
-52,
-48,
-48,
-48,
-48,
-38,
-38,
-33,
-33,
-25,
-25,
-21,
-7,
-9,
2,
-1,
-1,
9,
9,
14,
14,
24,
24,
30,
30,
37,
37,
44,
44,
50,
50,
55,
55,
58,
58,
57,
57,
57,
57,
56,
56,
56,
56,
52,
52,
52,
52,
45,
45,
39,
39,
32,
21,
22,
22,
15,
15,
10,
-1,
0,
0,
-9,
-21,
-17,
-17,
-26,
-26,
-29,
-41,
-37,
-48,
-45,
-45,
-49,
-49,
-52,
-52,
-54,
-54,
-56,
-56,
-56,
-56,
-55,
-55,
-54,
-54,
-49,
-49,
-45,
-45,
-40,
-40,
-33,
-22,
-23,
-23,
-14,
-14,
-8,
-8,
-3,
11,
10,
10,
15,
27,
27,
27,
33,
33,
39,
39,
44,
44,
50,
50,
52,
52,
56,
56,
59,
59,
58,
58,
58,
58,
57,
57,
52,
52,
49,
49,
43,
43,
39,
28,
29,
29,
19,
19,
18,
6,
8,
-6,
-2,
-2,
-9,
-20,
-16,
-30,
-27,
-27,
-34,
-34,
-40,
-40,
-45,
-45,
-48,
-48,
-52,
-52,
-54,
-54,
-58,
-58,
-57,
-57,
-54,
-54,
-50,
-50,
-47,
-47,
-41,
-41,
-36,
-36,
-34,
-21,
-21,
-21,
-13,
-13,
-8,
-8,
0,
0,
9,
20,
16,
28,
27,
27,
34,
34,
40,
40,
45,
45,
53,
53,
56,
56,
54,
54,
58,
58,
58,
58,
58,
58,
53,
53,
54,
54,
46,
46,
42,
42,
35,
35,
31,
31,
21,
21,
14,
3,
6,
-6,
-6,
-6,
-10,
-22,
-22,
-22,
-30,
-30,
-36,
-36,
-40,
-40,
-45,
-45,
-50,
-50,
-54,
-54,
-57,
-57,
-55,
-55,
-54,
-54,
-52,
-52,
-54,
-54,
-47,
-47,
-42,
-42,
-35,
-35,
-28,
-28,
-20,
-20,
-10,
-10,
-4,
-4,
3,
3,
11,
11,
16,
27,
27,
27,
34,
34,
42,
42,
47,
47,
53,
53,
56,
56,
59,
59,
60,
60,
59,
59,
58,
58,
53,
53,
50,
50,
48,
36,
40,
40,
36,
36,
27,
27,
19,
19,
13,
2,
2,
2,
-4,
-17,
-15,
-15,
-21,
-32,
-29,
-41,
-37,
-37,
-45,
-45,
-48,
-48,
-55,
-55,
-54,
-54,
-57,
-57,
-56,
-56,
-57,
-57,
-53,
-53,
-49,
-49,
-47,
-47,
-42,
-42,
-33,
-33,
-26,
-26,
-21,
-21,
-12,
-12,
-7,
7,
4,
15,
14,
14,
18,
31,
27,
27,
34,
34,
42,
42,
47,
47,
52,
52,
58,
58,
59,
59,
58,
58,
58,
58,
59,
59,
54,
54,
51,
51,
45,
45,
40,
40,
34,
34,
26,
26,
20,
8,
12,
-1,
0,
0,
-6,
-17,
-15,
-26,
-24,
-24,
-29,
-29,
-37,
-37,
-43,
-43,
-46,
-46,
-53,
-53,
-52,
-52,
-57,
-57,
-55,
-55,
-55,
-55,
-50,
-50,
-49,
-49,
-43,
-43,
-41,
-30,
-32,
-32,
-25,
-25,
-19,
-19,
-12,
-1,
-4,
9,
7,
7,
15,
15,
22,
33,
30,
30,
37,
37,
45,
45,
48,
48,
52,
52,
57,
57,
58,
58,
58,
58,
59,
59,
58,
58,
54,
54,
50,
50,
45,
45,
37,
37,
32,
32,
25,
25,
18,
18,
9,
9,
2,
-9,
-8,
-8,
-18,
-18,
-24,
-24,
-32,
-32,
-37,
-37,
-43,
-43,
-50,
-50,
-53,
-53,
-54,
-54,
-54,
-54,
-56,
-56,
-55,
-55,
-54,
-54,
-49,
-49,
-47,
-34,
-37,
-37,
-37,
-21,
-26,
-14,
-18,
-18,
-9,
-9,
-1,
11,
10,
10,
15,
15,
24,
24,
31,
31,
38,
38,
44,
44,
51,
51,
51,
51,
54,
54,
57,
57,
60,
60,
57,
57,
57,
57,
54,
54,
48,
48,
44,
44,
36,
36,
31,
31,
23,
23,
15,
15,
7,
-5,
-2,
-2,
-8,
-20,
-14,
-29,
-27,
-27,
-35,
-35,
-41,
-41,
-45,
-45,
-48,
-48,
-55,
-55,
-53,
-53,
-56,
-56,
-56,
-56,
-54,
-54,
-51,
-51,
-48,
-48,
-46,
-34,
-38,
-38,
-30,
-30,
-23,
-23,
-16,
-16,
-7,
-7,
-2,
12,
12,
12,
16,
28,
28,
28,
31,
31,
41,
41,
46,
46,
50,
50,
54,
54,
55,
55,
59,
59,
58,
58,
56,
56,
57,
57,
51,
51,
51,
51,
43,
43,
34,
34,
33,
22,
25,
11,
12,
12,
5,
5,
-1,
-1,
-9,
-20,
-20,
-20,
-29,
-29,
-34,
-34,
-39,
-39,
-44,
-44,
-48,
-48,
-55,
-55,
-56,
-56,
-56,
-56,
-54,
-54,
-54,
-54,
-51,
-51,
-46,
-46,
-46,
-35,
-36,
-36,
-29,
-29,
-25,
-13,
-17,
-17,
-9,
4,
0,
13,
13,
13,
20,
20,
28,
28,
36,
36,
41,
41,
47,
47,
50,
50,
55,
55,
56,
56,
59,
59,
58,
58,
56,
56,
54,
54,
50,
50,
47,
47,
43,
43,
35,
35,
28,
17,
22,
10,
12,
12,
3,
3,
-4,
-16,
-15,
-15,
-23,
-23,
-26,
-26,
-35,
-35,
-41,
-41,
-49,
-49,
-53,
-53,
-54,
-54,
-56,
-56,
-57,
-57,
-58,
-58,
-53,
-53,
-50,
-50,
-46,
-46,
-40,
-40,
-34,
-34,
-24,
-24,
-18,
-18,
-13,
-13,
-8,
4,
2,
2,
10,
22,
21,
21,
30,
30,
35,
35,
41,
41,
49,
49,
50,
50,
57,
57,
58,
58,
58,
58,
59,
59,
57,
57,
56,
56,
50,
50,
46,
