Data/Output/LOG0000/DS0111.CSV

Memory Length,4000,
Trigger Level,-1.20000e+02,
Source,CH2,
Probe,1.0X,
Vertical Units,V,
Vertical Scale,1.00000e+00,
Vertical Position,0.00000e+00,
Horizontal Units,S,
Horizontal Scale,1.00000e-02,
Horizontal Position,0.0000000e+00,
Horizontal Mode,Main,
Sampling Period,4.00000e-05,
Firmware,V1.14,
Time, ,
Mode,Fast,
Waveform Data,
47,
47,
47,
55,
55,
57,
57,
60,
60,
57,
57,
58,
58,
54,
54,
48,
48,
43,
32,
32,
32,
28,
28,
20,
8,
12,
-1,
0,
0,
-9,
-22,
-20,
-20,
-30,
-30,
-35,
-46,
-44,
-44,
-48,
-48,
-52,
-52,
-57,
-57,
-55,
-55,
-57,
-57,
-51,
-51,
-50,
-50,
-44,
-44,
-37,
-37,
-30,
-30,
-20,
-20,
-10,
-10,
-2,
-2,
8,
19,
15,
28,
26,
26,
35,
35,
45,
45,
50,
50,
53,
53,
57,
57,
57,
57,
60,
60,
57,
57,
55,
55,
51,
51,
44,
44,
39,
28,
33,
19,
19,
19,
10,
10,
4,
-9,
-8,
-20,
-19,
-19,
-26,
-26,
-33,
-45,
-39,
-50,
-44,
-44,
-52,
-52,
-54,
-54,
-55,
-55,
-53,
-53,
-54,
-54,
-50,
-50,
-45,
-45,
-40,
-40,
-30,
-30,
-24,
-11,
-13,
0,
-2,
-2,
4,
16,
14,
27,
26,
26,
33,
33,
40,
40,
44,
44,
53,
53,
55,
55,
58,
58,
59,
59,
61,
61,
57,
57,
48,
48,
46,
46,
36,
36,
31,
31,
26,
11,
15,
2,
7,
-5,
-4,
-17,
-15,
-27,
-24,
-37,
-34,
-34,
-41,
-41,
-48,
-48,
-49,
-49,
-52,
-52,
-56,
-56,
-56,
-56,
-55,
-55,
-53,
-53,
-43,
-43,
-38,
-38,
-33,
-21,
-23,
-23,
-17,
-17,
-9,
8,
7,
7,
13,
24,
24,
24,
30,
41,
40,
40,
44,
44,
50,
50,
55,
55,
58,
58,
59,
59,
59,
59,
54,
54,
53,
53,
48,
48,
42,
42,
32,
32,
24,
13,
14,
2,
2,
2,
-6,
-17,
-15,
-15,
-22,
-33,
-33,
-33,
-38,
-38,
-44,
-44,
-51,
-51,
-53,
-53,
-57,
-57,
-54,
-54,
-54,
-54,
-51,
-51,
-44,
-44,
-41,
-41,
-35,
-35,
-25,
-25,
-19,
-19,
-10,
1,
0,
12,
10,
22,
21,
21,
29,
29,
36,
47,
43,
54,
52,
52,
53,
53,
57,
57,
57,
57,
59,
59,
57,
57,
54,
54,
48,
48,
42,
42,
34,
22,
26,
15,
15,
15,
7,
-4,
-3,
-3,
-9,
-25,
-23,
-23,
-28,
-39,
-36,
-36,
-44,
-44,
-49,
-49,
-51,
-51,
-57,
-57,
-58,
-58,
-53,
-53,
-52,
-52,
-49,
-49,
-42,
-42,
-35,
-35,
-28,
-28,
-21,
-10,
-10,
-10,
-4,
10,
8,
20,
20,
20,
26,
38,
37,
37,
40,
51,
48,
48,
55,
55,
59,
59,
56,
56,
58,
58,
58,
58,
53,
53,
51,
51,
43,
43,
38,
24,
26,
26,
22,
3,
9,
-4,
0,
0,
-9,
-23,
-23,
-23,
-30,
-30,
-37,
-37,
-42,
-42,
-47,
-47,
-54,
-54,
-54,
-54,
-57,
-57,
-57,
-57,
-52,
-52,
-48,
-48,
-47,
-35,
-36,
-36,
-34,
-21,
-24,
-11,
-12,
-12,
-6,
11,
7,
19,
16,
16,
24,
36,
34,
34,
43,
43,
48,
48,
53,
53,
55,
55,
60,
60,
57,
57,
55,
55,
53,
53,
50,
50,
44,
33,
33,
33,
30,
16,
18,
18,
10,
-1,
-1,
-1,
-8,
-19,
-16,
-32,
-28,
-40,
-37,
-37,
-43,
-43,
-47,
-47,
-50,
-50,
-54,
-54,
-56,
-56,
-54,
-54,
-56,
-56,
-50,
-50,
-46,
-46,
-36,
-36,
-30,
-30,
-22,
-22,
-13,
-13,
-8,
4,
3,
16,
16,
16,
23,
23,
31,
42,
40,
40,
46,
46,
54,
54,
53,
53,
57,
57,
59,
59,
60,
60,
55,
55,
54,
54,
48,
37,
41,
41,
32,
21,
22,
22,
13,
13,
4,
4,
-5,
-5,
-14,
-25,
-25,
-37,
-34,
-34,
-41,
-41,
-48,
-48,
-52,
-52,
-54,
-54,
-59,
-59,
-56,
-56,
-53,
-53,
-50,
-50,
-45,
-45,
-39,
-39,
-33,
-33,
-25,
-14,
-17,
-4,
-4,
-4,
2,
14,
12,
23,
23,
23,
32,
32,
39,
39,
48,
48,
51,
51,
55,
55,
58,
58,
59,
59,
60,
60,
56,
56,
50,
50,
47,
47,
40,
40,
34,
34,
25,
25,
18,
5,
6,
6,
-3,
-3,
-11,
-23,
-22,
-22,
-31,
-31,
-38,
-38,
-45,
-45,
-52,
-52,
-53,
-53,
-56,
-56,
-57,
-57,
-55,
-55,
-51,
-51,
-46,
-46,
-42,
-42,
-38,
-23,
-26,
-15,
-18,
-18,
-11,
1,
-4,
13,
12,
12,
18,
29,
24,
38,
35,
46,
45,
45,
47,
47,
54,
54,
59,
59,
59,
59,
60,
60,
59,
59,
55,
55,
51,
40,
40,
40,
36,
25,
25,
14,
15,
15,
7,
-4,
-3,
-3,
-10,
-24,
-20,
-35,
-31,
-31,
-39,
-39,
-45,
-45,
-51,
-51,
-53,
-53,
-55,
-55,
-54,
-54,
-55,
-55,
-53,
-53,
-51,
-40,
-41,
-41,
-36,
-25,
-30,
-19,
-19,
-19,
-9,
-9,
-1,
12,
11,
22,
21,
21,
29,
29,
37,
37,
44,
44,
50,
50,
53,
53,
58,
58,
57,
57,
56,
56,
56,
56,
55,
55,
48,
48,
40,
40,
36,
36,
28,
28,
19,
19,
13,
-1,
0,
0,
-9,
-23,
-18,
-32,
-25,
-40,
-34,
-46,
-45,
-45,
-48,
-48,
-51,
-51,
-53,
-53,
-56,
-56,
-56,
-56,
-54,
-54,
-51,
-51,
-45,
-45,
-40,
-29,
-31,
-19,
-22,
-11,
-13,
-1,
-1,
11,
10,
10,
17,
29,
28,
28,
33,
33,
42,
42,
48,
48,
51,
51,
57,
57,
58,
58,
60,
60,
59,
59,
55,
55,
51,
51,
44,
44,
38,
26,
27,
27,
24,
10,
11,
-1,
1,
1,
-9,
-9,
-16,
-31,
-28,
-28,
-36,
-36,
-38,
-49,
-49,
-49,
-52,
-52,
-54,
-54,
-55,
-55,
-57,
-57,
-53,
-53,
-48,
-48,
-48,
-48,
-39,
-28,
-29,
-29,
-26,
-13,
-13,
-13,
-7,
4,
3,
16,
15,
15,
25,
25,
30,
41,
40,
40,
44,
55,
50,
50,
58,
58,
56,
56,
59,
59,
57,
57,
59,
46,
52,
52,
46,
46,
36,
36,
32,
21,
21,
21,
13,
2,
4,
-8,
-6,
-17,
-17,
-17,
-24,
-36,
-36,
-36,
-38,
-50,
-44,
-55,
-50,
-50,
-54,
-54,
-56,
-56,
-55,
-55,
-57,
-57,
-51,
-51,
-47,
-47,
-41,
-29,
-37,
-24,
-26,
-15,
-17,
-17,
-8,
7,
4,
15,
15,
15,
19,
31,
30,
43,
41,
41,
46,
46,
52,
52,
54,
54,
59,
59,
57,
57,
58,
58,
54,
54,
51,
51,
46,
46,
41,
41,
34,
22,
23,
12,
13,
13,
4,
4,
-3,
-16,
-15,
-15,
-21,
-35,
-32,
-32,
-40,
-40,
-45,
-45,
-48,
-48,
-54,
-54,
-55,
-55,
-54,
-54,
-53,
-53,
-50,
-50,
-49,
-49,
-43,
-43,
-36,
-36,
-28,
-28,
-19,
-19,
-10,
1,
1,
13,
12,
12,
17,
28,
26,
41,
37,
37,
45,
45,
47,
58,
57,
57,
58,
58,
62,
62,
56,
56,
56,
56,
53,
53,
49,
49,
44,
44,
35,
24,
25,
14,
15,
15,
8,
-6,
-3,
-3,
-13,
-13,
-17,
-33,
-31,
-31,
-39,
-39,
-43,
-43,
-49,
-49,
-53,
-53,
-54,
-54,
-58,
-58,
-55,
-55,
-54,
-54,
-46,
-46,
-44,
-44,
-39,
-28,
-28,
-17,
-20,
-9,
-10,
3,
0,
12,
12,
12,
18,
32,
31,
31,
34,
34,
43,
43,
49,
49,
54,
54,
58,
58,
57,
57,
59,
59,
57,
57,
55,
55,
50,
50,
44,
44,
40,
27,
28,
28,
20,
7,
12,
-3,
0,
0,
-9,
-20,
-18,
-30,
-29,
-29,
-36,
-36,
-43,
-43,
-50,
-50,
-55,
-55,
-53,
-53,
-57,
-57,
-56,
-56,
-54,
-54,
-49,
-49,
-47,
-36,
-37,
-37,
-32,
-32,
-24,
-13,
-14,
-2,
-3,
8,
4,
18,
16,
28,
27,
39,
36,
36,
43,
43,
48,
48,
54,
54,
57,
57,
55,
55,
60,
60,
58,
58,
54,
54,
49,
49,
45,
45,
39,
28,
31,
19,
21,
9,
9,
-2,
-1,
-1,
-8,
-22,
-17,
-31,
-28,
-28,
-34,
-45,
-40,
-52,
-46,
-46,
-52,
-52,
-56,
-56,
-55,
-55,
-57,
-57,
-52,
-52,
-51,
-51,
-47,
-36,
-39,
-39,
-30,
-30,
-24,
-12,
-13,
-13,
-5,
8,
7,
7,
15,
26,
26,
26,
30,
41,
38,
38,
47,
47,
52,
52,
55,
55,
57,
57,
58,
58,
56,
56,
53,
53,
54,
43,
47,
47,
39,
39,
32,
32,
25,
11,
15,
1,
1,
1,
-6,
-19,
-16,
-16,
-26,
-26,
-32,
-32,
-38,
-49,
-48,
-48,
-47,
-47,
-53,
-53,
-56,
-56,
-56,
-56,
-56,
-56,
-50,
-50,
-46,
-46,
-40,
-40,
-34,
-21,
-25,
-13,
-17,
-17,
-8,
3,
3,
3,
11,
25,
25,
25,
28,
40,
37,
37,
45,
45,
50,
50,
55,
55,
59,
59,
58,
58,
56,
56,
59,
59,
52,
52,
48,
48,
41,
41,
35,
22,
24,
24,
15,
15,
9,
-7,
-7,
-7,
-15,
-15,
-24,
-24,
-32,
-32,
-40,
-40,
-43,
-43,
-49,
-49,
-52,
-52,
-56,
-56,
-56,
-56,
-57,
-57,
-52,
-52,
-51,
-51,
-45,
-34,
-36,
-36,
-27,
-27,
-20,
-9,
-10,
-10,
-1,
11,
10,
10,
19,
19,
27,
38,
35,
46,
46,
46,
49,
49,
56,
56,
59,
59,
58,
58,
58,
58,
54,
54,
55,
55,
49,
49,
43,
32,
34,
34,
26,
12,
13,
13,
7,
7,
-1,
-14,
-13,
-13,
-22,
-22,
-30,
-30,
-36,
-36,
-45,
-45,
-49,
-49,
-50,
-50,
-54,
-54,
-56,
-56,
-56,
-56,
-54,
-54,
-49,
-49,
-46,
-35,
-35,
-35,
-32,
-20,
-20,
-8,
-10,
2,
2,
2,
10,
10,
16,
30,
30,
30,
34,
34,
43,
43,
49,
49,
50,
50,
55,
55,
58,
58,
60,
60,
58,
58,
51,
51,
48,
48,
46,
33,
36,
36,
31,
18,
18,
18,
8,
8,
0,
0,
-9,
-23,
-21,
-33,
-28,
-40,
-33,
-48,
-42,
-42,
-48,
-48,
-53,
-53,
-54,
-54,
-55,
-55,
-57,
-57,
-54,
-54,
-53,
-42,
-42,
-42,
-35,
-35,
-34,
-23,
-24,
-8,
-13,
0,
-2,
-2,
4,
18,
18,
18,
24,
35,
34,
34,
40,
40,
47,
47,
50,
50,
57,
57,
61,
61,
58,
58,
58,
58,
53,
53,
50,
50,
43,
43,
35,
35,
32,
19,
19,
7,
10,
10,
3,
3,
-7,
-19,
-16,
-28,
-23,
-36,
-34,
-46,
-40,
-40,
-50,
-50,
-52,
-52,
-57,
-57,
-58,
-58,
-54,
-54,
-53,
-53,
-50,
-50,
-44,
-44,
-38,
-38,
-34,
-19,
-20,
-20,
-16,
-16,
-8,
6,
6,
6,
12,
24,
23,
23,
31,
43,
43,
43,
46,
46,
52,
52,
57,
57,
59,
59,
60,
60,
58,
58,
55,
55,
53,
53,
48,
37,
37,
37,
31,
19,
19,
19,
16,
1,
5,
-8,
-8,
-8,
-17,
-17,
-25,
-25,
-32,
-45,
-43,
-43,
-49,
-49,
-48,
-48,
-52,
-52,
-55,
-55,
-57,
-57,
-57,
-57,
-54,
-54,
-48,
-48,
-43,
-32,
-34,
-22,
-24,
-12,
-15,
-15,
-7,
4,
2,
14,
13,
13,
21,
21,
28,
41,
39,
39,
43,
43,
51,
51,
56,
56,
59,
59,
61,
61,
58,
58,
56,
56,
51,
51,
46,
46,
40,
40,
32,
21,
23,
12,
18,
2,
6,
6,
-3,
-3,
-9,
-28,
-24,
-24,
-30,
-41,
-41,
-41,
-43,
-43,
-52,
-52,
-54,
-54,
-55,
-55,
-54,
-54,
-55,
-55,
-51,
-51,
-49,
-49,
-42,
-42,
-34,
-34,
-26,
-26,
-22,
-8,
-12,
2,
1,
14,
11,
24,
18,
32,
30,
30,
38,
38,
42,
42,
49,
49,
54,
54,
55,
55,
58,
58,
57,
57,
58,
58,
52,
52,
48,
48,
42,
42,
35,
35,
28,
28,
18,
7,
10,
-5,
-4,
-4,
-8,
-22,
-18,
-33,
-30,
-41,
-40,
-40,
-46,
-46,
-48,
-48,
-52,
-52,
-55,
-55,
-57,
-57,
-55,
-55,
-55,
-55,
-48,
-48,
-44,
-44,
-42,
-26,
-28,
-28,
-24,
-10,
-13,
2,
-2,
10,
7,
18,
17,
28,
27,
27,
35,
46,
41,
41,
50,
50,
52,
52,
58,
58,
58,
58,
59,
59,
59,
59,
52,
52,
52,
52,
43,
43,
36,
36,
26,
26,
20,
8,
10,
10,
4,
-10,
-8,
-19,
-17,
-30,
-28,
-28,
-38,
-38,
-44,
-44,
-47,
-47,
-56,
-56,
-58,
-58,
-55,
-55,
-54,
-54,
-55,
-55,
-50,
-50,
-46,
-46,
-39,
-39,
-32,
-32,
-26,
-11,
-14,
-1,
-2,
-2,
3,
21,
20,
20,
28,
28,
32,
43,
40,
40,
47,
47,
53,
53,
56,
56,
59,
59,
57,
57,
55,
55,
52,
52,
51,
51,
45,
34,
37,
37,
29,
18,
20,
20,
12,
12,
3,
-8,
-8,
-8,
-13,
-30,
-26,
-40,
-36,
-36,
-38,
-38,
-48,
-48,
-52,
-52,
-57,
-57,
-56,
-56,
-57,
-57,
-56,
-56,
-50,
-50,
-44,
-44,
-39,
-39,
-34,
-21,
-25,
-14,
-16,
-16,
-8,
7,
6,
6,
15,
26,
22,
33,
33,
33,
36,
50,
50,
50,
52,
52,
57,
57,
60,
60,
60,
60,
60,
60,
54,
54,
51,
51,
45,
45,
41,
30,
31,
31,
22,
22,
15,
0,
4,
-8,
-6,
-6,
-14,
-25,
-21,
-36,
-30,
-44,
-44,
-44,
-44,
-55,
-52,
-52,
-53,
-53,
-57,
-57,
-59,
-59,
-58,
-46,
-52,
-52,
-49,
-49,
-42,
-42,
-36,
-36,
-27,
-14,
-15,
-15,
-8,
3,
2,
2,
10,
21,
20,
32,
31,
31,
38,
38,
44,
44,
50,
50,
55,
55,
58,
58,
57,
57,
61,
61,
55,
55,
53,
53,
49,
49,
43,
32,
32,
32,
24,
24,
16,
3,
6,
-6,
-5,
-17,
-14,
-14,
-24,
-24,
-33,
-33,
-39,
-39,
-43,
-43,
-50,
-50,
-56,
-56,
-54,
-54,
-56,
-56,
-54,
-54,
-50,
-50,
-52,
-52,
-42,
-42,
-35,
-35,
-29,
-18,
-19,
-8,
-8,
-8,
0,
11,
10,
21,
19,
30,
27,
38,
37,
37,
45,
45,
47,
47,
55,
55,
59,
59,
61,
61,
55,
55,
56,
56,
55,
55,
50,
50,
41,
41,
33,
33,
28,
28,
20,
6,
7,
-4,
-3,
-3,
-9,
-20,
-19,
-19,
-26,
-37,
-37,
-37,
-42,
-42,
-50,
-50,
-53,
-53,
-56,
-56,
-55,
-55,
-57,
-57,
-54,
-54,
-50,
-50,
-45,
-45,
-37,
-37,
-32,
-20,
-23,
-10,
-10,
-10,
-4,
13,
9,
21,
20,
20,
28,
28,
36,
36,
39,
52,
52,
52,
52,
52,
56,
56,
60,
60,
58,
58,
55,
55,
57,
57,
50,
50,
45,
45,
38,
25,
25,
25,
21,
7,
7,
7,
3,
-9,
-8,
-19,
-17,
-34,
-29,
-41,
-35,
-46,
-44,
-44,
-45,
-45,
-54,
-54,
-56,
-56,
-56,
-56,
-56,
-56,
-56,
-56,
-51,
-51,
-44,
-33,
-36,
-36,
-30,
-18,
-22,
-11,
-12,
-12,
-4,
-4,
6,
6,
15,
26,
22,
36,
36,
36,
40,
40,
49,
49,
53,
53,
54,
54,
57,
57,
61,
61,
58,
58,
54,
54,
51,
51,
45,
45,
40,
40,
32,
18,
23,
10,
10,
10,
2,
-9,
-6,
-19,
-18,
-30,
-27,
-38,
-35,
-35,
-43,
-43,
-47,
-47,
-52,
-52,
-54,
-54,
-56,
-56,
-55,
-55,
-56,
-56,
-54,
-54,
-48,
-48,
-40,
-40,
-32,
-21,
-22,
-22,
-16,
-16,
-6,
-6,
2,
16,
12,
25,
23,
36,
33,
33,
40,
40,
48,
48,
50,
50,
56,
56,
57,
57,
59,
59,
55,
55,
58,
58,
53,
53,
48,
48,
40,
40,
35,
22,
24,
11,
11,
11,
3,
3,
-4,
-17,
-17,
-17,
-24,
-35,
-34,
-34,
-38,
-38,
-46,
-46,
-51,
-51,
-55,
-55,
-58,
-58,
-54,
-54,
-56,
-56,
-53,
-53,
-45,
-45,
-47,
-32,
-33,
-22,
-24,
-24,
-19,
-8,
-8,
4,
4,
4,
13,
13,
20,
20,
30,
30,
36,
47,
43,
54,
50,
50,
53,
53,
58,
58,
60,
60,
58,
58,
55,
55,
50,
50,
49,
49,
42,
42,
36,
21,
26,
13,
16,
16,
8,
-3,
-2,
-14,
-13,
-28,
-24,
-24,
-30,
-30,
-38,
-38,
-47,
-47,
-53,
-53,
-53,
-53,
-55,
-55,
-57,
-57,
-57,
-57,
-52,
-52,
-49,
-49,
-41,
-41,
-38,
-27,
-27,
-27,
-18,
-18,
-10,
3,
2,
13,
11,
22,
19,
30,
29,
29,
36,
36,
44,
44,
49,
49,
55,
55,
58,
58,
58,
58,
59,
59,
58,
58,
54,
54,
48,
48,
43,
43,
37,
26,
30,
16,
18,
7,
10,
-1,
0,
0,
-9,
-22,
-19,
-32,
-31,
-31,
-34,
-34,
-41,
-52,
-50,
-50,
-54,
-54,
-57,
-57,
-55,
-55,
-54,
-54,
-52,
-52,
-51,
-51,
-45,
-45,
-40,
-28,
-28,
-28,
-20,
-20,
-10,
-10,
-1,
11,
10,
10,
16,
30,
28,
28,
33,
33,
43,
43,
48,
48,
57,
57,
59,
59,
56,
56,
57,
57,
57,
57,
56,
56,
50,
50,
43,
43,
34,
34,
28,
28,
21,
10,
11,
0,
2,
-9,
-9,
-23,
-21,
-21,
-27,
-38,
-37,
-37,
-45,
-45,
-46,
-46,
-53,
-53,
-54,
-54,
-54,
-54,
-54,
-54,
-57,
-57,
-48,
-48,
-46,
-46,
-40,
-40,
-32,
-32,
-27,
-12,
-13,
-13,
-6,
8,
3,
18,
16,
28,
27,
27,
35,
35,
40,
40,
48,
48,
53,
53,
58,
58,
56,
56,
56,
56,
60,
60,
57,
57,
50,
50,
43,
43,
41,
41,
32,
32,
24,
13,
14,
14,
6,
-6,
-6,
-18,
-17,
-17,
-25,
-37,
-33,
-33,
-41,
-52,
-49,
-49,
-54,
-54,
-54,
-54,
-55,
-55,
-54,
-54,
-55,
-55,
-53,
-53,
-48,
-48,
-39,
-39,
-30,
-30,
-24,
-24,
-16,
-16,
-8,
8,
8,
8,
14,
25,
24,
36,
35,
35,
41,
41,
45,
45,
53,
53,
56,
56,
56,
56,
58,
58,
58,
58,
56,
56,
53,
53,
46,
46,
39,
39,
34,
18,
23,
11,
15,
3,
3,
3,
-4,
-19,
-19,
-19,
-25,
-25,
-32,
-32,
-40,
-40,
-46,
-46,
-52,
-52,
-53,
-53,
-57,
-57,
-59,
-59,
-55,
-55,
-50,
-50,
-48,
-48,
-40,
-40,
-34,
-34,
-28,
-14,
-15,
-15,
-8,
3,
2,
13,
10,
22,
21,
21,
29,
41,
40,
40,
43,
43,
48,
48,
55,
55,
59,
59,
59,
59,
58,
58,
57,
57,
50,
50,
46,
46,
42,
42,
33,
22,
24,
13,
17,
2,
6,
-6,
-3,
-14,
-13,
-24,
-22,
-22,
-30,
-42,
-41,
-41,
-45,
-45,
-50,
-50,
-55,
-55,
-53,
-53,
-54,
-54,
-55,
-55,
-53,
-53,
-49,
-49,
-43,
-43,
-36,
-25,
-28,
-15,
-18,
-18,
-12,
3,
2,
2,
7,
21,
18,
30,
28,
28,
37,
37,
43,
43,
51,
51,
52,
52,
58,
58,
59,
59,
61,
61,
56,
56,
51,
51,
47,
47,
42,
42,
32,
32,
27,
16,
18,
18,
10,
-2,
1,
-10,
-9,
-23,
-22,
-34,
-34,
-34,
-35,
-48,
-45,
-45,
-49,
-49,
-51,
-51,
-58,
-58,
-57,
-57,
-58,
-58,
-54,
-54,
-48,
-48,
-42,
-42,
-38,
-38,
-30,
-30,
-22,
-22,
-13,
-1,
-3,
10,
8,
8,
14,
28,
27,
39,
38,
38,
43,
43,
47,
47,
50,
50,
58,
58,
57,
57,
58,
58,
58,
58,
54,
54,
51,
51,
44,
44,
35,
24,
28,
17,
22,
10,
10,
10,
0,
0,
-9,
-24,
-19,
-32,
-26,
-37,
-33,
-45,
-44,
-44,
-47,
-47,
-52,
-52,
-53,
-53,
-56,
-56,
-54,
-54,
-54,
-54,
-51,
-51,
-45,
-45,
-39,
-28,
-32,
-20,
-21,
-21,
-13,
-13,
-5,
7,
6,
18,
15,
26,
26,
26,
33,
33,
42,
42,
50,
50,
55,
55,
58,
58,
59,
59,
59,
59,
58,
58,
54,
54,
53,
53,
46,
46,
36,
36,
33,
19,
21,
21,
15,
4,
5,
-9,
-8,
-8,
-18,
-18,
-25,
-25,
-34,
-34,
-39,
-39,
-48,
-48,
-51,
-51,
-53,
-53,
-54,
-54,
-54,
-54,
-54,
-54,
-50,
-50,
-46,
-46,
-38,
-38,
-36,
-22,
-23,
-23,
-14,
-14,
-7,
5,
3,
19,
19,
19,
25,
25,
31,
31,
36,
49,
44,
44,
53,
53,
57,
57,
58,
58,
59,
59,
58,
58,
58,
58,
51,
51,
48,
36,
37,
37,
28,
28,
23,
11,
14,
1,
1,
1,
-1,
-14,
-14,
-14,
-21,
-34,
-30,
-30,
-39,
-39,
-46,
-46,
-50,
-50,
-54,
-54,
-56,
-56,
-57,
-57,
-56,
-56,
-50,
-50,
-48,
-48,
-42,
-42,
-36,
-22,
-25,
-25,
-15,
-15,
-8,
4,
3,
14,
11,
24,
23,
23,
30,
42,
39,
39,
47,
47,
52,
52,
58,
58,
59,
59,
60,
60,
59,
59,
57,
57,
52,
52,
51,
39,
44,
32,
34,
34,
26,
14,
16,
3,
4,
-8,
-6,
-6,
-13,
-13,
-22,
-22,
-29,
-29,
-36,
-47,
-45,
-45,
-51,
-51,
-54,
-54,
-57,
-57,
-54,
-54,
-53,
-53,
-54,
-54,
-50,
-50,
-41,
-41,
-36,
-36,
-26,
-15,
-16,
-16,
-8,
4,
0,
13,
10,
22,
20,
20,
27,
27,
32,
46,
43,
43,
49,
49,
55,
55,
55,
55,
58,
58,
59,
59,
58,
58,
55,
55,
47,
47,
44,
31,
32,
32,
24,
24,
19,
7,
9,
9,
0,
0,
-9,
-21,
-18,
-32,
-31,
-31,
-40,
-40,
-44,
-44,
-50,
-50,
-55,
-55,
-56,
-56,
-56,
-56,
-58,
-58,
-53,
-53,
-52,
-52,
-45,
-45,
-39,
-28,
-31,
-19,
-25,
-9,
-12,
-1,
-6,
8,
6,
19,
15,
28,
28,
28,
32,
43,
41,
41,
49,
49,
53,
53,
56,
56,
60,
60,
60,
60,
57,
57,
56,
56,
51,
51,
45,
34,
34,
34,
30,
19,
22,
9,
9,
9,
1,
1,
-8,
-21,
-20,
-20,
-25,
-36,
-34,
-34,
-43,
-43,
-46,
-46,
-53,
-53,
-54,
-54,
-58,
-58,
-57,
-57,
-55,
-55,
-53,
-42,
-42,
-42,
-42,
-42,
-33,
-22,
-23,
-11,
-12,
-12,
-6,
9,
7,
7,
13,
25,
24,
24,
34,
34,
39,
39,
46,
46,
50,
50,
54,
54,
57,
57,
58,
58,
58,
58,
55,
55,
51,
51,
47,
47,
39,
39,
31,
19,
22,
22,
14,
2,
3,
3,
-6,
-19,
-18,
-18,
-24,
-37,
-36,
-36,
-43,
-43,
-47,
-47,
-50,
-50,
-54,
-54,
-57,
-57,
-58,
-58,
-58,
-58,
-53,
-53,
-48,
-37,
-39,
-39,
-36,
-24,
-28,
-12,
-13,
-13,
-8,
6,
3,
14,
10,
23,
22,
22,
30,
30,
38,
50,
48,
48,
55,
55,
52,
52,
57,
57,
56,
56,
57,
57,
56,
56,
53,
53,
45,
45,
39,
39,
32,
20,
25,
13,
16,
2,
3,
3,
-1,
-15,
-12,
-25,
-24,
-24,
-30,
-43,
-37,
-48,
-45,
-45,
-51,
-51,
-56,
-56,
-58,
-58,
-57,
-57,
-56,
-56,
-54,
-54,
-47,
-47,
-41,
-41,
-34,
-34,
-25,
-25,
-17,
-17,
-9,
5,
3,
14,
11,
26,
24,
24,
31,
31,
38,
38,
44,
44,
50,
50,
55,
55,
57,
57,
59,
59,
60,
60,
57,
57,
54,
54,
51,
38,
42,
30,
32,
32,
29,
16,
16,
16,
9,
-3,
-3,
-3,
-12,
-24,
-19,
-31,
-28,
-28,
-36,
-36,
-44,
-44,
-47,
-47,
-50,
-50,
-56,
-56,
-56,
-56,
-55,
-55,
-53,
-53,
-49,
-49,
-43,
-43,
-33,
-33,
-29,
-18,
-20,
-9,
-14,
0,
-3,
11,
11,
22,
22,
22,
29,
40,
36,
36,
44,
44,
50,
50,
52,
52,
58,
58,
58,
58,
58,
58,
59,
59,
53,
53,
48,
48,
45,
34,
35,
35,
30,
18,
18,
18,
9,
-2,
0,
0,
-9,
-20,
-20,
-20,
-28,
-28,
-37,
-37,
-43,
-43,
-48,
-48,
-53,
-53,
-56,
-56,
-57,
-57,
-57,
-57,
-52,
-52,
-49,
-49,
-43,
-43,
-38,
-38,
-30,
-30,
-20,
-9,
-11,
-11,
-2,
-2,
8,
20,
19,
19,
27,
27,
34,
34,
42,
42,
46,
46,
52,
52,
58,
58,
60,
60,
55,
55,
56,
56,
57,
46,
47,
47,
43,
43,
36,
36,
30,
19,
20,
20,
12,
1,
2,
-9,
-8,
-19,
-19,
-31,
-30,
-30,
-33,
-45,
-40,
-51,
-50,
-50,
-52,
-52,
-55,
-55,
-54,
-54,
-54,
-54,
-51,
-51,
-50,
-50,
-46,
-46,
-39,
-28,
-30,
-30,
-27,
-15,
-16,
-1,
-4,
-4,
6,
19,
19,
19,
21,
34,
32,
32,
42,
42,
49,
49,
53,
53,
56,
56,
57,
57,
59,
59,
56,
56,
54,
54,
50,
50,
47,
47,
41,
30,
32,
18,
20,
8,
11,
-1,
3,
-9,
-8,
-19,
-18,
-18,
-25,
-25,
-33,
-33,
-42,
-42,
-48,
-48,
-52,
-52,
-55,
-55,
-58,
-58,
-56,
-56,
-57,
-57,
-52,
-52,
-49,
-49,
-42,
-42,
-34,
-34,
-24,
-24,
-17,
-17,
-8,
5,
4,
4,
14,
14,
23,
23,
32,
32,
39,
50,
46,
46,
51,
51,
56,
56,
61,
61,
58,
58,
58,
58,
58,
58,
50,
50,
48,
48,
39,
39,
31,
31,
26,
14,
17,
4,
6,
6,
-4,
-18,
-16,
-16,
-21,
-33,
-32,
-43,
-42,
-42,
-49,
-49,
-50,
-50,
-54,
-54,
-55,
-55,
-57,
-57,
-54,
-54,
-50,
-50,
-49,
-49,
-41,
-41,
-37,
-26,
-28,
-17,
-18,
-18,
-10,
3,
-2,
14,
10,
21,
19,
30,
28,
39,
39,
39,
45,
45,
48,
48,
54,
54,
58,
58,
60,
60,
58,
58,
57,
57,
52,
52,
50,
50,
41,
41,
34,
34,
25,
12,
12,
12,
4,
4,
-3,
-3,
-12,
-24,
-22,
-22,
-30,
-41,
-41,
-41,
-46,
-46,
-49,
-49,
-53,
-53,
-56,
-56,
-59,
-59,
-57,
-57,
-54,
-54,
-47,
-47,
-43,
-43,
-39,
